<svg width="125mm" height="100mm" version="1.1" viewBox="0 0 125 100" xmlns="http://www.w3.org/2000/svg" xmlns:cc="http://creativecommons.org/ns#" xmlns:dc="http://purl.org/dc/elements/1.1/" xmlns:rdf="http://www.w3.org/1999/02/22-rdf-syntax-ns#">
	<title>Schematic: Barebones ATmega328P Circuit</title>
	<g fill="none" stroke="#fff">
		<path d="m60 20v75h40v-75h-15a5 5 0 0 1-5 5 5 5 0 0 1-5-5z" style="paint-order:stroke markers fill"/>
		<path d="m35 10-5-5-5 5z" stroke-width=".5"/>
		<path d="m120 10-5-5-5 5z" stroke-width=".5"/>
	</g>
	<g transform="translate(1.22e-6 -30)" fill="none" stroke="#fff" stroke-width=".5">
		<path d="m20 120h10"/>
		<path d="m22 122h6"/>
		<path d="m24 124h2"/>
		<path d="m25 120v-5"/>
	</g>
	<g transform="translate(85 -30)" fill="none" stroke="#fff" stroke-width=".5">
		<path d="m20 120h10"/>
		<path d="m22 122h6"/>
		<path d="m24 124h2"/>
		<path d="m25 120v-5"/>
	</g>
	<g fill="#fff" stroke-width=".265">
		<path d="m61.3 56.5h0.369l1.3-2.58v-0.33h-1.86v0.312h1.5v0.0227zm3.49-2.91h-0.369l1.07 2.91h0.364l1.07-2.91h-0.369l-0.864 2.45h-0.0341zm4.79 0.909c-0.108-0.597-0.585-0.949-1.17-0.949-0.744 0-1.28 0.574-1.28 1.49s0.54 1.49 1.28 1.49c0.585 0 1.06-0.352 1.17-0.949h-0.352c-0.0852 0.403-0.432 0.619-0.818 0.619-0.528 0-0.943-0.409-0.943-1.16s0.415-1.16 0.943-1.16c0.386 0 0.733 0.216 0.818 0.619zm2.91 0c-0.108-0.597-0.585-0.949-1.17-0.949-0.744 0-1.28 0.574-1.28 1.49s0.54 1.49 1.28 1.49c0.585 0 1.06-0.352 1.17-0.949h-0.352c-0.0852 0.403-0.432 0.619-0.818 0.619-0.528 0-0.943-0.409-0.943-1.16s0.415-1.16 0.943-1.16c0.386 0 0.733 0.216 0.818 0.619z" aria-label="7 VCC"/>
		<path d="m62.1 61.6c0.581 0 0.986-0.339 0.989-0.812-0.0028-0.368-0.249-0.68-0.562-0.739v-0.017c0.273-0.071 0.452-0.338 0.455-0.648-0.0028-0.443-0.375-0.773-0.881-0.773-0.511 0-0.884 0.33-0.881 0.773-0.0028 0.31 0.176 0.577 0.455 0.648v0.017c-0.32 0.0582-0.565 0.371-0.562 0.739-0.0028 0.473 0.402 0.812 0.989 0.812zm0-0.312c-0.399 0-0.645-0.205-0.642-0.517-0.0028-0.328 0.268-0.562 0.642-0.562 0.368 0 0.639 0.234 0.642 0.562-0.0028 0.312-0.249 0.517-0.642 0.517zm0-1.38c-0.318 0-0.543-0.199-0.54-0.5-0.0028-0.295 0.213-0.489 0.54-0.489 0.321 0 0.537 0.193 0.54 0.489-0.0028 0.301-0.227 0.5-0.54 0.5zm4.7-0.347h0.364c-0.108-0.562-0.58-0.949-1.19-0.949-0.746 0-1.27 0.574-1.27 1.49 0 0.92 0.523 1.49 1.3 1.49 0.693 0 1.19-0.462 1.19-1.18v-0.312h-1.11v0.312h0.767c-0.0099 0.523-0.354 0.852-0.847 0.852-0.54 0-0.955-0.409-0.955-1.16s0.415-1.16 0.932-1.16c0.42 0 0.706 0.237 0.83 0.619zm3.29-0.909h-0.347v2.29h-0.0284l-1.59-2.29h-0.341v2.91h0.352v-2.28h0.0284l1.59 2.28h0.341zm1.6 2.91c0.886 0 1.39-0.551 1.39-1.46 0-0.903-0.5-1.45-1.35-1.45h-0.938v2.91zm-0.545-0.312v-2.28h0.562c0.682 0 1.03 0.432 1.03 1.14 0 0.71-0.347 1.15-1.07 1.15z" aria-label="8 GND"/>
		<path d="m62.2 23.6h-0.352l-0.727 0.483v0.358l0.71-0.472h0.017v2.54h0.352zm2.01 2.91h0.352v-1.14h0.636c0.0256 0 0.0497 0 0.0739-0.0014l0.614 1.14h0.409l-0.658-1.2c0.371-0.126 0.544-0.429 0.544-0.815 0-0.514-0.307-0.892-0.989-0.892h-0.983zm0.352-1.45v-1.14h0.619c0.472 0 0.653 0.23 0.653 0.58 0 0.349-0.182 0.562-0.648 0.562zm3.05 1.5c0.443 0 0.767-0.222 0.869-0.551l-0.324-0.0909c-0.0852 0.227-0.283 0.341-0.545 0.341-0.393 0-0.665-0.254-0.68-0.722h1.58v-0.142c0-0.812-0.483-1.09-0.938-1.09-0.591 0-0.983 0.466-0.983 1.14 0 0.67 0.386 1.12 1.02 1.12zm-0.68-1.31c0.0227-0.339 0.263-0.642 0.646-0.642 0.364 0 0.597 0.273 0.597 0.642zm3.64-0.426c-0.105-0.31-0.341-0.517-0.773-0.517-0.46 0-0.801 0.261-0.801 0.631 0 0.301 0.179 0.503 0.58 0.597l0.364 0.0852c0.22 0.0511 0.324 0.156 0.324 0.307 0 0.188-0.199 0.341-0.511 0.341-0.274 0-0.446-0.118-0.506-0.352l-0.318 0.0796c0.0781 0.371 0.384 0.568 0.83 0.568 0.507 0 0.852-0.277 0.852-0.653 0-0.304-0.19-0.496-0.58-0.591l-0.324-0.0795c-0.259-0.0639-0.375-0.151-0.375-0.318 0-0.188 0.199-0.324 0.466-0.324 0.293 0 0.413 0.162 0.472 0.312zm1.46 1.74c0.443 0 0.767-0.222 0.869-0.551l-0.324-0.0909c-0.0852 0.227-0.283 0.341-0.545 0.341-0.393 0-0.665-0.254-0.68-0.722h1.58v-0.142c0-0.812-0.483-1.09-0.938-1.09-0.591 0-0.983 0.466-0.983 1.14 0 0.67 0.386 1.12 1.02 1.12zm-0.68-1.31c0.0227-0.339 0.263-0.642 0.646-0.642 0.364 0 0.597 0.273 0.597 0.642zm3.04-0.915h-0.466v-0.523h-0.335v0.523h-0.33v0.284h0.33v1.36c0 0.381 0.307 0.562 0.591 0.562 0.125 0 0.205-0.0227 0.25-0.0398l-0.0682-0.301c-0.0284 0.0057-0.0739 0.017-0.148 0.017-0.148 0-0.29-0.0454-0.29-0.33v-1.27h0.466z" aria-label="1 Reset"/>
		<path d="m62 63.6c-0.591-0.0071-0.972 0.438-0.972 0.972 0 0.562 0.415 0.966 0.915 0.966 0.301 0 0.557-0.148 0.716-0.386h0.0227c0 0.716-0.278 1.12-0.727 1.12-0.307 0-0.494-0.193-0.557-0.46h-0.347c0.0682 0.46 0.415 0.773 0.903 0.773 0.653 0 1.06-0.58 1.06-1.61 0-1.07-0.534-1.37-1.01-1.38zm0 0.312c0.364 0 0.631 0.312 0.631 0.653 0 0.347-0.284 0.659-0.642 0.659-0.358 0-0.619-0.29-0.619-0.653 0-0.364 0.273-0.659 0.631-0.659zm2.91-0.273h-0.415l0.938 1.45-0.938 1.45h0.415l0.75-1.19h0.0227l0.75 1.19h0.415l-0.915-1.45 0.915-1.45h-0.415l-0.75 1.21h-0.0227zm2.24 0.312h0.915v2.6h0.352v-2.6h0.915v-0.312h-2.18zm2.51 2.6 0.293-0.824h1.18l0.293 0.824h0.369l-1.07-2.91h-0.364l-1.07 2.91zm0.403-1.14 0.466-1.31h0.0227l0.466 1.31zm2.18 1.14h1.7v-0.312h-1.35v-2.6h-0.352zm3.04-2.91h-0.352l-0.727 0.483v0.358l0.71-0.472h0.017v2.54h0.352z" aria-label="9 XTAL1"/>
		<path d="m62.2 68.6h-0.352l-0.727 0.483v0.358l0.71-0.472h0.017v2.54h0.352zm1.78 2.95c0.642 0 1.01-0.544 1.01-1.49 0-0.943-0.375-1.49-1.01-1.49-0.636 0-1.01 0.551-1.01 1.49 0 0.95 0.369 1.49 1.01 1.49zm0-0.312c-0.423 0-0.67-0.425-0.67-1.18 0-0.756 0.25-1.19 0.67-1.19 0.42 0 0.67 0.432 0.67 1.19 0 0.757-0.247 1.18-0.67 1.18zm2.9-2.64h-0.415l0.938 1.45-0.938 1.45h0.415l0.75-1.19h0.0227l0.75 1.19h0.415l-0.915-1.45 0.915-1.45h-0.415l-0.75 1.21h-0.0227zm2.24 0.312h0.915v2.6h0.352v-2.6h0.915v-0.312h-2.18zm2.51 2.6 0.293-0.824h1.18l0.293 0.824h0.369l-1.07-2.91h-0.364l-1.07 2.91zm0.403-1.14 0.466-1.31h0.0227l0.466 1.31zm2.18 1.14h1.7v-0.312h-1.35v-2.6h-0.352zm2.2 0h1.84v-0.312h-1.35v-0.0227l0.653-0.699c0.5-0.536 0.648-0.786 0.648-1.11 0-0.449-0.364-0.807-0.875-0.807-0.51 0-0.898 0.347-0.898 0.858h0.335c0-0.331 0.214-0.551 0.551-0.551 0.315 0 0.557 0.193 0.557 0.5 0 0.268-0.158 0.467-0.494 0.835l-0.96 1.05z" aria-label="10 XTAL2"/>
		<path d="m82.8 66.5 0.293-0.824h1.18l0.293 0.824h0.369l-1.07-2.91h-0.364l-1.07 2.91zm0.403-1.14 0.466-1.31h0.0227l0.466 1.31zm2.03-1.77h-0.369l1.07 2.91h0.364l1.07-2.91h-0.369l-0.864 2.45h-0.0341zm4.79 0.909c-0.108-0.597-0.585-0.949-1.17-0.949-0.744 0-1.28 0.574-1.28 1.49s0.54 1.49 1.28 1.49c0.585 0 1.06-0.352 1.17-0.949h-0.352c-0.0852 0.403-0.432 0.619-0.818 0.619-0.528 0-0.943-0.409-0.943-1.16s0.415-1.16 0.943-1.16c0.386 0 0.733 0.216 0.818 0.619zm2.91 0c-0.108-0.597-0.585-0.949-1.17-0.949-0.744 0-1.28 0.574-1.28 1.49s0.54 1.49 1.28 1.49c0.585 0 1.06-0.352 1.17-0.949h-0.352c-0.0852 0.403-0.432 0.619-0.818 0.619-0.528 0-0.943-0.409-0.943-1.16s0.415-1.16 0.943-1.16c0.386 0 0.733 0.216 0.818 0.619zm1.64 2h1.84v-0.312h-1.35v-0.0227l0.653-0.699c0.5-0.536 0.648-0.786 0.648-1.11 0-0.449-0.364-0.807-0.875-0.807-0.51 0-0.898 0.347-0.898 0.858h0.335c0-0.331 0.214-0.551 0.551-0.551 0.315 0 0.557 0.193 0.557 0.5 0 0.268-0.158 0.467-0.494 0.835l-0.96 1.05zm3.37 0.0398c0.642 0 1.01-0.544 1.01-1.49 0-0.943-0.375-1.49-1.01-1.49s-1.01 0.551-1.01 1.49c0 0.95 0.369 1.49 1.01 1.49zm0-0.312c-0.423 0-0.67-0.425-0.67-1.18 0-0.756 0.25-1.19 0.67-1.19 0.42 0 0.67 0.432 0.67 1.19 0 0.757-0.247 1.18-0.67 1.18z" aria-label="AVCC 20"/>
		<path d="m84.5 61.5 0.293-0.824h1.18l0.293 0.824h0.369l-1.07-2.91h-0.364l-1.07 2.91zm0.403-1.14 0.466-1.31h0.0227l0.466 1.31zm2.18 1.14h0.352v-1.14h0.636c0.0256 0 0.0497 0 0.0739-0.0014l0.614 1.14h0.409l-0.658-1.2c0.371-0.126 0.544-0.429 0.544-0.815 0-0.514-0.307-0.892-0.989-0.892h-0.983zm0.352-1.45v-1.14h0.619c0.472 0 0.653 0.23 0.653 0.58 0 0.349-0.182 0.562-0.648 0.562zm2.2 1.45h1.78v-0.312h-1.43v-0.989h1.31v-0.312h-1.31v-0.983h1.4v-0.312h-1.76zm2.39 0h0.352v-1.3h1.26v-0.312h-1.26v-0.983h1.39v-0.312h-1.74zm3.42 0h1.84v-0.312h-1.35v-0.0227l0.653-0.699c0.5-0.536 0.648-0.786 0.648-1.11 0-0.449-0.364-0.807-0.875-0.807-0.51 0-0.898 0.347-0.898 0.858h0.335c0-0.331 0.214-0.551 0.551-0.551 0.315 0 0.557 0.193 0.557 0.5 0 0.268-0.158 0.467-0.494 0.835l-0.96 1.05zm3.44-2.91h-0.352l-0.727 0.483v0.358l0.71-0.472h0.017v2.54h0.352z" aria-label="AREF 21"/>
		<path d="m86.7 54.5h0.364c-0.108-0.562-0.58-0.949-1.19-0.949-0.746 0-1.27 0.574-1.27 1.49 0 0.92 0.523 1.49 1.3 1.49 0.693 0 1.19-0.462 1.19-1.18v-0.312h-1.11v0.312h0.767c-0.0099 0.523-0.354 0.852-0.847 0.852-0.54 0-0.955-0.409-0.955-1.16s0.415-1.16 0.932-1.16c0.42 0 0.706 0.237 0.83 0.619zm3.29-0.909h-0.347v2.29h-0.0284l-1.59-2.29h-0.341v2.91h0.352v-2.28h0.0284l1.59 2.28h0.341zm1.6 2.91c0.886 0 1.39-0.551 1.39-1.46 0-0.903-0.5-1.45-1.35-1.45h-0.938v2.91zm-0.545-0.312v-2.28h0.562c0.682 0 1.03 0.432 1.03 1.14 0 0.71-0.347 1.15-1.07 1.15zm3.6 0.312h1.84v-0.312h-1.35v-0.0227l0.653-0.699c0.5-0.536 0.648-0.786 0.648-1.11 0-0.449-0.364-0.807-0.875-0.807-0.51 0-0.898 0.347-0.898 0.858h0.335c0-0.331 0.214-0.551 0.551-0.551 0.315 0 0.557 0.193 0.557 0.5 0 0.268-0.158 0.467-0.494 0.835l-0.96 1.05zm2.42 0h1.84v-0.312h-1.35v-0.0227l0.653-0.699c0.5-0.536 0.648-0.786 0.648-1.11 0-0.449-0.364-0.807-0.875-0.807-0.51 0-0.898 0.347-0.898 0.858h0.335c0-0.331 0.214-0.551 0.551-0.551 0.315 0 0.557 0.193 0.557 0.5 0 0.268-0.158 0.467-0.494 0.835l-0.96 1.05z" aria-label="GND 22"/>
		<path d="m61.1 31.5h1.84v-0.312h-1.35v-0.0227l0.653-0.699c0.5-0.536 0.648-0.786 0.648-1.11 0-0.449-0.364-0.807-0.875-0.807-0.51 0-0.898 0.347-0.898 0.858h0.335c0-0.331 0.214-0.551 0.551-0.551 0.315 0 0.557 0.193 0.557 0.5 0 0.268-0.158 0.467-0.494 0.835l-0.96 1.05zm3.6 0h0.352v-1.14h0.636c0.0256 0 0.0497 0 0.0739-0.0014l0.614 1.14h0.409l-0.658-1.2c0.371-0.126 0.544-0.429 0.544-0.815 0-0.514-0.307-0.892-0.989-0.892h-0.983zm0.352-1.45v-1.14h0.619c0.472 0 0.653 0.23 0.653 0.58 0 0.349-0.182 0.562-0.648 0.562zm2.37-1.45h-0.415l0.938 1.45-0.938 1.45h0.415l0.75-1.19h0.0227l0.75 1.19h0.415l-0.915-1.45 0.915-1.45h-0.415l-0.75 1.21h-0.0227z" aria-label="2 RX"/>
		<path d="m62.1 36.6c0.564 0 0.983-0.354 0.983-0.83 0-0.369-0.219-0.638-0.585-0.699v-0.0227c0.294-0.0895 0.477-0.331 0.477-0.659 0-0.412-0.325-0.778-0.864-0.778-0.503 0-0.92 0.31-0.938 0.767h0.341c0.0128-0.29 0.288-0.46 0.591-0.46 0.321 0 0.528 0.195 0.528 0.489 0 0.307-0.24 0.506-0.585 0.506h-0.233v0.312h0.233c0.442 0 0.688 0.224 0.688 0.545 0 0.308-0.268 0.517-0.642 0.517-0.337 0-0.604-0.173-0.625-0.455h-0.358c0.0213 0.457 0.425 0.767 0.989 0.767zm2.58-2.64h0.915v2.6h0.352v-2.6h0.915v-0.312h-2.18zm2.9-0.312h-0.415l0.938 1.45-0.938 1.45h0.415l0.75-1.19h0.0227l0.75 1.19h0.415l-0.915-1.45 0.915-1.45h-0.415l-0.75 1.21h-0.0227z" aria-label="3 TX"/>
	</g>
	<ellipse cx="57.3" cy="25" rx="2" ry="2" fill="none" stroke="#fff" stroke-width=".5" style="paint-order:stroke markers fill"/>
	<path d="m67.2 46.5 0.31-0.872h1.24l0.31 0.872h0.391l-1.13-3.08h-0.385l-1.13 3.08zm0.427-1.2 0.493-1.39h0.024l0.493 1.39zm1.78-1.55h0.968v2.75h0.373v-2.75h0.968v-0.331h-2.31zm2.6 2.75h0.355v-1.44c0-0.338 0.247-0.577 0.523-0.577 0.269 0 0.457 0.176 0.457 0.439v1.58h0.361v-1.5c0-0.298 0.186-0.517 0.511-0.517 0.253 0 0.469 0.134 0.469 0.475v1.55h0.355v-1.55c0-0.543-0.292-0.794-0.704-0.794-0.331 0-0.573 0.152-0.692 0.391h-0.024c-0.114-0.247-0.316-0.391-0.619-0.391-0.301 0-0.523 0.144-0.619 0.391h-0.0301v-0.361h-0.343zm4.65 0.0481c0.469 0 0.812-0.235 0.92-0.583l-0.343-0.0962c-0.0902 0.241-0.299 0.361-0.577 0.361-0.416 0-0.704-0.269-0.72-0.764h1.68v-0.15c0-0.86-0.511-1.15-0.992-1.15-0.625 0-1.04 0.493-1.04 1.2s0.409 1.18 1.08 1.18zm-0.72-1.39c0.024-0.359 0.278-0.679 0.684-0.679 0.385 0 0.631 0.289 0.631 0.679zm3.15 2.25c0.553 0 0.998-0.253 0.998-0.848v-2.38h-0.343v0.367h-0.0361c-0.0782-0.12-0.222-0.397-0.673-0.397-0.583 0-0.986 0.463-0.986 1.17 0 0.722 0.421 1.13 0.98 1.13 0.451 0 0.595-0.265 0.673-0.391h0.0301v0.469c0 0.385-0.271 0.559-0.643 0.559-0.419 0-0.567-0.221-0.661-0.349l-0.283 0.198c0.144 0.242 0.428 0.463 0.944 0.463zm-0.012-1.27c-0.445 0-0.673-0.337-0.673-0.818 0-0.469 0.222-0.848 0.673-0.848 0.433 0 0.661 0.349 0.661 0.848 0 0.511-0.235 0.818-0.661 0.818zm2.34 0.409c0.403 0 0.613-0.216 0.686-0.367h0.018v0.313h0.355v-1.52c0-0.734-0.559-0.818-0.854-0.818-0.349 0-0.746 0.12-0.926 0.541l0.337 0.12c0.0782-0.168 0.263-0.349 0.601-0.349 0.326 0 0.487 0.173 0.487 0.469v0.012c0 0.171-0.174 0.156-0.595 0.21-0.428 0.0556-0.896 0.15-0.896 0.679 0 0.451 0.349 0.71 0.788 0.71zm0.0541-0.319c-0.283 0-0.487-0.126-0.487-0.373 0-0.271 0.247-0.355 0.523-0.391 0.15-0.018 0.553-0.0601 0.613-0.132v0.325c0 0.289-0.229 0.571-0.649 0.571zm2.69 0.307c0.597 0 1.04-0.374 1.04-0.878 0-0.391-0.232-0.675-0.619-0.74v-0.024c0.311-0.0947 0.505-0.35 0.505-0.698 0-0.436-0.344-0.824-0.914-0.824-0.532 0-0.974 0.328-0.992 0.812h0.361c0.0135-0.307 0.305-0.487 0.625-0.487 0.34 0 0.559 0.206 0.559 0.517 0 0.325-0.254 0.535-0.619 0.535h-0.247v0.331h0.247c0.468 0 0.728 0.238 0.728 0.577 0 0.326-0.284 0.547-0.679 0.547-0.356 0-0.639-0.183-0.661-0.481h-0.379c0.0226 0.484 0.449 0.812 1.05 0.812zm1.65-0.0421h1.94v-0.331h-1.43v-0.024l0.692-0.74c0.529-0.567 0.686-0.831 0.686-1.17 0-0.475-0.385-0.854-0.926-0.854-0.54 0-0.95 0.367-0.95 0.908h0.355c0-0.35 0.227-0.583 0.583-0.583 0.334 0 0.589 0.204 0.589 0.529 0 0.284-0.167 0.495-0.523 0.884l-1.02 1.11zm3.55 0.0421c0.615 0 1.04-0.359 1.05-0.86-3e-3 -0.389-0.263-0.72-0.595-0.782v-0.018c0.289-0.0752 0.478-0.358 0.481-0.686-3e-3 -0.469-0.397-0.818-0.932-0.818-0.541 0-0.935 0.349-0.932 0.818-3e-3 0.328 0.186 0.61 0.481 0.686v0.018c-0.338 0.0616-0.598 0.392-0.595 0.782-3e-3 0.501 0.425 0.86 1.05 0.86zm0-0.331c-0.422 0-0.683-0.216-0.679-0.547-3e-3 -0.347 0.284-0.595 0.679-0.595 0.389 0 0.676 0.248 0.679 0.595-3e-3 0.331-0.263 0.547-0.679 0.547zm0-1.46c-0.337 0-0.574-0.21-0.571-0.529-3e-3 -0.313 0.225-0.517 0.571-0.517 0.34 0 0.568 0.204 0.571 0.517-3e-3 0.319-0.241 0.529-0.571 0.529zm1.68 1.75h0.373v-1.12h0.673c0.717 0 1.04-0.436 1.04-0.98 0-0.544-0.323-0.974-1.05-0.974h-1.04zm0.373-1.46v-1.29h0.655c0.501 0 0.692 0.274 0.692 0.643s-0.191 0.649-0.686 0.649z" fill="#fff" stroke-width=".265" aria-label="ATmega328P"/>
	<g fill="none" stroke="#fff" stroke-width=".5">
		<path d="m60 30h-5"/>
		<path d="m60 35h-5"/>
		<path d="m60 55-5-0.0492"/>
		<path d="m60 60h-5"/>
		<path d="m60 65h-5"/>
		<path d="m60 70h-5"/>
		<path d="m100 55h5"/>
		<path d="m100 59.9 5 0.107"/>
		<path d="m100 65h5"/>
		<path d="m36 71h8v3h-8z"/>
		<path d="m35 70h10"/>
		<path d="m45 75h-10"/>
		<path d="m40 70v-5h15"/>
		<path d="m40 75-1e-6 5h10v-10h5"/>
	</g>
	<path d="m41.9 66.9h-0.264l-0.545 0.362v0.268l0.533-0.354h0.0128v1.9h0.264zm1.35 2.21c0.441 0.0053 0.729-0.327 0.729-0.733 0-0.422-0.312-0.724-0.686-0.724-0.225 0-0.418 0.11-0.537 0.29h-0.017c0.0011-0.532 0.208-0.839 0.545-0.839 0.23 0 0.369 0.145 0.418 0.341h0.26c-0.0533-0.339-0.311-0.575-0.678-0.575-0.491 0-0.793 0.435-0.793 1.21 0 0.806 0.401 1.03 0.759 1.04zm0-0.234c-0.274 0-0.474-0.233-0.473-0.494 0.0011-0.261 0.211-0.494 0.482-0.494 0.267 0 0.464 0.219 0.464 0.49 0 0.277-0.206 0.499-0.473 0.499zm1.18-1.98v2.18h0.247v-1.66h0.0213l0.682 1.66h0.239l0.682-1.66h0.0213v1.66h0.247v-2.18h-0.315l-0.741 1.81h-0.0256l-0.741-1.81zm2.67 2.18h0.264v-0.976h1.16v0.976h0.264v-2.18h-0.264v0.972h-1.16v-0.972h-0.264zm2.14 0h1.28v-0.234h-0.933v-0.017l0.903-1.18v-0.2h-1.22v0.234h0.899v0.017l-0.929 1.19z" fill="#fff" stroke-width=".5" aria-label="16MHz"/>
	<g fill="none" stroke="#fff">
		<g stroke-width=".5">
			<path d="m40 65h-8"/>
			<path d="m32 62v6"/>
			<path d="m30 62v6"/>
			<path d="m30 77v6"/>
			<path d="m32 77v6"/>
			<path d="m40 80h-8"/>
			<path d="m30 80h-5"/>
			<path d="m30 65h-5"/>
			<path d="m55 60h-30v25"/>
			<path d="m105 55h5v30"/>
			<path d="m105 65h3c6e-5 -1.1 0.896-2 2-2 1.1 6.7e-5 2 0.896 2 2h3v-55"/>
			<path d="m55 55-25 1e-6v-45"/>
			<path d="m34 25h-4"/>
			<path d="m46 25 9.25-3e-6"/>
		</g>
		<g stroke-width=".5">
			<path d="m13 37c1.1-6.7e-5 2-0.895 2-2-6.7e-5 -1.1-0.895-2-2-2" style="paint-order:stroke markers fill"/>
			<path d="m13 32c1.1-6.7e-5 2-0.895 2-2-6.7e-5 -1.1-0.895-2-2-2" style="paint-order:stroke markers fill"/>
			<path d="m13 27c1.1-6.7e-5 2-0.895 2-2-6.7e-5 -1.1-0.895-2-2-2" style="paint-order:stroke markers fill"/>
			<path d="m13 22c1.1-6.7e-5 2-0.895 2-2-6.7e-5 -1.1-0.895-2-2-2" style="paint-order:stroke markers fill"/>
		</g>
		<g stroke-width=".5">
			<path d="m50 60.1 1.6e-5 -3.12c1.1-6.6e-5 2-0.895 2-2-6.7e-5 -1.1-0.895-2-2-2v-3"/>
			<path d="m30.1 25-3.12-1.6e-5c-6.6e-5 -1.1-0.895-2-2-2-1.1 6.7e-5 -2 0.895-2 2h-8"/>
			<path d="m55.1 35-3.12-1.6e-5c-6.6e-5 -1.1-0.895-2-2-2-1.1 6.7e-5 -2 0.895-2 2h-16c-6.6e-5 -1.1-0.895-2-2-2-1.1 6.7e-5 -2 0.895-2 2h-1c-6.6e-5 -1.1-0.895-2-2-2-1.1 6.7e-5 -2 0.895-2 2l-8 1.21e-4"/>
			<path d="m55.1 30-3.12-1.6e-5c-6.6e-5 -1.1-0.895-2-2-2-1.1 6.7e-5 -2 0.895-2 2l-16 1.21e-4c-6.6e-5 -1.1-0.895-2-2-2-1.1 6.7e-5 -2 0.895-2 2l-1-6.1e-5c-1.28e-4 -1.1-0.895-2-2-2-1.1 6.7e-5 -2 0.895-2 2l-8 1.21e-4"/>
		</g>
	</g>
	<g transform="translate(.5 -29.5)" stroke="#fff">
		<path d="m47.5 73.5v6" fill="none" stroke-width=".463"/>
		<g stroke-width=".5">
			<path d="m47.5 76.5h3.25" fill="none"/>
			<ellipse cx="49.5" cy="74" rx=".486" ry=".5" fill="#fff" style="paint-order:stroke markers fill"/>
			<ellipse cx="49.5" cy="79" rx=".5" ry=".5" fill="#fff" style="paint-order:stroke markers fill"/>
		</g>
	</g>
	<path d="m50 25v19" fill="none" stroke="#fff" stroke-width=".5"/>
	<path d="m50 40h-18c-6.6e-5 -1.1-0.895-2-2-2-1.1 6.7e-5 -2 0.895-2 2h-1c-6.6e-5 -1.1-0.895-2-2-2-1.1 6.7e-5 -2 0.895-2 2h-3" fill="none" stroke="#fff" stroke-width=".5"/>
	<path d="m15.7 45.7h-0.258v-1.5q0-0.129 3e-3 -0.207t9e-3 -0.162q-0.048 0.048-0.087 0.081t-0.099 0.084l-0.228 0.186-0.138-0.177 0.579-0.45h0.219zm2.22-1.07q0 0.345-0.072 0.594-0.072 0.246-0.228 0.378t-0.414 0.132q-0.363 0-0.537-0.291-0.171-0.294-0.171-0.813 0-0.348 0.069-0.594 0.072-0.246 0.228-0.375 0.156-0.132 0.411-0.132 0.36 0 0.537 0.291 0.177 0.288 0.177 0.81zm-1.16 0q0 0.441 0.099 0.66 0.102 0.219 0.345 0.219 0.24 0 0.342-0.216 0.105-0.219 0.105-0.663 0-0.438-0.105-0.657-0.102-0.219-0.342-0.219-0.243 0-0.345 0.219-0.099 0.219-0.099 0.657zm2.87 0q0 0.345-0.072 0.594-0.072 0.246-0.228 0.378t-0.414 0.132q-0.363 0-0.537-0.291-0.171-0.294-0.171-0.813 0-0.348 0.069-0.594 0.072-0.246 0.228-0.375 0.156-0.132 0.411-0.132 0.36 0 0.537 0.291 0.177 0.288 0.177 0.81zm-1.16 0q0 0.441 0.099 0.66 0.102 0.219 0.345 0.219 0.24 0 0.342-0.216 0.105-0.219 0.105-0.663 0-0.438-0.105-0.657-0.102-0.219-0.342-0.219-0.243 0-0.345 0.219-0.099 0.219-0.099 0.657zm2.33-0.564q0.288 0 0.435 0.141 0.147 0.138 0.147 0.45v1.05h-0.261v-1.03q0-0.387-0.36-0.387-0.267 0-0.369 0.15t-0.102 0.432v0.834h-0.264v-1.61h0.213l0.039 0.219h0.015q0.078-0.126 0.216-0.186 0.138-0.063 0.291-0.063zm1.39 1.64h-0.27v-2.14h1.2v0.237h-0.927v0.759h0.87v0.237h-0.87z" fill="#fff" stroke-width=".265" aria-label="100nF"/>
	<path d="m13 42c1.1-6.7e-5 2-0.895 2-2-6.7e-5 -1.1-0.895-2-2-2" fill="none" stroke="#fff" stroke-width=".5" style="paint-order:stroke markers fill"/>
	<g fill="#fff" stroke-width=".265">
		<path d="m6.19 14.5h0.364c-0.108-0.562-0.58-0.949-1.19-0.949-0.746 0-1.27 0.574-1.27 1.49 0 0.92 0.523 1.49 1.3 1.49 0.693 0 1.19-0.462 1.19-1.18v-0.312h-1.11v0.312h0.767c-0.00994 0.523-0.354 0.852-0.847 0.852-0.54 0-0.955-0.409-0.955-1.16 0-0.756 0.415-1.16 0.932-1.16 0.42 0 0.706 0.237 0.83 0.619zm3.29-0.909h-0.347v2.29h-0.0284l-1.59-2.29h-0.341v2.91h0.352v-2.28h0.0284l1.59 2.28h0.341zm1.6 2.91c0.886 0 1.39-0.551 1.39-1.46 0-0.903-0.5-1.45-1.35-1.45h-0.938v2.91zm-0.545-0.312v-2.28h0.562c0.682 0 1.03 0.432 1.03 1.14 0 0.71-0.347 1.15-1.07 1.15z" aria-label="GND"/>
		<path d="m5.96 41.5c0.886 0 1.39-0.551 1.39-1.46 0-0.903-0.5-1.45-1.35-1.45h-0.938v2.91zm-0.545-0.312v-2.28h0.562c0.682 0 1.03 0.432 1.03 1.14 0 0.71-0.347 1.15-1.07 1.15zm2.24-2.28h0.915v2.6h0.352v-2.6h0.915v-0.312h-2.18zm2.73 2.6h0.352v-1.14h0.636c0.0256 0 0.0497 0 0.0739-0.0014l0.614 1.14h0.409l-0.658-1.2c0.371-0.126 0.544-0.429 0.544-0.815 0-0.514-0.307-0.892-0.989-0.892h-0.983zm0.352-1.45v-1.14h0.619c0.472 0 0.653 0.23 0.653 0.58s-0.182 0.562-0.648 0.562z" aria-label="DTR"/>
		<path d="m7.36 19.4c-0.108-0.597-0.585-0.949-1.17-0.949-0.744 0-1.28 0.574-1.28 1.49 0 0.92 0.54 1.49 1.28 1.49 0.585 0 1.06-0.352 1.17-0.949h-0.352c-0.0852 0.403-0.432 0.619-0.818 0.619-0.528 0-0.943-0.409-0.943-1.16 0-0.756 0.415-1.16 0.943-1.16 0.386 0 0.733 0.216 0.818 0.619zm0.409-0.597h0.915v2.6h0.352v-2.6h0.915v-0.312h-2.18zm4.32 0.415h0.341c-0.0156-0.439-0.42-0.767-0.983-0.767-0.557 0-0.994 0.324-0.994 0.812 0 0.392 0.284 0.625 0.739 0.756l0.358 0.102c0.307 0.0852 0.58 0.193 0.58 0.483 0 0.318-0.307 0.528-0.71 0.528-0.347 0-0.653-0.153-0.682-0.483h-0.364c0.0341 0.477 0.42 0.801 1.05 0.801 0.67 0 1.05-0.369 1.05-0.841 0-0.545-0.517-0.722-0.818-0.801l-0.295-0.0796c-0.216-0.0568-0.562-0.17-0.562-0.483 0-0.278 0.256-0.483 0.642-0.483 0.352 0 0.619 0.168 0.653 0.455z" aria-label="CTS"/>
		<path d="m4.77 23.5h-0.369l1.07 2.91h0.364l1.07-2.91h-0.369l-0.864 2.45h-0.0341zm4.79 0.909c-0.108-0.597-0.585-0.949-1.17-0.949-0.744 0-1.28 0.574-1.28 1.49 0 0.92 0.54 1.49 1.28 1.49 0.585 0 1.06-0.352 1.17-0.949h-0.352c-0.0852 0.403-0.432 0.619-0.818 0.619-0.528 0-0.943-0.409-0.943-1.16 0-0.756 0.415-1.16 0.943-1.16 0.386 0 0.733 0.216 0.818 0.619zm2.91 0c-0.108-0.597-0.585-0.949-1.17-0.949-0.744 0-1.28 0.574-1.28 1.49 0 0.92 0.54 1.49 1.28 1.49 0.585 0 1.06-0.352 1.17-0.949h-0.352c-0.0852 0.403-0.432 0.619-0.818 0.619-0.528 0-0.943-0.409-0.943-1.16 0-0.756 0.415-1.16 0.943-1.16 0.386 0 0.733 0.216 0.818 0.619z" aria-label="VCC"/>
		<path d="m7.64 28.9h0.915v2.6h0.352v-2.6h0.915v-0.312h-2.18zm2.9-0.312h-0.415l0.938 1.45-0.938 1.45h0.415l0.75-1.19h0.0227l0.75 1.19h0.415l-0.915-1.45 0.915-1.45h-0.415l-0.75 1.21h-0.0227z" aria-label="TX"/>
		<path d="m7.81 36.5h0.352v-1.14h0.636c0.0256 0 0.0497 0 0.0739-0.0014l0.614 1.14h0.409l-0.658-1.2c0.371-0.126 0.544-0.429 0.544-0.815 0-0.514-0.307-0.892-0.989-0.892h-0.983zm0.352-1.45v-1.14h0.619c0.472 0 0.653 0.23 0.653 0.58 0 0.349-0.182 0.562-0.648 0.562zm2.37-1.45h-0.415l0.938 1.45-0.938 1.45h0.415l0.75-1.19h0.0227l0.75 1.19h0.415l-0.915-1.45 0.915-1.45h-0.415l-0.75 1.21h-0.0227z" aria-label="RX"/>
	</g>
	<g transform="translate(-25 -25)" fill="none" stroke="#fff" stroke-width=".5">
		<path d="m45 62v6"/>
		<path d="m43 62v6"/>
	</g>
	<path d="m18 40-3 2e-6" fill="none" stroke="#fff" stroke-width=".5"/>
	<path d="m34 23 12 2e-6v4l-12-2e-6z" fill="none" stroke="#fff" stroke-width=".5"/>
	<g fill="#fff">
		<g stroke-width=".265">
			<path d="m37.2 26.1h-0.258v-1.5q0-0.129 3e-3 -0.207t9e-3 -0.162q-0.048 0.048-0.087 0.081t-0.099 0.084l-0.228 0.186-0.138-0.177 0.579-0.45h0.219zm2.22-1.07q0 0.345-0.072 0.594-0.072 0.246-0.228 0.378t-0.414 0.132q-0.363 0-0.537-0.291-0.171-0.294-0.171-0.813 0-0.348 0.069-0.594 0.072-0.246 0.228-0.375 0.156-0.132 0.411-0.132 0.36 0 0.537 0.291 0.177 0.288 0.177 0.81zm-1.16 0q0 0.441 0.099 0.66 0.102 0.219 0.345 0.219 0.24 0 0.342-0.216 0.105-0.219 0.105-0.663 0-0.438-0.105-0.657-0.102-0.219-0.342-0.219-0.243 0-0.345 0.219-0.099 0.219-0.099 0.657zm3.16 1.07h-0.318l-0.759-1.02-0.219 0.192v0.831h-0.27v-2.14h0.27v1.06q0.09-0.102 0.183-0.204t0.186-0.204l0.579-0.648h0.315l-0.849 0.933zm0.075 0v-0.237h0.474q-0.111-0.084-0.216-0.21-0.105-0.129-0.174-0.306-0.066-0.177-0.066-0.399 0-0.294 0.114-0.525t0.333-0.363q0.219-0.135 0.534-0.135 0.318 0 0.537 0.132t0.333 0.363 0.114 0.525q0 0.225-0.066 0.402t-0.171 0.306q-0.102 0.126-0.216 0.21h0.471v0.237h-0.804v-0.216q0.186-0.132 0.297-0.27t0.159-0.297q0.048-0.162 0.048-0.36 0-0.228-0.075-0.408t-0.231-0.282q-0.153-0.105-0.396-0.105-0.24 0-0.396 0.105-0.153 0.102-0.228 0.282-0.072 0.18-0.072 0.408 0 0.198 0.048 0.36 0.048 0.159 0.156 0.297 0.111 0.135 0.297 0.27v0.216z" aria-label="10KΩ"/>
			<path d="m34.1 64.3h-1.42v-0.219l0.561-0.567q0.162-0.162 0.273-0.288t0.168-0.246q0.057-0.123 0.057-0.267 0-0.177-0.105-0.267-0.105-0.093-0.273-0.093-0.156 0-0.276 0.054-0.117 0.054-0.24 0.15l-0.141-0.177q0.126-0.105 0.288-0.177 0.165-0.075 0.369-0.075 0.3 0 0.474 0.153 0.174 0.15 0.174 0.417 0 0.168-0.069 0.315t-0.192 0.291q-0.123 0.141-0.288 0.303l-0.447 0.441v0.012h1.08zm1.72 0h-1.42v-0.219l0.561-0.567q0.162-0.162 0.273-0.288t0.168-0.246q0.057-0.123 0.057-0.267 0-0.177-0.105-0.267-0.105-0.093-0.273-0.093-0.156 0-0.276 0.054-0.117 0.054-0.24 0.15l-0.141-0.177q0.126-0.105 0.288-0.177 0.165-0.075 0.369-0.075 0.3 0 0.474 0.153 0.174 0.15 0.174 0.417 0 0.168-0.069 0.315t-0.192 0.291q-0.123 0.141-0.288 0.303l-0.447 0.441v0.012h1.08zm1.18-1.64q0.297 0 0.477 0.207 0.183 0.207 0.183 0.624 0 0.411-0.183 0.624-0.18 0.213-0.48 0.213-0.186 0-0.309-0.069-0.12-0.072-0.189-0.165h-0.018q6e-3 0.051 0.012 0.129t6e-3 0.135v0.66h-0.264v-2.33h0.216l0.036 0.219h0.012q0.072-0.105 0.189-0.177t0.312-0.072zm-0.048 0.222q-0.246 0-0.348 0.138-0.099 0.138-0.105 0.42v0.051q0 0.297 0.096 0.459 0.099 0.159 0.363 0.159 0.147 0 0.24-0.081 0.096-0.081 0.141-0.219 0.048-0.141 0.048-0.321 0-0.276-0.108-0.441-0.105-0.165-0.327-0.165zm1.87 0.012h-0.405v1.4h-0.264v-1.4h-0.282v-0.123l0.282-0.09v-0.093q0-0.312 0.138-0.447 0.138-0.138 0.384-0.138 0.096 0 0.174 0.018 0.081 0.015 0.138 0.036l-0.069 0.207q-0.048-0.015-0.111-0.03t-0.129-0.015q-0.132 0-0.198 0.09-0.063 0.087-0.063 0.276v0.105h0.405z" aria-label="22pf"/>
			<path d="m34.1 83.3h-1.42v-0.219l0.561-0.567q0.162-0.162 0.273-0.288t0.168-0.246q0.057-0.123 0.057-0.267 0-0.177-0.105-0.267-0.105-0.093-0.273-0.093-0.156 0-0.276 0.054-0.117 0.054-0.24 0.15l-0.141-0.177q0.126-0.105 0.288-0.177 0.165-0.075 0.369-0.075 0.3 0 0.474 0.153 0.174 0.15 0.174 0.417 0 0.168-0.069 0.315t-0.192 0.291q-0.123 0.141-0.288 0.303l-0.447 0.441v0.012h1.08zm1.72 0h-1.42v-0.219l0.561-0.567q0.162-0.162 0.273-0.288t0.168-0.246q0.057-0.123 0.057-0.267 0-0.177-0.105-0.267-0.105-0.093-0.273-0.093-0.156 0-0.276 0.054-0.117 0.054-0.24 0.15l-0.141-0.177q0.126-0.105 0.288-0.177 0.165-0.075 0.369-0.075 0.3 0 0.474 0.153 0.174 0.15 0.174 0.417 0 0.168-0.069 0.315t-0.192 0.291q-0.123 0.141-0.288 0.303l-0.447 0.441v0.012h1.08zm1.18-1.64q0.297 0 0.477 0.207 0.183 0.207 0.183 0.624 0 0.411-0.183 0.624-0.18 0.213-0.48 0.213-0.186 0-0.309-0.069-0.12-0.072-0.189-0.165h-0.018q6e-3 0.051 0.012 0.129t6e-3 0.135v0.66h-0.264v-2.33h0.216l0.036 0.219h0.012q0.072-0.105 0.189-0.177t0.312-0.072zm-0.048 0.222q-0.246 0-0.348 0.138-0.099 0.138-0.105 0.42v0.051q0 0.297 0.096 0.459 0.099 0.159 0.363 0.159 0.147 0 0.24-0.081 0.096-0.081 0.141-0.219 0.048-0.141 0.048-0.321 0-0.276-0.108-0.441-0.105-0.165-0.327-0.165zm1.87 0.012h-0.405v1.4h-0.264v-1.4h-0.282v-0.123l0.282-0.09v-0.093q0-0.312 0.138-0.447 0.138-0.138 0.384-0.138 0.096 0 0.174 0.018 0.081 0.015 0.138 0.036l-0.069 0.207q-0.048-0.015-0.111-0.03t-0.129-0.015q-0.132 0-0.198 0.09-0.063 0.087-0.063 0.276v0.105h0.405z" aria-label="22pf"/>
			<g aria-label="Reset
Button">
				<path d="m39.1 46h0.264v-0.852h0.477c0.0192 0 0.0373 0 0.0554-0.0011l0.46 0.853h0.307l-0.493-0.901c0.278-0.0948 0.408-0.322 0.408-0.612 0-0.386-0.23-0.669-0.741-0.669h-0.737zm0.264-1.09v-0.857h0.464c0.354 0 0.49 0.173 0.49 0.435s-0.136 0.422-0.486 0.422zm2.29 1.12c0.332 0 0.575-0.166 0.652-0.413l-0.243-0.0682c-0.0639 0.17-0.212 0.256-0.409 0.256-0.295 0-0.499-0.191-0.51-0.541h1.19v-0.107c0-0.609-0.362-0.818-0.703-0.818-0.443 0-0.737 0.349-0.737 0.852s0.29 0.839 0.763 0.839zm-0.51-0.984c0.017-0.255 0.197-0.482 0.485-0.482 0.273 0 0.447 0.205 0.447 0.482zm2.73-0.32c-0.0788-0.232-0.256-0.388-0.58-0.388-0.345 0-0.601 0.196-0.601 0.473 0 0.226 0.134 0.377 0.435 0.447l0.273 0.0639c0.165 0.0384 0.243 0.117 0.243 0.23 0 0.141-0.149 0.256-0.384 0.256-0.206 0-0.335-0.0884-0.379-0.264l-0.239 0.0597c0.0586 0.278 0.288 0.426 0.622 0.426 0.38 0 0.639-0.208 0.639-0.49 0-0.228-0.143-0.372-0.435-0.443l-0.243-0.0597c-0.194-0.0479-0.281-0.113-0.281-0.239 0-0.141 0.149-0.243 0.349-0.243 0.219 0 0.31 0.121 0.354 0.234zm1.1 1.3c0.332 0 0.575-0.166 0.652-0.413l-0.243-0.0682c-0.0639 0.17-0.212 0.256-0.409 0.256-0.295 0-0.499-0.191-0.51-0.541h1.19v-0.107c0-0.609-0.362-0.818-0.703-0.818-0.443 0-0.737 0.349-0.737 0.852s0.29 0.839 0.763 0.839zm-0.51-0.984c0.017-0.255 0.197-0.482 0.485-0.482 0.273 0 0.447 0.205 0.447 0.482zm2.28-0.686h-0.349v-0.392h-0.251v0.392h-0.247v0.213h0.247v1.02c0 0.286 0.23 0.422 0.443 0.422 0.0938 0 0.153-0.017 0.188-0.0298l-0.0511-0.226c-0.0213 0.0043-0.0554 0.0128-0.111 0.0128-0.111 0-0.217-0.0341-0.217-0.247v-0.955h0.349z"/>
				<path d="m37.8 49.8h0.788c0.516 0 0.729-0.251 0.729-0.58 0-0.345-0.239-0.533-0.439-0.545v-0.0213c0.188-0.0511 0.354-0.175 0.354-0.456 0-0.32-0.213-0.58-0.669-0.58h-0.763zm0.264-0.234v-0.759h0.537c0.286 0 0.464 0.192 0.464 0.413 0 0.192-0.132 0.345-0.477 0.345zm0-0.989v-0.724h0.499c0.29 0 0.418 0.153 0.418 0.345 0 0.23-0.188 0.379-0.426 0.379zm2.68 0.554c0 0.307-0.234 0.447-0.422 0.447-0.209 0-0.358-0.153-0.358-0.392v-1.02h-0.251v1.04c0 0.418 0.222 0.618 0.528 0.618 0.247 0 0.409-0.132 0.486-0.298h0.017v0.277h0.251v-1.64h-0.251zm1.42-0.967h-0.349v-0.392h-0.251v0.392h-0.247v0.213h0.247v1.02c0 0.286 0.23 0.422 0.443 0.422 0.0938 0 0.153-0.017 0.188-0.0298l-0.0511-0.226c-0.0213 0.0043-0.0554 0.0128-0.111 0.0128-0.111 0-0.217-0.0341-0.217-0.247v-0.955h0.349zm1.09 0h-0.349v-0.392h-0.251v0.392h-0.247v0.213h0.247v1.02c0 0.286 0.23 0.422 0.443 0.422 0.0938 0 0.153-0.017 0.188-0.0298l-0.0511-0.226c-0.0213 0.0043-0.0554 0.0128-0.111 0.0128-0.111 0-0.217-0.0341-0.217-0.247v-0.955h0.349zm1.03 1.67c0.443 0 0.741-0.337 0.741-0.844 0-0.511-0.298-0.848-0.741-0.848s-0.741 0.337-0.741 0.848c0 0.507 0.298 0.844 0.741 0.844zm0-0.226c-0.337 0-0.49-0.29-0.49-0.618s0.153-0.622 0.49-0.622c0.337 0 0.49 0.294 0.49 0.622s-0.153 0.618-0.49 0.618zm1.38-0.793c0-0.286 0.177-0.447 0.418-0.447 0.233 0 0.375 0.152 0.375 0.409v1.02h0.251v-1.04c0-0.418-0.223-0.618-0.554-0.618-0.247 0-0.401 0.111-0.477 0.277h-0.0213v-0.256h-0.243v1.64h0.251z"/>
			</g>
		</g>
		<g stroke="#fff" stroke-width=".5">
			<circle cx="50" cy="25" r=".5" style="paint-order:stroke markers fill"/>
			<circle cx="61.8" cy="21.7" r=".5" style="paint-order:stroke markers fill"/>
			<circle cx="50" cy="40" r=".5" style="paint-order:stroke markers fill"/>
			<circle cx="30" cy="25" r=".5" style="paint-order:stroke markers fill"/>
			<circle cx="50" cy="60" r=".5" style="paint-order:stroke markers fill"/>
			<circle cx="25" cy="65" r=".5" style="paint-order:stroke markers fill"/>
			<circle cx="25" cy="60" r=".5" style="paint-order:stroke markers fill"/>
			<circle cx="25" cy="80" r=".5" style="paint-order:stroke markers fill"/>
			<circle cx="40" cy="80" r=".5" style="paint-order:stroke markers fill"/>
			<circle cx="40" cy="65" r=".5" style="paint-order:stroke markers fill"/>
		</g>
		<path d="m36 8.37h0.318v-0.778h0.778v-0.318h-0.778v-0.778h-0.318v0.778h-0.778v0.318h0.778zm2.69 0.551c0.554 0 0.96-0.409 0.96-0.966 0-0.564-0.392-0.977-0.926-0.977-0.196 0-0.386 0.0696-0.506 0.165h-0.017l0.102-0.858h1.22v-0.312h-1.51l-0.176 1.43 0.33 0.0398c0.121-0.0866 0.327-0.149 0.506-0.148 0.371 0.00284 0.642 0.284 0.642 0.665 0 0.374-0.261 0.648-0.619 0.648-0.298 0-0.536-0.192-0.562-0.455h-0.341c0.0213 0.443 0.403 0.767 0.903 0.767zm1.69-2.95h-0.369l1.07 2.91h0.364l1.07-2.91h-0.369l-0.864 2.45h-0.0341z" stroke-width=".265" aria-label="+5V"/>
		<path d="m103 8.37h0.318v-0.778h0.778v-0.318h-0.778v-0.778h-0.318v0.778h-0.778v0.318h0.778zm2.69 0.551c0.554 0 0.96-0.409 0.96-0.966 0-0.564-0.392-0.977-0.926-0.977-0.196 0-0.386 0.0696-0.506 0.165h-0.017l0.102-0.858h1.22v-0.312h-1.51l-0.176 1.43 0.33 0.0398c0.121-0.0866 0.327-0.149 0.506-0.148 0.371 0.00284 0.642 0.284 0.642 0.665 0 0.374-0.261 0.648-0.619 0.648-0.298 0-0.536-0.192-0.562-0.455h-0.341c0.0213 0.443 0.403 0.767 0.903 0.767zm1.69-2.95h-0.369l1.07 2.91h0.364l1.07-2.91h-0.369l-0.864 2.45h-0.0341z" stroke-width=".265" aria-label="+5V"/>
	</g>
	<g fill="none" stroke="#fff">
		<path d="m13 17c1.1-6.7e-5 2-0.895 2-2-6.7e-5 -1.1-0.895-2-2-2" stroke-width=".5" style="paint-order:stroke markers fill"/>
		<path d="m15 15h10.1l-0.0912 45" stroke-width=".5"/>
		<path d="m15 20h5" stroke-width=".5"/>
	</g>
	<metadata>
		<rdf:RDF>
			<cc:License rdf:about="http://creativecommons.org/licenses/by-sa/4.0/">
				<cc:permits rdf:resource="http://creativecommons.org/ns#Reproduction"/>
				<cc:permits rdf:resource="http://creativecommons.org/ns#Distribution"/>
				<cc:requires rdf:resource="http://creativecommons.org/ns#Notice"/>
				<cc:requires rdf:resource="http://creativecommons.org/ns#Attribution"/>
				<cc:permits rdf:resource="http://creativecommons.org/ns#DerivativeWorks"/>
				<cc:requires rdf:resource="http://creativecommons.org/ns#ShareAlike"/>
			</cc:License>
			<cc:Work rdf:about="">
				<cc:license rdf:resource="http://creativecommons.org/licenses/by-sa/4.0/"/>
				<dc:title>Schematic: Barebones ATmega328P Circuit</dc:title>
				<dc:creator>
					<cc:Agent>
						<dc:title>Slatian</dc:title>
					</cc:Agent>
				</dc:creator>
				<dc:date>2024-04-06</dc:date>
			</cc:Work>
		</rdf:RDF>
	</metadata>
</svg>
