<?xml version="1.0" encoding="UTF-8" standalone="no"?>
<!-- Created with Inkscape (http://www.inkscape.org/) -->

<svg
   width="125mm"
   height="100mm"
   viewBox="0 0 125 100"
   version="1.1"
   id="svg1"
   xmlns="http://www.w3.org/2000/svg"
   xmlns:svg="http://www.w3.org/2000/svg"
   xmlns:rdf="http://www.w3.org/1999/02/22-rdf-syntax-ns#"
   xmlns:cc="http://creativecommons.org/ns#"
   xmlns:dc="http://purl.org/dc/elements/1.1/">
  <title
     id="title68">Schematic: Barebones ATmega328P Circuit</title>
  <defs
     id="defs1" />
  <g
     id="layer1">
    <text
       xml:space="preserve"
       style="font-size:4.23333px;line-height:1.25;font-family:sans-serif;stroke-width:0.264583"
       x="62.689098"
       y="69.508492"
       id="text8"><tspan
         id="tspan8"
         style="stroke-width:0.264583"
         x="62.689098"
         y="69.508492" /></text>
    <path
       id="rect1"
       style="fill:none;stroke:#ffffff;stroke-width:1;stroke-dasharray:none;paint-order:stroke markers fill"
       d="M 59.999956,20.00005 V 95.000121 H 100.0001 V 20.00005 H 84.999981 a 5,4.9999995 0 0 1 -5.000212,4.999695 5,4.9999995 0 0 1 -4.999695,-4.999695 z" />
    <path
       style="fill:none;stroke:#ffffff;stroke-width:0.5;stroke-linecap:butt;stroke-linejoin:miter;stroke-dasharray:none;stroke-opacity:1"
       d="m 35.000001,9.9999999 -5,-4.9999999 -5,4.9999999 z"
       id="path1" />
    <path
       style="fill:none;stroke:#ffffff;stroke-width:0.5;stroke-linecap:butt;stroke-linejoin:miter;stroke-dasharray:none;stroke-opacity:1"
       d="m 120,10 -5,-5 -5,5 z"
       id="path1-9" />
    <g
       id="g41"
       transform="translate(1.2243494e-6,-29.999999)">
      <path
         style="fill:none;stroke:#ffffff;stroke-width:0.5;stroke-linecap:butt;stroke-linejoin:miter;stroke-dasharray:none;stroke-opacity:1"
         d="M 20,119.99999 H 30"
         id="path2" />
      <path
         style="fill:none;stroke:#ffffff;stroke-width:0.5;stroke-linecap:butt;stroke-linejoin:miter;stroke-dasharray:none;stroke-opacity:1"
         d="m 22,122 h 5.999999"
         id="path3" />
      <path
         style="fill:none;stroke:#ffffff;stroke-width:0.5;stroke-linecap:butt;stroke-linejoin:miter;stroke-dasharray:none;stroke-opacity:1"
         d="m 24.000001,124 h 2"
         id="path4" />
      <path
         style="fill:none;stroke:#ffffff;stroke-width:0.5;stroke-linecap:butt;stroke-linejoin:miter;stroke-dasharray:none;stroke-opacity:1"
         d="M 25,119.99999 V 115"
         id="path5" />
    </g>
    <g
       id="g41-4"
       transform="translate(84.999999,-29.999989)">
      <path
         style="fill:none;stroke:#ffffff;stroke-width:0.5;stroke-linecap:butt;stroke-linejoin:miter;stroke-dasharray:none;stroke-opacity:1"
         d="M 20,119.99999 H 30"
         id="path2-4" />
      <path
         style="fill:none;stroke:#ffffff;stroke-width:0.5;stroke-linecap:butt;stroke-linejoin:miter;stroke-dasharray:none;stroke-opacity:1"
         d="m 22,122 h 5.999999"
         id="path3-7" />
      <path
         style="fill:none;stroke:#ffffff;stroke-width:0.5;stroke-linecap:butt;stroke-linejoin:miter;stroke-dasharray:none;stroke-opacity:1"
         d="m 24.000001,124 h 2"
         id="path4-6" />
      <path
         style="fill:none;stroke:#ffffff;stroke-width:0.5;stroke-linecap:butt;stroke-linejoin:miter;stroke-dasharray:none;stroke-opacity:1"
         d="M 25,119.99999 V 115"
         id="path5-3" />
    </g>
    <path
       d="m 61.275102,56.535873 h 0.369318 l 1.295455,-2.579545 v -0.329545 h -1.863637 v 0.3125 h 1.5 v 0.02273 z m 3.488634,-2.90909 h -0.369318 l 1.068181,2.90909 h 0.363637 l 1.068182,-2.90909 h -0.369319 l -0.863636,2.448863 h -0.03409 z m 4.789774,0.90909 c -0.107954,-0.59659 -0.585227,-0.948863 -1.170454,-0.948863 -0.744318,0 -1.284091,0.573863 -1.284091,1.494318 0,0.920455 0.539773,1.494318 1.284091,1.494318 0.585227,0 1.0625,-0.352273 1.170454,-0.948863 h -0.352272 c -0.08523,0.403409 -0.431818,0.619318 -0.818182,0.619318 -0.528409,0 -0.943182,-0.409091 -0.943182,-1.164773 0,-0.755682 0.414773,-1.164773 0.943182,-1.164773 0.386364,0 0.732954,0.215909 0.818182,0.619318 z m 2.909089,0 c -0.107955,-0.59659 -0.585228,-0.948863 -1.170455,-0.948863 -0.744318,0 -1.284091,0.573863 -1.284091,1.494318 0,0.920455 0.539773,1.494318 1.284091,1.494318 0.585227,0 1.0625,-0.352273 1.170455,-0.948863 h -0.352273 c -0.08523,0.403409 -0.431818,0.619318 -0.818182,0.619318 -0.528409,0 -0.943182,-0.409091 -0.943182,-1.164773 0,-0.755682 0.414773,-1.164773 0.943182,-1.164773 0.386364,0 0.732955,0.215909 0.818182,0.619318 z"
       id="text5"
       style="font-size:4px;line-height:1.25;font-family:inter;-inkscape-font-specification:inter;fill:#ffffff;stroke-width:0.264583"
       aria-label="7 VCC" />
    <path
       d="m 62.061915,61.551064 c 0.580966,0 0.985795,-0.339488 0.988636,-0.8125 -0.0028,-0.367897 -0.248579,-0.680397 -0.5625,-0.738636 v -0.01705 c 0.272728,-0.07102 0.451705,-0.338068 0.454546,-0.647727 -0.0028,-0.443182 -0.375,-0.772727 -0.880682,-0.772727 -0.511364,0 -0.883523,0.329545 -0.880682,0.772727 -0.0028,0.309659 0.176137,0.576705 0.454546,0.647727 v 0.01705 c -0.319603,0.05824 -0.565341,0.370739 -0.5625,0.738636 -0.0028,0.473012 0.401988,0.8125 0.988636,0.8125 z m 0,-0.3125 c -0.399148,0 -0.644886,-0.204545 -0.642045,-0.517045 -0.0028,-0.328125 0.268465,-0.5625 0.642045,-0.5625 0.367898,0 0.639205,0.234375 0.642045,0.5625 -0.0028,0.3125 -0.248579,0.517045 -0.642045,0.517045 z m 0,-1.380682 c -0.318182,0 -0.542614,-0.198863 -0.539773,-0.5 -0.0028,-0.295454 0.213068,-0.488636 0.539773,-0.488636 0.321023,0 0.536932,0.193182 0.539773,0.488636 -0.0028,0.301137 -0.227273,0.5 -0.539773,0.5 z m 4.698866,-0.34659 h 0.363637 c -0.107955,-0.5625 -0.579546,-0.948864 -1.193182,-0.948864 -0.745739,0 -1.272727,0.573864 -1.272727,1.494318 0,0.920455 0.522727,1.494318 1.295454,1.494318 0.693182,0 1.1875,-0.461647 1.1875,-1.181818 v -0.3125 h -1.107954 v 0.3125 h 0.767045 c -0.0099,0.522727 -0.353693,0.852273 -0.846591,0.852273 -0.539773,0 -0.954545,-0.409091 -0.954545,-1.164773 0,-0.755682 0.414772,-1.164773 0.931818,-1.164773 0.420454,0 0.705966,0.237216 0.829545,0.619319 z m 3.28977,-0.909091 H 69.70396 v 2.289772 h -0.02841 l -1.590909,-2.289772 h -0.340909 v 2.909091 h 0.352273 v -2.284091 h 0.02841 l 1.585227,2.284091 h 0.340909 z m 1.60227,2.909091 c 0.886363,0 1.386363,-0.551137 1.386363,-1.460228 0,-0.903409 -0.5,-1.448863 -1.346591,-1.448863 h -0.9375 v 2.909091 z m -0.545455,-0.3125 v -2.284091 h 0.5625 c 0.681818,0 1.028409,0.431818 1.028409,1.136363 0,0.710228 -0.346591,1.147728 -1.068182,1.147728 z"
       id="text6"
       style="font-size:4px;line-height:1.25;font-family:inter;-inkscape-font-specification:inter;fill:#ffffff;stroke-width:0.264583"
       aria-label="8 GND" />
    <path
       d="m 62.152797,23.606246 h -0.352272 l -0.727273,0.482955 v 0.357954 l 0.710227,-0.471591 h 0.01705 v 2.539773 h 0.352272 z m 2.011365,2.909091 h 0.352273 v -1.136364 h 0.636364 c 0.02557,0 0.04972,0 0.07386,-0.0014 l 0.613637,1.137784 h 0.409091 l -0.657671,-1.201705 c 0.370739,-0.12642 0.544034,-0.428977 0.544034,-0.81534 0,-0.514205 -0.306818,-0.892046 -0.988636,-0.892046 h -0.982955 z m 0.352273,-1.454545 v -1.142046 h 0.619318 c 0.471591,0 0.653409,0.230114 0.653409,0.579546 0,0.349431 -0.181818,0.5625 -0.647727,0.5625 z m 3.051134,1.5 c 0.443182,0 0.767045,-0.221591 0.869318,-0.551137 l -0.323864,-0.09091 c -0.08523,0.227273 -0.28267,0.340909 -0.545454,0.340909 -0.393466,0 -0.664773,-0.254261 -0.680398,-0.721591 h 1.583807 v -0.142045 c 0,-0.8125 -0.482955,-1.090909 -0.9375,-1.090909 -0.590909,0 -0.982955,0.465909 -0.982955,1.136363 0,0.670455 0.386364,1.119319 1.017046,1.119319 z m -0.680398,-1.3125 c 0.02273,-0.339489 0.262784,-0.642046 0.646307,-0.642046 0.363636,0 0.596591,0.272727 0.596591,0.642046 z m 3.640624,-0.426137 c -0.105114,-0.309659 -0.34091,-0.517045 -0.772728,-0.517045 -0.460227,0 -0.801136,0.261363 -0.801136,0.630682 0,0.301136 0.178977,0.50284 0.579545,0.59659 l 0.363637,0.08523 c 0.22017,0.05114 0.323863,0.15625 0.323863,0.306818 0,0.1875 -0.198863,0.340909 -0.511363,0.340909 -0.274148,0 -0.446023,-0.117898 -0.505682,-0.352273 l -0.318182,0.07955 c 0.07813,0.370738 0.383523,0.568182 0.829546,0.568182 0.507102,0 0.852272,-0.276989 0.852272,-0.65341 0,-0.303977 -0.190341,-0.495738 -0.579545,-0.590909 l -0.323864,-0.07954 c -0.258523,-0.06392 -0.375,-0.150568 -0.375,-0.318182 0,-0.1875 0.198864,-0.323864 0.465909,-0.323864 0.292614,0 0.413353,0.161932 0.471591,0.3125 z m 1.46023,1.738637 c 0.443181,0 0.767045,-0.221591 0.869318,-0.551137 l -0.323864,-0.09091 c -0.08523,0.227273 -0.28267,0.340909 -0.545454,0.340909 -0.393466,0 -0.664773,-0.254261 -0.680398,-0.721591 h 1.583807 v -0.142045 c 0,-0.8125 -0.482955,-1.090909 -0.9375,-1.090909 -0.590909,0 -0.982955,0.465909 -0.982955,1.136363 0,0.670455 0.386364,1.119319 1.017046,1.119319 z m -0.680398,-1.3125 c 0.02273,-0.339489 0.262784,-0.642046 0.646307,-0.642046 0.363636,0 0.596591,0.272727 0.596591,0.642046 z m 3.044033,-0.914773 h -0.465909 v -0.522727 h -0.335228 v 0.522727 h -0.329545 v 0.284091 h 0.329545 v 1.363636 c 0,0.380682 0.306818,0.5625 0.590909,0.5625 0.125,0 0.204546,-0.02273 0.25,-0.03977 l -0.06818,-0.301136 c -0.02841,0.0057 -0.07386,0.01704 -0.147728,0.01704 -0.147727,0 -0.289772,-0.04545 -0.289772,-0.329545 V 24.61761 h 0.465909 z"
       id="text7"
       style="font-size:4px;line-height:1.25;font-family:inter;-inkscape-font-specification:inter;fill:#ffffff;stroke-width:0.264583"
       aria-label="1 Reset" />
    <path
       d="m 62.044183,63.562435 c -0.59091,-0.0071 -0.971591,0.4375 -0.971591,0.971591 0,0.5625 0.414772,0.965909 0.914772,0.965909 0.301137,0 0.556819,-0.147727 0.715909,-0.386363 h 0.02273 c 0,0.715909 -0.278409,1.125 -0.727273,1.125 -0.306818,0 -0.494318,-0.193182 -0.556818,-0.460227 h -0.346591 c 0.06818,0.460227 0.414773,0.772727 0.903409,0.772727 0.653409,0 1.056818,-0.579546 1.056818,-1.613637 0,-1.068181 -0.534091,-1.369318 -1.011363,-1.375 z m 0,0.3125 c 0.363636,0 0.630681,0.3125 0.630681,0.65341 0,0.34659 -0.284091,0.65909 -0.642045,0.65909 -0.357955,0 -0.619318,-0.289772 -0.619318,-0.653409 0,-0.363636 0.272727,-0.659091 0.630682,-0.659091 z m 2.91477,-0.272727 H 64.54418 l 0.9375,1.454546 -0.9375,1.454545 h 0.414773 l 0.75,-1.1875 h 0.02273 l 0.75,1.1875 h 0.414773 L 65.98168,65.056754 66.896453,63.602208 H 66.48168 l -0.75,1.210227 h -0.02273 z m 2.238639,0.3125 h 0.914772 v 2.596591 h 0.352273 v -2.596591 h 0.914773 v -0.3125 h -2.181818 z m 2.505681,2.596591 0.292613,-0.823864 h 1.176137 l 0.292613,0.823864 h 0.369319 l -1.068182,-2.909091 h -0.363637 l -1.068181,2.909091 z m 0.403409,-1.136364 0.465909,-1.3125 h 0.02273 l 0.465909,1.3125 z m 2.181817,1.136364 h 1.704545 v -0.3125 h -1.352273 v -2.596591 h -0.352272 z m 3.039774,-2.909091 h -0.352272 l -0.727273,0.482955 v 0.357954 l 0.710227,-0.471591 h 0.01705 v 2.539773 h 0.352272 z"
       id="text9"
       style="font-size:4px;line-height:1.25;font-family:inter;-inkscape-font-specification:inter;fill:#ffffff;stroke-width:0.264583"
       aria-label="9 XTAL1" />
    <path
       d="m 62.152797,68.604322 h -0.352272 l -0.727273,0.482954 v 0.357955 l 0.710227,-0.471591 h 0.01705 v 2.539772 h 0.352272 z m 1.784093,2.948863 c 0.642045,0 1.011363,-0.544034 1.011363,-1.494318 0,-0.943182 -0.375,-1.494318 -1.011363,-1.494318 -0.636364,0 -1.011364,0.551136 -1.011364,1.494318 0,0.950284 0.369318,1.494318 1.011364,1.494318 z m 0,-0.3125 c -0.423296,0 -0.670455,-0.424716 -0.670455,-1.181818 0,-0.755682 0.25,-1.1875 0.670455,-1.1875 0.420454,0 0.670454,0.431818 0.670454,1.1875 0,0.757102 -0.247159,1.181818 -0.670454,1.181818 z m 2.897727,-2.636363 h -0.414773 l 0.9375,1.454545 -0.9375,1.454545 h 0.414773 l 0.75,-1.1875 h 0.02273 l 0.75,1.1875 h 0.414773 l -0.914773,-1.454545 0.914773,-1.454545 h -0.414773 l -0.75,1.210227 h -0.02273 z m 2.238638,0.3125 h 0.914773 v 2.59659 h 0.352273 v -2.59659 h 0.914773 v -0.3125 h -2.181819 z m 2.505681,2.59659 0.292614,-0.823863 h 1.176136 l 0.292614,0.823863 h 0.369318 l -1.068182,-2.90909 H 72.2778 l -1.068182,2.90909 z m 0.40341,-1.136363 0.465909,-1.3125 h 0.02273 l 0.465909,1.3125 z m 2.181816,1.136363 h 1.704546 v -0.3125 h -1.352273 v -2.59659 h -0.352273 z m 2.198864,0 h 1.835227 v -0.3125 h -1.352272 v -0.02273 l 0.653409,-0.698863 c 0.5,-0.535512 0.647727,-0.785512 0.647727,-1.107955 0,-0.448864 -0.363636,-0.806818 -0.875,-0.806818 -0.509943,0 -0.897727,0.346591 -0.897727,0.857954 h 0.335227 c 0,-0.330966 0.214489,-0.551136 0.551136,-0.551136 0.315341,0 0.556818,0.193182 0.556818,0.5 0,0.268466 -0.15767,0.46733 -0.494318,0.835227 l -0.960227,1.051137 z"
       id="text10"
       style="font-size:4px;line-height:1.25;font-family:inter;-inkscape-font-specification:inter;fill:#ffffff;stroke-width:0.264583"
       aria-label="10 XTAL2" />
    <path
       d="m 82.773021,66.513412 0.292613,-0.823863 h 1.176137 l 0.292613,0.823863 h 0.369318 l -1.068181,-2.90909 h -0.363637 l -1.068182,2.90909 z m 0.403409,-1.136363 0.465909,-1.3125 h 0.02273 l 0.465909,1.3125 z m 2.028407,-1.772727 h -0.369318 l 1.068181,2.90909 h 0.363637 l 1.068182,-2.90909 H 86.9662 l -0.863636,2.448863 h -0.03409 z m 4.789775,0.90909 c -0.107955,-0.59659 -0.585228,-0.948863 -1.170455,-0.948863 -0.744318,0 -1.284091,0.573863 -1.284091,1.494318 0,0.920455 0.539773,1.494318 1.284091,1.494318 0.585227,0 1.0625,-0.352273 1.170455,-0.948863 h -0.352273 c -0.08523,0.403409 -0.431818,0.619318 -0.818182,0.619318 -0.528409,0 -0.943182,-0.409091 -0.943182,-1.164773 0,-0.755682 0.414773,-1.164773 0.943182,-1.164773 0.386364,0 0.732955,0.215909 0.818182,0.619318 z m 2.909088,0 c -0.107955,-0.59659 -0.585228,-0.948863 -1.170455,-0.948863 -0.744318,0 -1.284091,0.573863 -1.284091,1.494318 0,0.920455 0.539773,1.494318 1.284091,1.494318 0.585227,0 1.0625,-0.352273 1.170455,-0.948863 h -0.352273 c -0.08523,0.403409 -0.431818,0.619318 -0.818182,0.619318 -0.528409,0 -0.943182,-0.409091 -0.943182,-1.164773 0,-0.755682 0.414773,-1.164773 0.943182,-1.164773 0.386364,0 0.732955,0.215909 0.818182,0.619318 z m 1.642042,2 h 1.835228 v -0.3125 h -1.352273 v -0.02273 l 0.653409,-0.698863 c 0.5,-0.535512 0.647727,-0.785512 0.647727,-1.107955 0,-0.448864 -0.363636,-0.806818 -0.875,-0.806818 -0.509943,0 -0.897727,0.346591 -0.897727,0.857954 h 0.335227 c 0,-0.330966 0.214489,-0.551136 0.551137,-0.551136 0.315341,0 0.556818,0.193182 0.556818,0.5 0,0.268466 -0.157671,0.46733 -0.494318,0.835227 l -0.960228,1.051137 z m 3.36932,0.03977 c 0.642045,0 1.011364,-0.544034 1.011364,-1.494318 0,-0.943182 -0.375,-1.494318 -1.011364,-1.494318 -0.636364,0 -1.011364,0.551136 -1.011364,1.494318 0,0.950284 0.369318,1.494318 1.011364,1.494318 z m 0,-0.3125 c -0.423296,0 -0.670455,-0.424716 -0.670455,-1.181818 0,-0.755682 0.25,-1.1875 0.670455,-1.1875 0.420454,0 0.670454,0.431818 0.670454,1.1875 0,0.757102 -0.247159,1.181818 -0.670454,1.181818 z"
       id="text11"
       style="font-size:4px;line-height:1.25;font-family:inter;-inkscape-font-specification:inter;text-align:end;text-anchor:end;fill:#ffffff;stroke-width:0.264583"
       aria-label="AVCC 20" />
    <path
       d="m 84.545932,61.478897 0.292613,-0.823864 h 1.176137 l 0.292613,0.823864 h 0.369319 l -1.068182,-2.909091 h -0.363637 l -1.068181,2.909091 z m 0.403409,-1.136364 0.465909,-1.3125 h 0.02273 l 0.465909,1.3125 z m 2.181817,1.136364 h 0.352272 v -1.136364 h 0.636364 c 0.02557,0 0.04972,0 0.07386,-0.0014 l 0.613636,1.137784 h 0.409091 l -0.657671,-1.201704 c 0.370739,-0.126421 0.544035,-0.428978 0.544035,-0.815341 0,-0.514205 -0.306819,-0.892046 -0.988637,-0.892046 h -0.982954 z m 0.352272,-1.454545 v -1.142046 h 0.619319 c 0.47159,0 0.653409,0.230114 0.653409,0.579546 0,0.349431 -0.181819,0.5625 -0.647728,0.5625 z m 2.204544,1.454545 h 1.778409 v -0.3125 h -1.426137 v -0.988636 h 1.3125 v -0.3125 h -1.3125 v -0.982955 h 1.40341 v -0.3125 h -1.755682 z m 2.392044,0 h 0.352273 v -1.301136 h 1.261363 v -0.3125 h -1.261363 v -0.982955 h 1.392045 v -0.3125 h -1.744318 z m 3.420452,0 h 1.835227 v -0.3125 h -1.352273 v -0.02273 l 0.653409,-0.698864 c 0.5,-0.535511 0.647727,-0.785511 0.647727,-1.107954 0,-0.448864 -0.363636,-0.806819 -0.875,-0.806819 -0.509943,0 -0.897727,0.346591 -0.897727,0.857955 h 0.335227 c 0,-0.330966 0.214489,-0.551136 0.551137,-0.551136 0.315341,0 0.556818,0.193181 0.556818,0.5 0,0.268466 -0.15767,0.467329 -0.494318,0.835227 l -0.960227,1.051136 z m 3.443183,-2.909091 H 98.59138 l -0.727273,0.482955 v 0.357954 l 0.710228,-0.471591 h 0.01704 v 2.539773 h 0.352273 z"
       id="text12"
       style="font-size:4px;line-height:1.25;font-family:inter;-inkscape-font-specification:inter;text-align:end;text-anchor:end;fill:#ffffff;stroke-width:0.264583"
       aria-label="AREF 21" />
    <path
       d="m 86.730214,54.511292 h 0.363637 c -0.107955,-0.5625 -0.579546,-0.948864 -1.193182,-0.948864 -0.745739,0 -1.272728,0.573864 -1.272728,1.494318 0,0.920455 0.522728,1.494318 1.295455,1.494318 0.693182,0 1.1875,-0.461647 1.1875,-1.181818 v -0.3125 h -1.107955 v 0.3125 h 0.767046 c -0.0099,0.522727 -0.353693,0.852273 -0.846591,0.852273 -0.539773,0 -0.954545,-0.409091 -0.954545,-1.164773 0,-0.755682 0.414772,-1.164773 0.931818,-1.164773 0.420454,0 0.705966,0.237216 0.829545,0.619319 z m 3.28977,-0.909091 h -0.346591 v 2.289772 h -0.02841 l -1.590909,-2.289772 h -0.340909 v 2.909091 h 0.352273 v -2.284091 h 0.02841 l 1.585227,2.284091 h 0.340909 z m 1.602269,2.909091 c 0.886364,0 1.386364,-0.551137 1.386364,-1.460228 0,-0.903409 -0.5,-1.448863 -1.346591,-1.448863 h -0.9375 v 2.909091 z m -0.545454,-0.3125 v -2.284091 h 0.5625 c 0.681818,0 1.028409,0.431818 1.028409,1.136363 0,0.710228 -0.346591,1.147728 -1.068182,1.147728 z m 3.596591,0.3125 h 1.835227 v -0.3125 h -1.352273 v -0.02273 l 0.653409,-0.698863 c 0.5,-0.535512 0.647728,-0.785512 0.647728,-1.107955 0,-0.448864 -0.363637,-0.806818 -0.875,-0.806818 -0.509943,0 -0.897728,0.346591 -0.897728,0.857954 h 0.335228 c 0,-0.330965 0.214488,-0.551136 0.551136,-0.551136 0.315341,0 0.556818,0.193182 0.556818,0.5 0,0.268466 -0.15767,0.46733 -0.494318,0.835227 L 94.67339,56.25561 Z m 2.420456,0 h 1.835227 v -0.3125 H 97.5768 v -0.02273 l 0.653409,-0.698863 c 0.5,-0.535512 0.647728,-0.785512 0.647728,-1.107955 0,-0.448864 -0.363637,-0.806818 -0.875,-0.806818 -0.509944,0 -0.897728,0.346591 -0.897728,0.857954 h 0.335228 c 0,-0.330965 0.214488,-0.551136 0.551136,-0.551136 0.315341,0 0.556818,0.193182 0.556818,0.5 0,0.268466 -0.15767,0.46733 -0.494318,0.835227 l -0.960227,1.051137 z"
       id="text13"
       style="font-size:4px;line-height:1.25;font-family:inter;-inkscape-font-specification:inter;text-align:end;text-anchor:end;fill:#ffffff;stroke-width:0.264583"
       aria-label="GND 22" />
    <path
       d="m 61.069939,31.532465 h 1.835227 v -0.3125 h -1.352272 v -0.02273 l 0.653409,-0.698864 c 0.5,-0.535511 0.647727,-0.785511 0.647727,-1.107954 0,-0.448864 -0.363636,-0.806819 -0.875,-0.806819 -0.509943,0 -0.897727,0.346591 -0.897727,0.857955 h 0.335227 c 0,-0.330966 0.214489,-0.551136 0.551136,-0.551136 0.315341,0 0.556818,0.193181 0.556818,0.5 0,0.268465 -0.15767,0.467329 -0.494318,0.835227 l -0.960227,1.051136 z m 3.596592,0 h 0.352273 v -1.136364 h 0.636364 c 0.02557,0 0.04972,0 0.07386,-0.0014 l 0.613637,1.137784 h 0.409091 L 66.094088,30.33076 c 0.370739,-0.12642 0.544034,-0.428977 0.544034,-0.81534 0,-0.514205 -0.306818,-0.892046 -0.988636,-0.892046 h -0.982955 z m 0.352273,-1.454545 v -1.142046 h 0.619318 c 0.471591,0 0.653409,0.230114 0.653409,0.579546 0,0.349431 -0.181818,0.5625 -0.647727,0.5625 z m 2.374998,-1.454546 h -0.414773 l 0.9375,1.454546 -0.9375,1.454545 h 0.414773 l 0.75,-1.1875 h 0.02273 l 0.75,1.1875 h 0.414773 l -0.914773,-1.454545 0.914773,-1.454546 h -0.414773 l -0.75,1.210227 h -0.02273 z"
       id="text15"
       style="font-size:4px;line-height:1.25;font-family:inter;-inkscape-font-specification:inter;fill:#ffffff;stroke-width:0.264583"
       aria-label="2 RX" />
    <path
       d="m 62.058906,36.551064 c 0.56392,0 0.982954,-0.353693 0.982954,-0.829545 0,-0.369318 -0.21875,-0.637784 -0.585227,-0.698864 v -0.02273 c 0.294034,-0.08949 0.477273,-0.330966 0.477273,-0.659091 0,-0.411932 -0.325285,-0.778409 -0.863637,-0.778409 -0.502841,0 -0.920454,0.309659 -0.9375,0.767045 h 0.340909 c 0.01278,-0.289772 0.288353,-0.460227 0.590909,-0.460227 0.321023,0 0.528409,0.194602 0.528409,0.488636 0,0.306819 -0.240056,0.505682 -0.585227,0.505682 h -0.232954 v 0.3125 h 0.232954 c 0.441762,0 0.6875,0.224432 0.6875,0.545455 0,0.308238 -0.268466,0.517045 -0.642045,0.517045 -0.336648,0 -0.603693,-0.173295 -0.625,-0.454545 h -0.357955 c 0.02131,0.457386 0.424716,0.767045 0.988637,0.767045 z m 2.579546,-2.636363 h 0.914773 v 2.596591 h 0.352273 v -2.596591 h 0.914773 v -0.3125 h -2.181819 z m 2.89773,-0.3125 h -0.414773 l 0.9375,1.454545 -0.9375,1.454546 h 0.414773 l 0.75,-1.1875 h 0.02273 l 0.75,1.1875 h 0.414773 l -0.914773,-1.454546 0.914773,-1.454545 h -0.414773 l -0.75,1.210227 h -0.02273 z"
       id="text16"
       style="font-size:4px;line-height:1.25;font-family:inter;-inkscape-font-specification:inter;fill:#ffffff;stroke-width:0.264583"
       aria-label="3 TX" />
    <ellipse
       style="fill:none;stroke:#ffffff;stroke-width:0.499999;stroke-dasharray:none;paint-order:stroke markers fill"
       id="path18"
       cx="57.250004"
       cy="24.999998"
       rx="2"
       ry="1.9999999" />
    <path
       d="m 67.23687,46.501236 0.309683,-0.871922 h 1.244743 l 0.309682,0.871922 H 69.49184 L 68.361348,43.422451 H 67.9765 l -1.130491,3.078785 z m 0.426941,-1.202651 0.493087,-1.389061 h 0.02405 l 0.493086,1.389061 z m 1.779918,-1.545405 h 0.968134 v 2.748056 h 0.372822 V 43.75318 h 0.968133 v -0.330729 h -2.309089 z m 2.597728,2.748056 h 0.354782 v -1.443181 c 0,-0.338245 0.246543,-0.577272 0.523153,-0.577272 0.269093,0 0.457007,0.175888 0.457007,0.438968 v 1.581485 h 0.360795 v -1.503313 c 0,-0.297656 0.186411,-0.51714 0.511127,-0.51714 0.252556,0 0.469034,0.133795 0.469034,0.475047 v 1.545406 h 0.354781 V 44.95583 c 0,-0.542696 -0.291642,-0.793749 -0.70355,-0.793749 -0.330729,0 -0.572762,0.151834 -0.691524,0.390861 h -0.02405 c -0.114252,-0.246543 -0.315696,-0.390861 -0.619365,-0.390861 -0.300663,0 -0.523153,0.144318 -0.619365,0.390861 h -0.03007 v -0.360795 h -0.342756 z m 4.648244,0.04811 c 0.469034,0 0.811789,-0.234517 0.920027,-0.583286 l -0.342755,-0.09621 c -0.0902,0.240531 -0.299159,0.360796 -0.577272,0.360796 -0.416418,0 -0.703551,-0.269093 -0.720087,-0.763683 h 1.676194 v -0.150332 c 0,-0.859895 -0.511126,-1.154544 -0.992187,-1.154544 -0.625378,0 -1.040292,0.493086 -1.040292,1.20265 0,0.709564 0.408901,1.184611 1.076372,1.184611 z m -0.720087,-1.389061 c 0.02405,-0.359292 0.278113,-0.679498 0.684007,-0.679498 0.384848,0 0.631392,0.288636 0.631392,0.679498 z m 3.149439,2.254969 c 0.55322,0 0.9982,-0.252556 0.9982,-0.847868 v -2.375235 h -0.342755 v 0.366808 h -0.03608 c -0.07817,-0.120265 -0.22249,-0.396874 -0.673484,-0.396874 -0.583285,0 -0.986173,0.46302 -0.986173,1.172584 0,0.72159 0.420927,1.130491 0.98016,1.130491 0.450994,0 0.595312,-0.264583 0.673484,-0.390861 h 0.03007 v 0.469034 c 0,0.384848 -0.270597,0.559232 -0.643419,0.559232 -0.419424,0 -0.566749,-0.220987 -0.661457,-0.348768 l -0.282623,0.198437 c 0.144318,0.242033 0.428444,0.46302 0.94408,0.46302 z m -0.01203,-1.268796 c -0.444981,0 -0.673484,-0.336742 -0.673484,-0.817802 0,-0.469034 0.22249,-0.847869 0.673484,-0.847869 0.432954,0 0.661458,0.348769 0.661458,0.847869 0,0.511126 -0.234517,0.817802 -0.661458,0.817802 z m 2.339155,0.408901 c 0.402888,0 0.613352,-0.216477 0.685511,-0.366808 h 0.01804 v 0.312689 h 0.354782 v -1.521353 c 0,-0.733617 -0.559233,-0.817802 -0.853882,-0.817802 -0.348769,0 -0.745644,0.120265 -0.926041,0.541192 l 0.336742,0.120266 c 0.07817,-0.168372 0.26308,-0.348769 0.601325,-0.348769 0.326219,0 0.487074,0.172881 0.487074,0.469034 v 0.01203 c 0,0.171378 -0.174385,0.156345 -0.595312,0.210464 -0.428445,0.05562 -0.895975,0.150331 -0.895975,0.679497 0,0.450994 0.348769,0.709564 0.787736,0.709564 z m 0.05412,-0.318702 c -0.282623,0 -0.487073,-0.126278 -0.487073,-0.372822 0,-0.270596 0.246543,-0.354782 0.523153,-0.390861 0.150331,-0.01804 0.553219,-0.06013 0.613352,-0.132292 v 0.324716 c 0,0.288636 -0.228504,0.571259 -0.649432,0.571259 z m 2.687927,0.306676 c 0.596816,0 1.040293,-0.374325 1.040293,-0.877935 0,-0.390862 -0.23151,-0.674988 -0.619365,-0.73963 v -0.02405 c 0.311186,-0.09471 0.505113,-0.350272 0.505113,-0.697538 0,-0.43596 -0.344259,-0.823815 -0.914014,-0.823815 -0.532173,0 -0.974147,0.327722 -0.992187,0.811789 h 0.360795 c 0.01353,-0.306676 0.305173,-0.487073 0.625378,-0.487073 0.339749,0 0.559233,0.205953 0.559233,0.517139 0,0.324716 -0.25406,0.53518 -0.619365,0.53518 h -0.246543 v 0.330729 h 0.246543 c 0.46753,0 0.727604,0.237523 0.727604,0.577272 0,0.326219 -0.284127,0.547206 -0.679498,0.547206 -0.356285,0 -0.638908,-0.183404 -0.661458,-0.48106 h -0.378835 c 0.02255,0.484066 0.449491,0.811789 1.046306,0.811789 z m 1.653645,-0.04209 h 1.94228 v -0.330729 h -1.431154 v -0.02405 l 0.691524,-0.73963 c 0.529167,-0.566749 0.685511,-0.831332 0.685511,-1.172584 0,-0.475047 -0.384848,-0.853882 -0.926041,-0.853882 -0.539689,0 -0.950094,0.366808 -0.950094,0.908001 h 0.354782 c 0,-0.350272 0.227001,-0.583285 0.583286,-0.583285 0.333735,0 0.589298,0.20445 0.589298,0.529166 0,0.284126 -0.166867,0.49459 -0.523152,0.883948 l -1.01624,1.112452 z m 3.547821,0.04209 c 0.614855,0 1.043299,-0.359292 1.046306,-0.859895 -0.003,-0.389358 -0.26308,-0.720087 -0.595312,-0.781723 v -0.01804 c 0.288636,-0.07517 0.478053,-0.357788 0.48106,-0.685511 -0.003,-0.469033 -0.396875,-0.817802 -0.932054,-0.817802 -0.541193,0 -0.935061,0.348769 -0.932054,0.817802 -0.003,0.327723 0.18641,0.610345 0.48106,0.685511 v 0.01804 c -0.338246,0.06164 -0.598319,0.392365 -0.595312,0.781723 -0.003,0.500603 0.425437,0.859895 1.046306,0.859895 z m 0,-0.330729 c -0.422431,0 -0.682504,-0.216477 -0.679498,-0.547206 -0.003,-0.347265 0.284126,-0.595312 0.679498,-0.595312 0.389358,0 0.676491,0.248047 0.679497,0.595312 -0.003,0.330729 -0.26308,0.547206 -0.679497,0.547206 z m 0,-1.461221 c -0.336742,0 -0.574266,-0.210463 -0.571259,-0.529166 -0.003,-0.312689 0.225497,-0.517139 0.571259,-0.517139 0.339748,0 0.568252,0.20445 0.571259,0.517139 -0.003,0.318703 -0.24053,0.529166 -0.571259,0.529166 z m 1.6777,1.749857 h 0.372822 V 45.376758 H 92.1137 c 0.71708,0 1.040293,-0.435961 1.040293,-0.98016 0,-0.5442 -0.323213,-0.974147 -1.046306,-0.974147 h -1.040293 z m 0.372822,-1.455207 V 43.75318 h 0.655444 c 0.500604,0 0.691524,0.273603 0.691524,0.643418 0,0.369815 -0.19092,0.649431 -0.68551,0.649431 z"
       id="text18"
       style="font-size:4.23333px;line-height:1.25;font-family:inter;-inkscape-font-specification:inter;fill:#ffffff;stroke-width:0.264583"
       aria-label="ATmega328P" />
    <path
       style="fill:none;stroke:#ffffff;stroke-width:0.5;stroke-linecap:butt;stroke-linejoin:miter;stroke-dasharray:none;stroke-opacity:1"
       d="M 60.000002,29.999999 H 55.000001"
       id="path19" />
    <path
       style="fill:none;stroke:#ffffff;stroke-width:0.5;stroke-linecap:butt;stroke-linejoin:miter;stroke-dasharray:none;stroke-opacity:1"
       d="M 60.000002,34.999997 H 55.000001"
       id="path20" />
    <path
       style="fill:none;stroke:#ffffff;stroke-width:0.5;stroke-linecap:butt;stroke-linejoin:miter;stroke-dasharray:none;stroke-opacity:1"
       d="m 60.003076,55.049156 -5.003075,-0.04916"
       id="path21" />
    <path
       style="fill:none;stroke:#ffffff;stroke-width:0.5;stroke-linecap:butt;stroke-linejoin:miter;stroke-dasharray:none;stroke-opacity:1"
       d="M 60.000002,59.999997 H 55.000001"
       id="path22" />
    <path
       style="fill:none;stroke:#ffffff;stroke-width:0.5;stroke-linecap:butt;stroke-linejoin:miter;stroke-dasharray:none;stroke-opacity:1"
       d="M 60.000002,64.999998 H 55.000001"
       id="path23" />
    <path
       style="fill:none;stroke:#ffffff;stroke-width:0.5;stroke-linecap:butt;stroke-linejoin:miter;stroke-dasharray:none;stroke-opacity:1"
       d="M 60.000002,69.999998 H 55.000001"
       id="path24" />
    <path
       style="fill:none;stroke:#ffffff;stroke-width:0.5;stroke-linecap:butt;stroke-linejoin:miter;stroke-dasharray:none;stroke-opacity:1"
       d="m 100,54.999997 h 5"
       id="path25" />
    <path
       style="fill:none;stroke:#ffffff;stroke-width:0.5;stroke-linecap:butt;stroke-linejoin:miter;stroke-dasharray:none;stroke-opacity:1"
       d="m 100,59.892862 5,0.107135"
       id="path26" />
    <path
       style="fill:none;stroke:#ffffff;stroke-width:0.5;stroke-linecap:butt;stroke-linejoin:miter;stroke-dasharray:none;stroke-opacity:1"
       d="m 100,64.999998 h 5"
       id="path27" />
    <path
       style="fill:none;stroke:#ffffff;stroke-width:0.5;stroke-linecap:butt;stroke-linejoin:miter;stroke-dasharray:none;stroke-opacity:1"
       d="m 36.000003,71.000001 h 7.999999 v 3 h -7.999999 z"
       id="path28" />
    <path
       style="fill:none;stroke:#ffffff;stroke-width:0.5;stroke-linecap:butt;stroke-linejoin:miter;stroke-dasharray:none;stroke-opacity:1"
       d="M 35.000002,69.999998 H 45"
       id="path29" />
    <path
       style="fill:none;stroke:#ffffff;stroke-width:0.5;stroke-linecap:butt;stroke-linejoin:miter;stroke-dasharray:none;stroke-opacity:1"
       d="M 45,75.000001 H 35.000002"
       id="path30" />
    <path
       style="fill:none;stroke:#ffffff;stroke-width:0.5;stroke-linecap:butt;stroke-linejoin:miter;stroke-dasharray:none;stroke-opacity:1"
       d="m 40.000003,69.999998 v -5 h 14.999998"
       id="path31" />
    <path
       style="fill:none;stroke:#ffffff;stroke-width:0.5;stroke-linecap:butt;stroke-linejoin:miter;stroke-dasharray:none;stroke-opacity:1"
       d="m 40.000003,75.000001 -10e-7,5 h 9.999999 V 69.999998 h 5"
       id="path32" />
    <path
       d="m 41.858144,66.93054 h -0.264205 l -0.545455,0.362216 v 0.268466 l 0.532671,-0.353693 h 0.01278 v 1.904829 h 0.264205 z m 1.350853,2.211648 c 0.441051,0.0053 0.728693,-0.32706 0.728693,-0.732955 0,-0.421875 -0.312145,-0.724432 -0.68608,-0.724432 -0.224786,0 -0.417613,0.10973 -0.536931,0.289773 h -0.01705 c 0.0011,-0.531605 0.207742,-0.839489 0.545455,-0.839489 0.230113,0 0.368608,0.144887 0.417613,0.340909 h 0.259944 c -0.05327,-0.338778 -0.31108,-0.575284 -0.677557,-0.575284 -0.491122,0 -0.792614,0.434659 -0.792614,1.205966 0,0.806463 0.400568,1.03125 0.758523,1.035512 z m 0,-0.234375 c -0.273793,0 -0.474077,-0.23331 -0.473012,-0.494319 0.0011,-0.261008 0.210938,-0.494318 0.481535,-0.494318 0.2674,0 0.464488,0.219461 0.464488,0.490057 0,0.276989 -0.205611,0.49858 -0.473011,0.49858 z m 1.184657,-1.977273 v 2.181818 h 0.247159 v -1.65767 h 0.02131 l 0.681818,1.65767 h 0.238637 l 0.681818,-1.65767 h 0.02131 v 1.65767 h 0.247159 V 66.93054 h -0.315341 l -0.741477,1.811079 h -0.02557 L 44.708995,66.93054 Z m 2.667612,2.181818 h 0.264205 v -0.975852 h 1.163352 v 0.975852 h 0.264205 V 66.93054 h -0.264205 v 0.971591 H 47.325471 V 66.93054 h -0.264205 z m 2.139206,0 h 1.28267 v -0.234375 h -0.933239 v -0.01704 l 0.903409,-1.184659 v -0.200285 h -1.223011 v 0.234375 h 0.899148 v 0.01705 l -0.928977,1.193182 z"
       id="text32"
       style="font-size:3px;line-height:1.25;font-family:Inter;-inkscape-font-specification:Inter;fill:#ffffff;stroke-width:0.5"
       aria-label="16MHz" />
    <path
       style="fill:none;stroke:#ffffff;stroke-width:0.5;stroke-linecap:butt;stroke-linejoin:miter;stroke-dasharray:none;stroke-opacity:1"
       d="M 40.000003,64.999998 H 32"
       id="path33" />
    <path
       style="fill:none;stroke:#ffffff;stroke-width:0.5;stroke-linecap:butt;stroke-linejoin:miter;stroke-dasharray:none;stroke-opacity:1"
       d="m 32,61.999998 v 5.999999"
       id="path34" />
    <path
       style="fill:none;stroke:#ffffff;stroke-width:0.5;stroke-linecap:butt;stroke-linejoin:miter;stroke-dasharray:none;stroke-opacity:1"
       d="m 30.000001,61.999998 v 5.999999"
       id="path35" />
    <path
       style="fill:none;stroke:#ffffff;stroke-width:0.5;stroke-linecap:butt;stroke-linejoin:miter;stroke-dasharray:none;stroke-opacity:1"
       d="m 30.000001,77.000001 v 5.99999"
       id="path36" />
    <path
       style="fill:none;stroke:#ffffff;stroke-width:0.5;stroke-linecap:butt;stroke-linejoin:miter;stroke-dasharray:none;stroke-opacity:1"
       d="m 32,77.000001 v 5.99999"
       id="path37" />
    <path
       style="fill:none;stroke:#ffffff;stroke-width:0.5;stroke-linecap:butt;stroke-linejoin:miter;stroke-dasharray:none;stroke-opacity:1"
       d="M 40.000003,80.000001 H 32"
       id="path38" />
    <path
       style="fill:none;stroke:#ffffff;stroke-width:0.5;stroke-linecap:butt;stroke-linejoin:miter;stroke-dasharray:none;stroke-opacity:1"
       d="m 30.000001,80.000001 h -5"
       id="path39" />
    <path
       style="fill:none;stroke:#ffffff;stroke-width:0.5;stroke-linecap:butt;stroke-linejoin:miter;stroke-dasharray:none;stroke-opacity:1"
       d="m 30.000001,64.999998 h -5"
       id="path40" />
    <path
       style="fill:none;stroke:#ffffff;stroke-width:0.5;stroke-linecap:butt;stroke-linejoin:miter;stroke-dasharray:none;stroke-opacity:1"
       d="m 55.000001,59.999997 h -30 v 25.000004"
       id="path41" />
    <path
       style="fill:none;stroke:#ffffff;stroke-width:0.5;stroke-linecap:butt;stroke-linejoin:miter;stroke-dasharray:none;stroke-opacity:1"
       d="m 105,54.999997 h 5 v 30.000004"
       id="path42" />
    <path
       style="fill:none;stroke:#ffffff;stroke-width:0.5;stroke-linecap:butt;stroke-linejoin:miter;stroke-dasharray:none;stroke-opacity:1"
       d="m 105,64.999998 h 3 c 6e-5,-1.104469 0.89552,-1.999933 2,-2 1.10447,6.7e-5 1.99994,0.895531 2,2 h 3 V 10"
       id="path44" />
    <path
       style="fill:none;stroke:#ffffff;stroke-width:0.5;stroke-linecap:butt;stroke-linejoin:miter;stroke-dasharray:none;stroke-opacity:1"
       d="M 55.000002,54.999999 30.000001,55 V 10"
       id="path45" />
    <path
       style="fill:none;stroke:#ffffff;stroke-width:0.5;stroke-linecap:butt;stroke-linejoin:miter;stroke-dasharray:none;stroke-opacity:1"
       d="M 34.000001,25 H 30"
       id="path47" />
    <path
       style="fill:none;stroke:#ffffff;stroke-width:0.5;stroke-linecap:butt;stroke-linejoin:miter;stroke-dasharray:none;stroke-opacity:1"
       d="m 46.000001,25 9.25,-3e-6"
       id="path48" />
    <path
       id="path49-9"
       style="fill:none;stroke:#ffffff;stroke-width:0.499999;paint-order:stroke markers fill"
       d="M 13.000122,36.999878 C 14.104596,36.999811 14.999933,36.104474 15,35 c -6.7e-5,-1.104474 -0.895404,-1.999811 -1.999878,-1.999878" />
    <path
       id="path49-8"
       style="fill:none;stroke:#ffffff;stroke-width:0.499999;paint-order:stroke markers fill"
       d="M 13.000122,31.999878 C 14.104596,31.999811 14.999933,31.104474 15,30 c -6.7e-5,-1.104474 -0.895404,-1.999811 -1.999878,-1.999878" />
    <path
       id="path49-8-2"
       style="fill:none;stroke:#ffffff;stroke-width:0.499999;paint-order:stroke markers fill"
       d="M 13.000122,26.999878 C 14.104596,26.999811 14.999933,26.104474 15,25 c -6.7e-5,-1.104474 -0.895404,-1.999811 -1.999878,-1.999878" />
    <path
       id="path49-8-24"
       style="fill:none;stroke:#ffffff;stroke-width:0.499999;paint-order:stroke markers fill"
       d="M 13.000122,21.999878 C 14.104596,21.999811 14.999933,21.104474 15,20 c -6.7e-5,-1.104474 -0.895404,-1.999811 -1.999878,-1.999878" />
    <path
       style="fill:none;stroke:#ffffff;stroke-width:0.5;stroke-linecap:butt;stroke-linejoin:miter;stroke-dasharray:none;stroke-opacity:1"
       d="m 49.999985,60.116371 1.6e-5,-3.116373 c 1.104475,-6.6e-5 1.999812,-0.895403 1.999879,-1.999877 -6.7e-5,-1.104474 -0.895404,-1.999811 -1.999879,-2 v -3.000122"
       id="path50" />
    <path
       style="fill:none;stroke:#ffffff;stroke-width:0.5;stroke-linecap:butt;stroke-linejoin:miter;stroke-dasharray:none;stroke-opacity:1"
       d="M 30.11625,25.000016 26.999877,25 C 26.999811,23.895525 26.104474,23.000188 25,23.000121 23.895526,23.000188 23.000189,23.895525 23,25 h -8"
       id="path50-6-4" />
    <path
       style="fill:none;stroke:#ffffff;stroke-width:0.5;stroke-linecap:butt;stroke-linejoin:miter;stroke-dasharray:none;stroke-opacity:1"
       d="m 55.116249,34.999895 -3.116373,-1.6e-5 C 51.99981,33.895404 51.104473,33.000067 49.999999,33 c -1.104474,6.7e-5 -1.999811,0.895404 -2,1.999879 H 31.999877 C 31.999811,33.895404 31.104474,33.000067 30,33 c -1.104474,6.7e-5 -1.999811,0.895404 -2,1.999879 H 26.999877 C 26.999811,33.895404 26.104474,33.000067 25,33 c -1.104474,6.7e-5 -1.999811,0.895404 -2,1.999879 L 15,35"
       id="path50-1" />
    <path
       style="fill:none;stroke:#ffffff;stroke-width:0.5;stroke-linecap:butt;stroke-linejoin:miter;stroke-dasharray:none;stroke-opacity:1"
       d="m 55.116249,29.999895 -3.116373,-1.6e-5 C 51.99981,28.895404 51.104473,28.000067 49.999999,28 c -1.104474,6.7e-5 -1.999811,0.895404 -2,1.999879 L 31.999877,30 C 31.999811,28.895525 31.104474,28.000188 30,28.000121 28.895526,28.000188 28.000189,28.895525 28,30 l -1.000061,-6.1e-5 C 26.999811,28.895404 26.104474,28.000067 25,28 c -1.104474,6.7e-5 -1.999811,0.895404 -2,1.999879 L 15,30"
       id="path50-1-0" />
    <g
       id="g54"
       transform="translate(0.50000222,-29.500001)">
      <path
         style="fill:none;stroke:#ffffff;stroke-width:0.46291;stroke-linecap:butt;stroke-linejoin:miter;stroke-dasharray:none;stroke-opacity:1"
         d="m 47.500002,73.499996 v 6"
         id="path51" />
      <path
         style="fill:none;stroke:#ffffff;stroke-width:0.5;stroke-linecap:butt;stroke-linejoin:miter;stroke-dasharray:none;stroke-opacity:1"
         d="m 47.491496,76.499996 h 3.249999"
         id="path52" />
      <ellipse
         style="fill:#ffffff;fill-opacity:1;stroke:#ffffff;stroke-width:0.5;stroke-dasharray:none;stroke-opacity:1;paint-order:stroke markers fill"
         id="path53"
         cx="49.5"
         cy="74"
         rx="0.48561656"
         ry="0.50000101" />
      <ellipse
         style="fill:#ffffff;fill-opacity:1;stroke:#ffffff;stroke-width:0.5;stroke-dasharray:none;stroke-opacity:1;paint-order:stroke markers fill"
         id="path54"
         cx="49.5"
         cy="79"
         rx="0.5"
         ry="0.49999997" />
    </g>
    <path
       style="fill:none;stroke:#ffffff;stroke-width:0.5;stroke-linecap:butt;stroke-linejoin:miter;stroke-dasharray:none;stroke-opacity:1"
       d="M 50.000001,24.999999 V 43.999998"
       id="path56" />
    <path
       style="fill:none;stroke:#ffffff;stroke-width:0.5;stroke-linecap:butt;stroke-linejoin:miter;stroke-dasharray:none;stroke-opacity:1"
       d="M 50,40 H 32 c -6.6e-5,-1.104475 -0.895403,-1.999812 -1.999877,-1.999879 -1.104474,6.7e-5 -1.999811,0.895404 -2,1.999879 H 27 c -6.6e-5,-1.104475 -0.895403,-1.999812 -1.999877,-1.999879 -1.104474,6.7e-5 -1.999811,0.895404 -2,1.999879 h -3.000122"
       id="path59" />
    <path
       d="m 15.686496,45.718948 h -0.258 v -1.497 q 0,-0.129 0.003,-0.207 0.003,-0.078 0.009,-0.162 -0.048,0.048 -0.087,0.081 -0.039,0.033 -0.099,0.084 l -0.228,0.186 -0.138,-0.177 0.579,-0.45 h 0.219 z m 2.220002,-1.074 q 0,0.345 -0.072,0.594 -0.072,0.246 -0.228,0.378 -0.156,0.132 -0.414,0.132 -0.363,0 -0.537,-0.291 -0.171,-0.294 -0.171,-0.813 0,-0.348 0.069,-0.594 0.072,-0.246 0.228,-0.375 0.156,-0.132 0.411,-0.132 0.36,0 0.537,0.291 0.177,0.288 0.177,0.81 z m -1.158,0 q 0,0.441 0.099,0.66 0.102,0.219 0.345,0.219 0.24,0 0.342,-0.216 0.105,-0.219 0.105,-0.663 0,-0.438 -0.105,-0.657 -0.102,-0.219 -0.342,-0.219 -0.243,0 -0.345,0.219 -0.099,0.219 -0.099,0.657 z m 2.874001,0 q 0,0.345 -0.072,0.594 -0.072,0.246 -0.228,0.378 -0.156,0.132 -0.414,0.132 -0.363,0 -0.537,-0.291 -0.171,-0.294 -0.171,-0.813 0,-0.348 0.069,-0.594 0.072,-0.246 0.228,-0.375 0.156,-0.132 0.411,-0.132 0.36,0 0.537,0.291 0.177,0.288 0.177,0.81 z m -1.158,0 q 0,0.441 0.099,0.66 0.102,0.219 0.345,0.219 0.24,0 0.342,-0.216 0.105,-0.219 0.105,-0.663 0,-0.438 -0.105,-0.657 -0.102,-0.219 -0.342,-0.219 -0.243,0 -0.345,0.219 -0.099,0.219 -0.099,0.657 z m 2.334002,-0.564 q 0.288,0 0.435,0.141 0.147,0.138 0.147,0.45 v 1.047 h -0.261 v -1.029 q 0,-0.387 -0.36,-0.387 -0.267,0 -0.369,0.15 -0.102,0.15 -0.102,0.432 v 0.834 h -0.264 v -1.608 h 0.213 l 0.039,0.219 h 0.015 q 0.078,-0.126 0.216,-0.186 0.138,-0.063 0.291,-0.063 z m 1.386,1.638 h -0.27 v -2.142 h 1.197 v 0.237 h -0.927 v 0.759 h 0.87 v 0.237 h -0.87 z"
       id="text62"
       style="font-size:3px;line-height:1.25;text-align:center;text-anchor:middle;fill:#ffffff;stroke-width:0.264583"
       aria-label="100nF" />
    <path
       id="path49"
       style="fill:none;stroke:#ffffff;stroke-width:0.499999;paint-order:stroke markers fill"
       d="m 13.000124,41.999879 c 1.104474,-6.7e-5 1.999811,-0.895404 1.999878,-1.999878 -6.7e-5,-1.104474 -0.895404,-1.999811 -1.999878,-1.999878" />
    <path
       d="m 6.1925393,14.454546 h 0.3636364 c -0.1079546,-0.5625 -0.5795455,-0.948864 -1.1931819,-0.948864 -0.7457386,0 -1.2727272,0.573864 -1.2727272,1.494319 0,0.920454 0.5227272,1.494318 1.2954545,1.494318 0.6931818,0 1.1875,-0.461648 1.1875,-1.181818 v -0.3125 H 5.4652666 v 0.3125 H 6.232312 c -0.00994,0.522727 -0.3536932,0.852272 -0.8465909,0.852272 -0.5397727,0 -0.9545454,-0.409091 -0.9545454,-1.164772 0,-0.755682 0.4147727,-1.164773 0.9318181,-1.164773 0.4204546,0 0.705966,0.237216 0.8295455,0.619318 z m 3.28977,-0.909091 h -0.346591 v 2.289773 H 9.1073093 L 7.5164002,13.545455 H 7.1754911 v 2.909091 h 0.3522727 v -2.284091 h 0.028409 l 1.5852273,2.284091 h 0.3409091 z m 1.6022697,2.909091 c 0.886363,0 1.386363,-0.551136 1.386363,-1.460227 0,-0.903409 -0.5,-1.448864 -1.346591,-1.448864 h -0.9375 v 2.909091 z m -0.545455,-0.3125 v -2.284091 h 0.5625 c 0.681818,0 1.028409,0.431818 1.028409,1.136364 0,0.710227 -0.346591,1.147727 -1.068182,1.147727 z"
       id="text49-7"
       style="font-size:4px;line-height:1.25;font-family:Inter;-inkscape-font-specification:Inter;fill:#ffffff;stroke-width:0.264583"
       aria-label="GND" />
    <path
       d="m 5.9595742,41.539391 c 0.8863637,0 1.3863637,-0.551137 1.3863637,-1.460228 0,-0.903409 -0.5,-1.448863 -1.346591,-1.448863 h -0.9375 v 2.909091 z m -0.5454545,-0.3125 V 38.9428 h 0.5625 c 0.6818182,0 1.0284091,0.431818 1.0284091,1.136363 0,0.710228 -0.3465909,1.147728 -1.0681819,1.147728 z M 7.6584399,38.9428 h 0.9147728 v 2.596591 H 8.9254854 V 38.9428 H 9.8402581 V 38.6303 H 7.6584399 Z m 2.7272751,2.596591 h 0.352272 v -1.136364 h 0.636364 c 0.02557,0 0.04972,0 0.07386,-0.0014 l 0.613636,1.137785 h 0.409091 l -0.65767,-1.201705 c 0.370738,-0.12642 0.544034,-0.428977 0.544034,-0.815341 0,-0.514204 -0.306819,-0.892045 -0.988637,-0.892045 h -0.982954 z m 0.352272,-1.454546 V 38.9428 h 0.619319 c 0.471591,0 0.653409,0.230113 0.653409,0.579545 0,0.349432 -0.181818,0.5625 -0.647728,0.5625 z"
       id="text49"
       style="font-size:4px;line-height:1.25;font-family:Inter;-inkscape-font-specification:Inter;fill:#ffffff;stroke-width:0.264583"
       aria-label="DTR" />
    <path
       d="M 7.3629883,19.448864 C 7.2550338,18.852273 6.777761,18.5 6.1925338,18.5 c -0.7443182,0 -1.284091,0.573864 -1.284091,1.494319 0,0.920454 0.5397728,1.494318 1.284091,1.494318 0.5852272,0 1.0625,-0.352273 1.1704545,-0.948864 H 7.0107156 c -0.085227,0.403409 -0.4318182,0.619318 -0.8181818,0.619318 -0.5284091,0 -0.9431819,-0.409091 -0.9431819,-1.164772 0,-0.755682 0.4147728,-1.164773 0.9431819,-1.164773 0.3863636,0 0.7329545,0.215909 0.8181818,0.619318 z m 0.4090881,-0.596591 h 0.9147728 v 2.596591 h 0.3522727 v -2.596591 h 0.9147727 v -0.3125 H 7.7720764 Z m 4.3181836,0.414773 h 0.340909 C 12.415544,18.828125 12.010715,18.5 11.448215,18.5 c -0.556818,0 -0.994318,0.323864 -0.994318,0.8125 0,0.392046 0.284091,0.625 0.738636,0.755682 l 0.357955,0.102273 c 0.306818,0.08523 0.579545,0.193182 0.579545,0.482954 0,0.318182 -0.306818,0.52841 -0.710227,0.52841 -0.346591,0 -0.653409,-0.15341 -0.681818,-0.482955 H 10.374351 C 10.408442,21.176137 10.794806,21.5 11.419806,21.5 c 0.670454,0 1.051136,-0.369318 1.051136,-0.840909 0,-0.545454 -0.517045,-0.721591 -0.818182,-0.801136 l -0.295454,-0.07955 c -0.215909,-0.05682 -0.5625,-0.170454 -0.5625,-0.482954 0,-0.278409 0.255682,-0.482955 0.642045,-0.482955 0.352273,0 0.619318,0.167614 0.653409,0.454546 z"
       id="text49-72"
       style="font-size:4px;line-height:1.25;font-family:Inter;-inkscape-font-specification:Inter;fill:#ffffff;stroke-width:0.264583"
       aria-label="CTS" />
    <path
       d="M 4.7720794,23.545455 H 4.4027612 L 5.470943,26.454546 H 5.8345794 L 6.9027612,23.545455 H 6.533443 l -0.8636363,2.448864 h -0.034091 z m 4.7897748,0.909091 C 9.4538996,23.857955 8.9766269,23.505682 8.3913996,23.505682 c -0.7443181,0 -1.2840909,0.573864 -1.2840909,1.494319 0,0.920454 0.5397728,1.494318 1.2840909,1.494318 0.5852273,0 1.0625,-0.352273 1.1704546,-0.948864 H 9.2095815 c -0.085227,0.403409 -0.4318182,0.619318 -0.8181819,0.619318 -0.528409,0 -0.9431818,-0.409091 -0.9431818,-1.164772 0,-0.755682 0.4147728,-1.164773 0.9431818,-1.164773 0.3863637,0 0.7329546,0.215909 0.8181819,0.619318 z m 2.9090878,0 c -0.107954,-0.596591 -0.585227,-0.948864 -1.170454,-0.948864 -0.744318,0 -1.284091,0.573864 -1.284091,1.494319 0,0.920454 0.539773,1.494318 1.284091,1.494318 0.585227,0 1.0625,-0.352273 1.170454,-0.948864 H 12.11867 c -0.08523,0.403409 -0.431819,0.619318 -0.818182,0.619318 -0.528409,0 -0.943182,-0.409091 -0.943182,-1.164772 0,-0.755682 0.414773,-1.164773 0.943182,-1.164773 0.386363,0 0.732954,0.215909 0.818182,0.619318 z"
       id="text49-6"
       style="font-size:4px;line-height:1.25;font-family:Inter;-inkscape-font-specification:Inter;fill:#ffffff;stroke-width:0.264583"
       aria-label="VCC" />
    <path
       d="m 7.6357129,28.857955 h 0.9147728 v 2.596591 h 0.3522727 v -2.596591 h 0.9147727 v -0.3125 H 7.6357129 Z m 2.8977291,-0.3125 H 10.11867 l 0.9375,1.454546 -0.9375,1.454545 h 0.414772 l 0.75,-1.1875 h 0.02273 l 0.75,1.1875 h 0.414772 L 11.55617,30.000001 12.470942,28.545455 H 12.05617 l -0.75,1.210227 h -0.02273 z"
       id="text49-1"
       style="font-size:4px;line-height:1.25;font-family:Inter;-inkscape-font-specification:Inter;fill:#ffffff;stroke-width:0.264583"
       aria-label="TX" />
    <path
       d="M 7.8061716,36.454544 H 8.1584444 V 35.31818 H 8.794808 c 0.025568,0 0.049716,0 0.073864,-0.0014 L 9.482308,36.454544 H 9.8913989 L 9.2337285,35.25284 c 0.3707386,-0.126421 0.544034,-0.428978 0.544034,-0.815341 0,-0.514205 -0.3068181,-0.892046 -0.9886363,-0.892046 H 7.8061716 Z m 0.3522728,-1.454545 v -1.142046 h 0.6193181 c 0.471591,0 0.6534091,0.230114 0.6534091,0.579546 0,0.349431 -0.1818181,0.5625 -0.6477272,0.5625 z M 10.533442,33.545453 H 10.11867 l 0.9375,1.454546 -0.9375,1.454545 h 0.414772 l 0.75,-1.1875 h 0.02273 l 0.75,1.1875 h 0.414772 L 11.55617,34.999999 12.470942,33.545453 H 12.05617 l -0.75,1.210227 h -0.02273 z"
       id="text49-9"
       style="font-size:4px;line-height:1.25;font-family:Inter;-inkscape-font-specification:Inter;fill:#ffffff;stroke-width:0.264583"
       aria-label="RX" />
    <g
       id="g62"
       transform="translate(-24.999999,-24.999997)">
      <path
         style="fill:none;stroke:#ffffff;stroke-width:0.5;stroke-linecap:butt;stroke-linejoin:miter;stroke-dasharray:none;stroke-opacity:1"
         d="m 44.999999,61.999997 v 6.000001"
         id="path57" />
      <path
         style="fill:none;stroke:#ffffff;stroke-width:0.5;stroke-linecap:butt;stroke-linejoin:miter;stroke-dasharray:none;stroke-opacity:1"
         d="m 43.000001,61.999997 v 6.000001"
         id="path58" />
    </g>
    <path
       style="fill:none;stroke:#ffffff;stroke-width:0.5;stroke-linecap:butt;stroke-linejoin:miter;stroke-dasharray:none;stroke-opacity:1"
       d="m 18.000002,39.999999 -3,2e-6"
       id="path60" />
    <path
       style="fill:none;stroke:#ffffff;stroke-width:0.5;stroke-linecap:butt;stroke-linejoin:miter;stroke-dasharray:none;stroke-opacity:1"
       d="m 34.000001,23 12.000001,2e-6 v 3.999999 l -12.000001,-2e-6 z"
       id="path46" />
    <path
       d="m 37.249001,26.0725 h -0.258 v -1.497 q 0,-0.129 0.003,-0.207 0.003,-0.078 0.009,-0.162 -0.048,0.048 -0.087,0.081 -0.039,0.033 -0.099,0.084 l -0.228,0.186 -0.138,-0.177 0.579,-0.45 h 0.219 z m 2.220001,-1.074 q 0,0.345 -0.072,0.594 -0.072,0.246 -0.228,0.378 -0.156,0.132 -0.414,0.132 -0.363,0 -0.537,-0.291 -0.171,-0.294 -0.171,-0.813 0,-0.348 0.069,-0.594 0.072,-0.246 0.228,-0.375 0.156,-0.132 0.411,-0.132 0.36,0 0.537,0.291 0.177,0.288 0.177,0.81 z m -1.158,0 q 0,0.441 0.099,0.66 0.102,0.219 0.345,0.219 0.24,0 0.342,-0.216 0.105,-0.219 0.105,-0.663 0,-0.438 -0.105,-0.657 -0.102,-0.219 -0.342,-0.219 -0.243,0 -0.345,0.219 -0.099,0.219 -0.099,0.657 z m 3.162002,1.074 h -0.318 l -0.759,-1.023 -0.219,0.192 v 0.831 h -0.27 v -2.142 h 0.27 v 1.056 q 0.09,-0.102 0.183,-0.204 0.093,-0.102 0.186,-0.204 l 0.579,-0.648 h 0.315 l -0.849,0.933 z m 0.075,0 v -0.237 h 0.474 q -0.111,-0.084 -0.216,-0.21 -0.105,-0.129 -0.174,-0.306 -0.066,-0.177 -0.066,-0.399 0,-0.294 0.114,-0.525 0.114,-0.231 0.333,-0.363 0.219,-0.135 0.534,-0.135 0.318,0 0.537,0.132 0.219,0.132 0.333,0.363 0.114,0.231 0.114,0.525 0,0.225 -0.066,0.402 -0.066,0.177 -0.171,0.306 -0.102,0.126 -0.216,0.21 h 0.471 v 0.237 h -0.804 v -0.216 q 0.186,-0.132 0.297,-0.27 0.111,-0.138 0.159,-0.297 0.048,-0.162 0.048,-0.36 0,-0.228 -0.075,-0.408 -0.075,-0.18 -0.231,-0.282 -0.153,-0.105 -0.396,-0.105 -0.24,0 -0.396,0.105 -0.153,0.102 -0.228,0.282 -0.072,0.18 -0.072,0.408 0,0.198 0.048,0.36 0.048,0.159 0.156,0.297 0.111,0.135 0.297,0.27 v 0.216 z"
       id="text60"
       style="font-size:3px;line-height:1.25;text-align:center;text-anchor:middle;fill:#ffffff;stroke-width:0.264583"
       aria-label="10KΩ" />
    <path
       d="m 34.121996,64.294998 h -1.416 v -0.219 l 0.561,-0.567 q 0.162,-0.162 0.273,-0.288 0.111,-0.126 0.168,-0.246 0.057,-0.123 0.057,-0.267 0,-0.177 -0.105,-0.267 -0.105,-0.093 -0.273,-0.093 -0.156,0 -0.276,0.054 -0.117,0.054 -0.24,0.15 l -0.141,-0.177 q 0.126,-0.105 0.288,-0.177 0.165,-0.075 0.369,-0.075 0.3,0 0.474,0.153 0.174,0.15 0.174,0.417 0,0.168 -0.069,0.315 -0.069,0.147 -0.192,0.291 -0.123,0.141 -0.288,0.303 l -0.447,0.441 v 0.012 h 1.083 z m 1.716002,0 h -1.416 v -0.219 l 0.561,-0.567 q 0.162,-0.162 0.273,-0.288 0.111,-0.126 0.168,-0.246 0.057,-0.123 0.057,-0.267 0,-0.177 -0.105,-0.267 -0.105,-0.093 -0.273,-0.093 -0.156,0 -0.276,0.054 -0.117,0.054 -0.24,0.15 l -0.141,-0.177 q 0.126,-0.105 0.288,-0.177 0.165,-0.075 0.369,-0.075 0.3,0 0.474,0.153 0.174,0.15 0.174,0.417 0,0.168 -0.069,0.315 -0.069,0.147 -0.192,0.291 -0.123,0.141 -0.288,0.303 l -0.447,0.441 v 0.012 h 1.083 z m 1.176001,-1.638 q 0.297,0 0.477,0.207 0.183,0.207 0.183,0.624 0,0.411 -0.183,0.624 -0.18,0.213 -0.48,0.213 -0.186,0 -0.309,-0.069 -0.12,-0.072 -0.189,-0.165 h -0.018 q 0.006,0.051 0.012,0.129 0.006,0.078 0.006,0.135 v 0.66 h -0.264 v -2.328 h 0.216 l 0.036,0.219 h 0.012 q 0.072,-0.105 0.189,-0.177 0.117,-0.072 0.312,-0.072 z m -0.048,0.222 q -0.246,0 -0.348,0.138 -0.099,0.138 -0.105,0.42 v 0.051 q 0,0.297 0.096,0.459 0.099,0.159 0.363,0.159 0.147,0 0.24,-0.081 0.096,-0.081 0.141,-0.219 0.048,-0.141 0.048,-0.321 0,-0.276 -0.108,-0.441 -0.105,-0.165 -0.327,-0.165 z m 1.869,0.012 h -0.405 v 1.404 h -0.264 v -1.404 h -0.282 v -0.123 l 0.282,-0.09 v -0.093 q 0,-0.312 0.138,-0.447 0.138,-0.138 0.384,-0.138 0.096,0 0.174,0.018 0.081,0.015 0.138,0.036 l -0.069,0.207 q -0.048,-0.015 -0.111,-0.03 -0.063,-0.015 -0.129,-0.015 -0.132,0 -0.198,0.09 -0.063,0.087 -0.063,0.276 v 0.105 h 0.405 z"
       id="text61"
       style="font-size:3px;line-height:1.25;fill:#ffffff;stroke-width:0.264583"
       aria-label="22pf" />
    <path
       d="m 34.121996,83.294998 h -1.416 v -0.219 l 0.561,-0.567 q 0.162,-0.162 0.273,-0.288 0.111,-0.126 0.168,-0.246 0.057,-0.123 0.057,-0.267 0,-0.177 -0.105,-0.267 -0.105,-0.093 -0.273,-0.093 -0.156,0 -0.276,0.054 -0.117,0.054 -0.24,0.15 l -0.141,-0.177 q 0.126,-0.105 0.288,-0.177 0.165,-0.075 0.369,-0.075 0.3,0 0.474,0.153 0.174,0.15 0.174,0.417 0,0.168 -0.069,0.315 -0.069,0.147 -0.192,0.291 -0.123,0.141 -0.288,0.303 l -0.447,0.441 v 0.012 h 1.083 z m 1.716002,0 h -1.416 v -0.219 l 0.561,-0.567 q 0.162,-0.162 0.273,-0.288 0.111,-0.126 0.168,-0.246 0.057,-0.123 0.057,-0.267 0,-0.177 -0.105,-0.267 -0.105,-0.093 -0.273,-0.093 -0.156,0 -0.276,0.054 -0.117,0.054 -0.24,0.15 l -0.141,-0.177 q 0.126,-0.105 0.288,-0.177 0.165,-0.075 0.369,-0.075 0.3,0 0.474,0.153 0.174,0.15 0.174,0.417 0,0.168 -0.069,0.315 -0.069,0.147 -0.192,0.291 -0.123,0.141 -0.288,0.303 l -0.447,0.441 v 0.012 h 1.083 z m 1.176001,-1.638 q 0.297,0 0.477,0.207 0.183,0.207 0.183,0.624 0,0.411 -0.183,0.624 -0.18,0.213 -0.48,0.213 -0.186,0 -0.309,-0.069 -0.12,-0.072 -0.189,-0.165 h -0.018 q 0.006,0.051 0.012,0.129 0.006,0.078 0.006,0.135 v 0.66 h -0.264 v -2.328 h 0.216 l 0.036,0.219 h 0.012 q 0.072,-0.105 0.189,-0.177 0.117,-0.072 0.312,-0.072 z m -0.048,0.222 q -0.246,0 -0.348,0.138 -0.099,0.138 -0.105,0.42 v 0.051 q 0,0.297 0.096,0.459 0.099,0.159 0.363,0.159 0.147,0 0.24,-0.081 0.096,-0.081 0.141,-0.219 0.048,-0.141 0.048,-0.321 0,-0.276 -0.108,-0.441 -0.105,-0.165 -0.327,-0.165 z m 1.869,0.012 h -0.405 v 1.404 h -0.264 v -1.404 h -0.282 v -0.123 l 0.282,-0.09 v -0.093 q 0,-0.312 0.138,-0.447 0.138,-0.138 0.384,-0.138 0.096,0 0.174,0.018 0.081,0.015 0.138,0.036 l -0.069,0.207 q -0.048,-0.015 -0.111,-0.03 -0.063,-0.015 -0.129,-0.015 -0.132,0 -0.198,0.09 -0.063,0.087 -0.063,0.276 v 0.105 h 0.405 z"
       id="text61-8"
       style="font-size:3px;line-height:1.25;fill:#ffffff;stroke-width:0.264583"
       aria-label="22pf" />
    <g
       id="text63"
       style="font-size:3px;line-height:1.25;fill:#ffffff;stroke-width:0.264583"
       aria-label="Reset&#10;Button">
      <path
         style="font-family:Inter;-inkscape-font-specification:Inter;text-align:end;text-anchor:end"
         d="m 39.120734,45.999992 h 0.264204 V 45.14772 h 0.477273 c 0.01918,0 0.03729,0 0.0554,-0.0011 l 0.460227,0.853338 h 0.306818 l -0.493253,-0.901278 c 0.278054,-0.09482 0.408026,-0.321733 0.408026,-0.611506 0,-0.385653 -0.230114,-0.669034 -0.741477,-0.669034 h -0.737216 z m 0.264204,-1.090909 v -0.856534 h 0.464489 c 0.353693,0 0.490057,0.172585 0.490057,0.434659 0,0.262074 -0.136364,0.421875 -0.485796,0.421875 z m 2.288351,1.125 c 0.332386,0 0.575284,-0.166193 0.651988,-0.413352 l -0.242898,-0.06818 c -0.06392,0.170455 -0.212002,0.255682 -0.40909,0.255682 -0.2951,0 -0.49858,-0.190696 -0.510299,-0.541193 h 1.187855 v -0.106534 c 0,-0.609375 -0.362216,-0.818182 -0.703125,-0.818182 -0.443181,0 -0.737216,0.349432 -0.737216,0.852273 0,0.502841 0.289773,0.839488 0.762785,0.839488 z M 41.16299,45.049708 c 0.01705,-0.254616 0.197088,-0.481534 0.48473,-0.481534 0.272728,0 0.447444,0.204546 0.447444,0.481534 z m 2.730468,-0.319602 c -0.07884,-0.232244 -0.255682,-0.387784 -0.579546,-0.387784 -0.34517,0 -0.600852,0.196023 -0.600852,0.473011 0,0.225853 0.134233,0.377131 0.434659,0.447443 l 0.272728,0.06392 c 0.165127,0.03835 0.242897,0.117187 0.242897,0.230114 0,0.140625 -0.149147,0.255681 -0.383522,0.255681 -0.205611,0 -0.334517,-0.08842 -0.379262,-0.264204 l -0.238636,0.05966 c 0.05859,0.278054 0.287642,0.426136 0.622159,0.426136 0.380327,0 0.639204,-0.207741 0.639204,-0.490057 0,-0.227982 -0.142755,-0.371804 -0.434659,-0.443181 l -0.242897,-0.05966 c -0.193892,-0.04794 -0.28125,-0.112927 -0.28125,-0.238637 0,-0.140625 0.149147,-0.242898 0.349431,-0.242898 0.219461,0 0.310015,0.121449 0.353694,0.234375 z m 1.095172,1.303977 c 0.332387,0 0.575285,-0.166193 0.651989,-0.413352 l -0.242898,-0.06818 c -0.06392,0.170455 -0.212002,0.255682 -0.409091,0.255682 -0.295099,0 -0.498579,-0.190696 -0.510298,-0.541193 h 1.187855 v -0.106534 c 0,-0.609375 -0.362216,-0.818182 -0.703125,-0.818182 -0.443182,0 -0.737216,0.349432 -0.737216,0.852273 0,0.502841 0.289773,0.839488 0.762784,0.839488 z m -0.510298,-0.984375 c 0.01705,-0.254616 0.197088,-0.481534 0.48473,-0.481534 0.272728,0 0.447443,0.204546 0.447443,0.481534 z m 2.283025,-0.686079 h -0.349432 v -0.392046 h -0.251421 v 0.392046 h -0.247159 v 0.213068 h 0.247159 v 1.022727 c 0,0.285512 0.230114,0.421875 0.443182,0.421875 0.09375,0 0.153409,-0.01704 0.1875,-0.02983 l -0.05114,-0.225853 c -0.02131,0.0043 -0.0554,0.01278 -0.110796,0.01278 -0.110795,0 -0.217329,-0.03409 -0.217329,-0.247159 v -0.954545 h 0.349432 z"
         id="path6" />
      <path
         style="font-family:Inter;-inkscape-font-specification:Inter;text-align:end;text-anchor:end"
         d="m 37.769885,49.796775 h 0.788352 c 0.515625,0 0.728693,-0.25142 0.728693,-0.579545 0,-0.345171 -0.238636,-0.532671 -0.43892,-0.545455 v -0.02131 c 0.1875,-0.05114 0.353693,-0.174715 0.353693,-0.455965 0,-0.319603 -0.213068,-0.579546 -0.669034,-0.579546 H 37.769885 Z M 38.034089,49.5624 v -0.758522 h 0.536932 c 0.285511,0 0.464489,0.191761 0.464489,0.413352 0,0.191761 -0.132103,0.34517 -0.477273,0.34517 z m 0,-0.988636 v -0.724432 h 0.49858 c 0.289772,0 0.417613,0.153409 0.417613,0.345171 0,0.230113 -0.1875,0.379261 -0.426136,0.379261 z m 2.684659,0.553977 c 0,0.306818 -0.234375,0.447443 -0.421875,0.447443 -0.208807,0 -0.357955,-0.153409 -0.357955,-0.392045 v -1.022727 h -0.25142 v 1.039772 c 0,0.417614 0.221591,0.617898 0.528409,0.617898 0.247159,0 0.409091,-0.132102 0.485795,-0.298295 h 0.01705 v 0.276988 h 0.25142 v -1.636363 h -0.25142 z m 1.423293,-0.967329 h -0.349432 v -0.392046 h -0.251421 v 0.392046 h -0.247159 v 0.213068 h 0.247159 v 1.022727 c 0,0.285511 0.230114,0.421875 0.443182,0.421875 0.09375,0 0.153409,-0.01704 0.1875,-0.02983 L 42.120734,49.5624 c -0.02131,0.0043 -0.0554,0.01278 -0.110796,0.01278 -0.110795,0 -0.217329,-0.03409 -0.217329,-0.247159 V 48.37348 h 0.349432 z m 1.090908,0 h -0.349432 v -0.392046 h -0.251421 v 0.392046 h -0.247159 v 0.213068 h 0.247159 v 1.022727 c 0,0.285511 0.230114,0.421875 0.443182,0.421875 0.09375,0 0.153409,-0.01704 0.1875,-0.02983 L 43.211642,49.5624 c -0.02131,0.0043 -0.0554,0.01278 -0.110796,0.01278 -0.110795,0 -0.217329,-0.03409 -0.217329,-0.247159 V 48.37348 h 0.349432 z m 1.026987,1.670454 c 0.443182,0 0.741477,-0.336648 0.741477,-0.84375 0,-0.511363 -0.298295,-0.848011 -0.741477,-0.848011 -0.443182,0 -0.741478,0.336648 -0.741478,0.848011 0,0.507102 0.298296,0.84375 0.741478,0.84375 z m 0,-0.225852 c -0.336648,0 -0.490057,-0.289773 -0.490057,-0.617898 0,-0.328125 0.153409,-0.622159 0.490057,-0.622159 0.336647,0 0.490057,0.294034 0.490057,0.622159 0,0.328125 -0.15341,0.617898 -0.490057,0.617898 z M 45.636354,48.8124 c 0,-0.285511 0.176846,-0.447443 0.417613,-0.447443 0.23331,0 0.375,0.152344 0.375,0.409091 v 1.022727 h 0.251421 v -1.039772 c 0,-0.417614 -0.222657,-0.617898 -0.553978,-0.617898 -0.247159,0 -0.400568,0.110795 -0.477272,0.276988 h -0.02131 v -0.255681 h -0.242898 v 1.636363 h 0.251421 z"
         id="path7" />
    </g>
    <circle
       style="fill:#ffffff;fill-opacity:1;stroke:#ffffff;stroke-width:0.499999;stroke-dasharray:none;stroke-opacity:1;paint-order:stroke markers fill"
       id="path64"
       cx="50.000004"
       cy="25.000002"
       r="0.5" />
    <circle
       style="fill:#ffffff;fill-opacity:1;stroke:#ffffff;stroke-width:0.499999;stroke-dasharray:none;stroke-opacity:1;paint-order:stroke markers fill"
       id="path64-1"
       cx="61.750004"
       cy="21.749998"
       r="0.5" />
    <circle
       style="fill:#ffffff;fill-opacity:1;stroke:#ffffff;stroke-width:0.499999;stroke-dasharray:none;stroke-opacity:1;paint-order:stroke markers fill"
       id="path64-6"
       cx="50.000004"
       cy="40"
       r="0.5" />
    <circle
       style="fill:#ffffff;fill-opacity:1;stroke:#ffffff;stroke-width:0.499999;stroke-dasharray:none;stroke-opacity:1;paint-order:stroke markers fill"
       id="path64-8"
       cx="30.000002"
       cy="25"
       r="0.5" />
    <circle
       style="fill:#ffffff;fill-opacity:1;stroke:#ffffff;stroke-width:0.499999;stroke-dasharray:none;stroke-opacity:1;paint-order:stroke markers fill"
       id="path64-7"
       cx="50.000004"
       cy="59.999992"
       r="0.5" />
    <circle
       style="fill:#ffffff;fill-opacity:1;stroke:#ffffff;stroke-width:0.499999;stroke-dasharray:none;stroke-opacity:1;paint-order:stroke markers fill"
       id="path64-0"
       cx="25.000002"
       cy="65"
       r="0.5" />
    <circle
       style="fill:#ffffff;fill-opacity:1;stroke:#ffffff;stroke-width:0.499999;stroke-dasharray:none;stroke-opacity:1;paint-order:stroke markers fill"
       id="path64-0-1"
       cx="25.000002"
       cy="60.000507"
       r="0.5" />
    <circle
       style="fill:#ffffff;fill-opacity:1;stroke:#ffffff;stroke-width:0.499999;stroke-dasharray:none;stroke-opacity:1;paint-order:stroke markers fill"
       id="path64-2"
       cx="25.000002"
       cy="80"
       r="0.5" />
    <circle
       style="fill:#ffffff;fill-opacity:1;stroke:#ffffff;stroke-width:0.499999;stroke-dasharray:none;stroke-opacity:1;paint-order:stroke markers fill"
       id="path64-5"
       cx="40.000004"
       cy="80"
       r="0.5" />
    <circle
       style="fill:#ffffff;fill-opacity:1;stroke:#ffffff;stroke-width:0.499999;stroke-dasharray:none;stroke-opacity:1;paint-order:stroke markers fill"
       id="path64-9"
       cx="40.000004"
       cy="65.042961"
       r="0.5" />
    <path
       d="m 36.042426,8.3715185 h 0.318182 V 7.5931094 h 0.778409 V 7.2749276 H 36.360608 V 6.4965185 h -0.318182 v 0.7784091 h -0.778409 v 0.3181818 h 0.778409 z m 2.687497,0.5511363 c 0.553977,0 0.960227,-0.4090909 0.960227,-0.965909 0,-0.5639205 -0.392046,-0.9772728 -0.926137,-0.9772728 -0.196022,0 -0.386363,0.069602 -0.505681,0.1647728 h -0.01705 l 0.102273,-0.8579546 h 1.215909 v -0.3125 h -1.511364 l -0.176136,1.4318182 0.329545,0.039773 c 0.120739,-0.086648 0.326705,-0.1491477 0.505682,-0.1477273 0.370739,0.00284 0.642046,0.284091 0.642046,0.6647728 0,0.3735795 -0.261364,0.6477272 -0.619318,0.6477272 -0.298296,0 -0.535512,-0.1917613 -0.5625,-0.4545454 h -0.34091 c 0.02131,0.4431818 0.40341,0.7670454 0.90341,0.7670454 z m 1.693179,-2.9488636 h -0.369318 l 1.068182,2.9090909 h 0.363636 L 42.553784,5.9737912 H 42.184466 L 41.32083,8.4226548 h -0.03409 z"
       id="text65"
       style="font-size:4px;line-height:1.25;font-family:Inter;-inkscape-font-specification:Inter;fill:#ffffff;stroke-width:0.264583"
       aria-label="+5V" />
    <path
       d="m 103.48863,8.3715185 h 0.31818 V 7.5931094 h 0.77841 V 7.2749276 h -0.77841 V 6.4965185 h -0.31818 v 0.7784091 h -0.77841 v 0.3181818 h 0.77841 z m 2.68749,0.5511363 c 0.55398,0 0.96023,-0.4090909 0.96023,-0.965909 0,-0.5639205 -0.39204,-0.9772728 -0.92614,-0.9772728 -0.19602,0 -0.38636,0.069602 -0.50568,0.1647728 h -0.017 l 0.10227,-0.8579546 h 1.21591 v -0.3125 h -1.51136 l -0.17614,1.4318182 0.32954,0.039773 c 0.12074,-0.086648 0.32671,-0.1491477 0.50569,-0.1477273 0.37074,0.00284 0.64204,0.284091 0.64204,0.6647728 0,0.3735795 -0.26136,0.6477272 -0.61932,0.6477272 -0.29829,0 -0.53551,-0.1917613 -0.5625,-0.4545454 h -0.34091 c 0.0213,0.4431818 0.40341,0.7670454 0.90341,0.7670454 z m 1.69318,-2.9488636 h -0.36931 l 1.06818,2.9090909 h 0.36363 l 1.06819,-2.9090909 h -0.36932 l -0.86364,2.4488636 h -0.0341 z"
       id="text65-3"
       style="font-size:4px;line-height:1.25;font-family:Inter;-inkscape-font-specification:Inter;fill:#ffffff;stroke-width:0.264583"
       aria-label="+5V" />
    <path
       id="path49-8-9"
       style="fill:none;stroke:#ffffff;stroke-width:0.499999;paint-order:stroke markers fill"
       d="M 13.000122,16.999878 C 14.104596,16.999811 14.999933,16.104474 15,15 c -6.7e-5,-1.104474 -0.895404,-1.999811 -1.999878,-1.999878" />
    <path
       style="fill:none;stroke:#ffffff;stroke-width:0.5;stroke-linecap:butt;stroke-linejoin:miter;stroke-dasharray:none;stroke-opacity:1"
       d="m 15,15 h 10.091204 l -0.09121,45.000001"
       id="path67" />
    <path
       style="fill:none;stroke:#ffffff;stroke-width:0.5;stroke-linecap:butt;stroke-linejoin:miter;stroke-dasharray:none;stroke-opacity:1"
       d="m 15,20 h 4.999999"
       id="path68" />
  </g>
  <metadata
     id="metadata68">
    <rdf:RDF>
      <cc:License
         rdf:about="http://creativecommons.org/licenses/by-sa/4.0/">
        <cc:permits
           rdf:resource="http://creativecommons.org/ns#Reproduction" />
        <cc:permits
           rdf:resource="http://creativecommons.org/ns#Distribution" />
        <cc:requires
           rdf:resource="http://creativecommons.org/ns#Notice" />
        <cc:requires
           rdf:resource="http://creativecommons.org/ns#Attribution" />
        <cc:permits
           rdf:resource="http://creativecommons.org/ns#DerivativeWorks" />
        <cc:requires
           rdf:resource="http://creativecommons.org/ns#ShareAlike" />
      </cc:License>
      <cc:Work
         rdf:about="">
        <cc:license
           rdf:resource="http://creativecommons.org/licenses/by-sa/4.0/" />
        <dc:title>Schematic: Barebones ATmega328P Circuit</dc:title>
        <dc:creator>
          <cc:Agent>
            <dc:title>Slatian</dc:title>
          </cc:Agent>
        </dc:creator>
        <dc:date>2024-04-06</dc:date>
      </cc:Work>
    </rdf:RDF>
  </metadata>
</svg>
