<?xml version="1.0" encoding="UTF-8" standalone="no"?>
<!-- Created with Inkscape (http://www.inkscape.org/) -->

<svg
   width="1920"
   height="1080"
   version="1.1"
   viewBox="0 0 1920 1080"
   id="svg358"
   sodipodi:docname="dragon.svg"
   inkscape:version="1.1.1 (3bf5ae0d25, 2021-09-20)"
   xmlns:inkscape="http://www.inkscape.org/namespaces/inkscape"
   xmlns:sodipodi="http://sodipodi.sourceforge.net/DTD/sodipodi-0.dtd"
   xmlns:xlink="http://www.w3.org/1999/xlink"
   xmlns="http://www.w3.org/2000/svg"
   xmlns:svg="http://www.w3.org/2000/svg">
  <sodipodi:namedview
     id="namedview360"
     pagecolor="#505050"
     bordercolor="#eeeeee"
     borderopacity="1"
     inkscape:pageshadow="0"
     inkscape:pageopacity="0"
     inkscape:pagecheckerboard="0"
     showgrid="false"
     inkscape:zoom="7.3362328"
     inkscape:cx="865.22608"
     inkscape:cy="956.96254"
     inkscape:window-width="1920"
     inkscape:window-height="1080"
     inkscape:window-x="0"
     inkscape:window-y="0"
     inkscape:window-maximized="1"
     inkscape:current-layer="svg358" />
  <defs
     id="defs158">
    <linearGradient
       id="l">
      <stop
         style="stop-color:#cb980a;stop-opacity:.00402"
         offset="0"
         id="stop2" />
      <stop
         style="stop-color:#bd7e09;stop-opacity:.91"
         offset=".0586"
         id="stop4" />
      <stop
         style="stop-color:#d60a78;stop-opacity:.325"
         offset=".464"
         id="stop6" />
      <stop
         style="stop-color:#ce760a;stop-opacity:.825"
         offset="1"
         id="stop8" />
    </linearGradient>
    <linearGradient
       id="m">
      <stop
         style="stop-color:#f0b17b"
         offset="0"
         id="stop11" />
      <stop
         style="stop-color:#4a3528"
         offset="1"
         id="stop13" />
    </linearGradient>
    <linearGradient
       id="d">
      <stop
         style="stop-color:#cb980a;stop-opacity:.767"
         offset="0"
         id="stop16" />
      <stop
         style="stop-color:#ce760a;stop-opacity:.825"
         offset="1"
         id="stop18" />
    </linearGradient>
    <linearGradient
       id="b">
      <stop
         style="stop-color:#cb980a"
         offset="0"
         id="stop21" />
      <stop
         style="stop-color:#cb760a"
         offset="1"
         id="stop23" />
    </linearGradient>
    <radialGradient
       id="p"
       cx="27.6"
       cy="74.8"
       r="28.6"
       gradientTransform="matrix(0.993,-0.121,0.278,2.29,-20.6,-93.3)"
       gradientUnits="userSpaceOnUse"
       xlink:href="#b" />
    <radialGradient
       id="o"
       cx="50.7"
       cy="104"
       r="21.2"
       gradientTransform="matrix(1.3728,0.82056,-0.35568,0.5928,833.6,844)"
       gradientUnits="userSpaceOnUse"
       xlink:href="#m" />
    <radialGradient
       id="n"
       cx="128"
       cy="104"
       r="21.3"
       gradientTransform="matrix(-1.3728,0.80496,-0.43888,-0.74672,1200.72,923.04)"
       gradientUnits="userSpaceOnUse"
       xlink:href="#m" />
    <filter
       id="bn"
       x="-0.43093439"
       y="-0.42958326"
       width="1.8618688"
       height="1.8591665"
       style="color-interpolation-filters:sRGB">
      <feGaussianBlur
         stdDeviation="10.27599"
         id="feGaussianBlur29" />
    </filter>
    <linearGradient
       id="aa"
       x1="74.2"
       x2="107"
       y1="66.4"
       y2="56.5"
       gradientTransform="translate(3.71e-6)"
       gradientUnits="userSpaceOnUse"
       xlink:href="#b" />
    <radialGradient
       id="e"
       cx="153"
       cy="47.2"
       r="27.1"
       gradientTransform="matrix(1.9,0.932,-0.637,1.3,763,603)"
       gradientUnits="userSpaceOnUse"
       xlink:href="#b" />
    <linearGradient
       id="z"
       x1="166"
       x2="140"
       y1="132"
       y2="142"
       gradientUnits="userSpaceOnUse"
       xlink:href="#d" />
    <linearGradient
       id="y"
       x1="17.3"
       x2="39.3"
       y1="133"
       y2="143"
       gradientUnits="userSpaceOnUse"
       xlink:href="#d" />
    <filter
       id="bm"
       x="-0.64439155"
       y="-0.91442229"
       width="2.2887831"
       height="2.8288446"
       style="color-interpolation-filters:sRGB">
      <feGaussianBlur
         stdDeviation="7.2010754"
         id="feGaussianBlur36" />
    </filter>
    <filter
       id="bl"
       x="-0.65340572"
       y="-1.0411194"
       width="2.3068114"
       height="3.0822387"
       style="color-interpolation-filters:sRGB">
      <feGaussianBlur
         stdDeviation="7.2010754"
         id="feGaussianBlur39" />
    </filter>
    <linearGradient
       id="x"
       x1="166"
       x2="140"
       y1="132"
       y2="142"
       gradientTransform="matrix(1.4768,0,0,1.4768,790.96,794.08)"
       gradientUnits="userSpaceOnUse"
       xlink:href="#d" />
    <linearGradient
       id="w"
       x1="17.3"
       x2="39.3"
       y1="133"
       y2="143"
       gradientTransform="matrix(1.4768,0,0,1.4768,790.96,794.08)"
       gradientUnits="userSpaceOnUse"
       xlink:href="#d" />
    <filter
       id="ad"
       x="-0.29770402"
       y="-0.95496513"
       width="1.595408"
       height="2.9099303"
       style="color-interpolation-filters:sRGB">
      <feGaussianBlur
         stdDeviation="4.0983918"
         id="feGaussianBlur44" />
    </filter>
    <filter
       id="ab"
       x="-0.45686478"
       y="-0.45543235"
       width="1.9137296"
       height="1.9108647"
       style="color-interpolation-filters:sRGB">
      <feGaussianBlur
         stdDeviation="10.894321"
         id="feGaussianBlur47" />
    </filter>
    <radialGradient
       id="q"
       cx="27.6"
       cy="74.8"
       r="28.6"
       gradientTransform="matrix(1.4664,-0.17784,0.41184,3.3904,760.8,655.76)"
       gradientUnits="userSpaceOnUse"
       xlink:href="#b" />
    <linearGradient
       id="v"
       x1="74.2"
       x2="107"
       y1="66.4"
       y2="56.5"
       gradientTransform="matrix(1.4768,0,0,1.4768,790.96,794.08)"
       gradientUnits="userSpaceOnUse"
       xlink:href="#b" />
    <linearGradient
       id="k"
       x1="1029"
       x2="1841"
       y1="722"
       y2="380"
       gradientUnits="userSpaceOnUse"
       xlink:href="#l" />
    <linearGradient
       id="j"
       x1="1024"
       x2="1841"
       y1="717"
       y2="380"
       gradientTransform="matrix(-1,0,0,1,1884,0.0479)"
       gradientUnits="userSpaceOnUse"
       xlink:href="#l" />
    <filter
       id="bi"
       x="-0.031075816"
       y="-0.051916089"
       width="1.0621516"
       height="1.1038322"
       style="color-interpolation-filters:sRGB">
      <feGaussianBlur
         stdDeviation="11.107015"
         id="feGaussianBlur54" />
    </filter>
    <filter
       id="bh"
       x="-0.03195027"
       y="-0.049551199"
       width="1.0639005"
       height="1.0991024"
       style="color-interpolation-filters:sRGB">
      <feGaussianBlur
         stdDeviation="10.77656"
         id="feGaussianBlur57" />
    </filter>
    <linearGradient
       id="i"
       x1="879"
       x2="891"
       y1="876"
       y2="876"
       gradientTransform="matrix(1.25,0,0,1.2,-124,-282)"
       gradientUnits="userSpaceOnUse"
       xlink:href="#b" />
    <filter
       id="bg"
       x="-0.00095426063"
       y="-0.0012402216"
       width="1.0019085"
       height="1.0024804"
       style="color-interpolation-filters:sRGB">
      <feGaussianBlur
         stdDeviation="0.0058223235"
         id="feGaussianBlur61" />
    </filter>
    <filter
       id="be"
       x="-0.35534962"
       y="-0.25431886"
       width="1.7106992"
       height="1.5086377"
       style="color-interpolation-filters:sRGB">
      <feGaussianBlur
         stdDeviation="2.1617102"
         id="feGaussianBlur64" />
    </filter>
    <clipPath
       id="r">
      <path
         d="m952 756c2.68 7.56 9.45 18.8 16.1 22.7 6.6 3.87 44.4 3.87 44.4 3.87-3.8-3.87-8.66-8.38-11-12.7-11-9.14-23.4-16.8-49.4-13.8z"
         style="fill:none;stroke-width:1.99;stroke:#000"
         id="path67" />
    </clipPath>
    <filter
       id="bf"
       x="-0.00095426063"
       y="-0.0012402216"
       width="1.0019085"
       height="1.0024804"
       style="color-interpolation-filters:sRGB">
      <feGaussianBlur
         stdDeviation="0.0058223235"
         id="feGaussianBlur70" />
    </filter>
    <linearGradient
       id="h"
       x1="879"
       x2="891"
       y1="876"
       y2="876"
       gradientTransform="matrix(1.25,0,0,1.2,-90,-199)"
       gradientUnits="userSpaceOnUse"
       xlink:href="#b" />
    <filter
       id="bd"
       x="-0.30022602"
       y="-0.21486765"
       width="1.600452"
       height="1.4297353"
       style="color-interpolation-filters:sRGB">
      <feGaussianBlur
         stdDeviation="1.826375"
         id="feGaussianBlur74" />
    </filter>
    <clipPath
       id="t">
      <path
         d="m1049 832c-1.47 7.88-6.39 20-12.3 24.9-5.92 4.85-43.6 10.3-43.6 10.3 3.15-4.42 8.16-10.2 9.82-14.9 9.4-10.7 19.9-19.2 46.1-20.3z"
         style="fill:none;stroke-width:1.99;stroke:#040404"
         id="path77" />
    </clipPath>
    <filter
       id="bc"
       x="-0.45969303"
       y="-0.45316045"
       width="1.9193861"
       height="1.9063209"
       style="color-interpolation-filters:sRGB">
      <feGaussianBlur
         stdDeviation="14.748485"
         id="feGaussianBlur80" />
    </filter>
    <filter
       id="bb"
       x="-0.2137047"
       y="-0.56834094"
       width="1.4274094"
       height="2.1366819"
       style="color-interpolation-filters:sRGB">
      <feGaussianBlur
         stdDeviation="16.668967"
         id="feGaussianBlur83" />
    </filter>
    <linearGradient
       id="g"
       x1="827"
       x2="852"
       y1="260"
       y2="260"
       gradientTransform="translate(70.6,-2.36)"
       gradientUnits="userSpaceOnUse"
       xlink:href="#b" />
    <linearGradient
       id="a"
       x1="866"
       x2="891"
       y1="332"
       y2="332"
       gradientTransform="translate(44.7,5.16)"
       gradientUnits="userSpaceOnUse"
       xlink:href="#b" />
    <linearGradient
       id="u"
       x1="901"
       x2="926"
       y1="423"
       y2="423"
       gradientTransform="translate(9.76,1.03)"
       gradientUnits="userSpaceOnUse"
       xlink:href="#b" />
    <linearGradient
       id="f"
       x1="930"
       x2="962"
       y1="514"
       y2="514"
       gradientUnits="userSpaceOnUse"
       xlink:href="#b" />
    <linearGradient
       id="c"
       x1="929"
       x2="962"
       y1="675"
       y2="675"
       gradientTransform="translate(-8.24,32.9)"
       gradientUnits="userSpaceOnUse"
       xlink:href="#b" />
    <filter
       id="ba"
       x="-1.1457431"
       y="-1.1120723"
       width="3.2914862"
       height="3.2241446"
       style="color-interpolation-filters:sRGB">
      <feGaussianBlur
         stdDeviation="11.352405"
         id="feGaussianBlur91" />
    </filter>
    <filter
       id="az"
       x="-1.1457431"
       y="-1.1120723"
       width="3.2914862"
       height="3.2241446"
       style="color-interpolation-filters:sRGB">
      <feGaussianBlur
         stdDeviation="11.352405"
         id="feGaussianBlur94" />
    </filter>
    <filter
       id="an"
       x="-1.1457431"
       y="-1.1120723"
       width="3.2914862"
       height="3.2241446"
       style="color-interpolation-filters:sRGB">
      <feGaussianBlur
         stdDeviation="11.352405"
         id="feGaussianBlur97" />
    </filter>
    <filter
       id="am"
       x="-0.88460296"
       y="-0.85948805"
       width="2.7692059"
       height="2.7189761"
       style="color-interpolation-filters:sRGB">
      <feGaussianBlur
         stdDeviation="11.352405"
         id="feGaussianBlur100" />
    </filter>
    <filter
       id="al"
       x="-0.88202561"
       y="-0.87326189"
       width="2.7640512"
       height="2.7465238"
       style="color-interpolation-filters:sRGB">
      <feGaussianBlur
         stdDeviation="11.352405"
         id="feGaussianBlur103" />
    </filter>
    <linearGradient
       id="s"
       x1="889"
       x2="962"
       y1="484"
       y2="484"
       gradientUnits="userSpaceOnUse"
       xlink:href="#b" />
    <filter
       id="ae"
       x="-0.24783453"
       y="-0.057440281"
       width="1.4956691"
       height="1.1148806"
       style="color-interpolation-filters:sRGB">
      <feGaussianBlur
         stdDeviation="18.586717"
         id="feGaussianBlur107" />
    </filter>
    <filter
       id="ai"
       x="-0.88202561"
       y="-0.87326189"
       width="2.7640512"
       height="2.7465238"
       style="color-interpolation-filters:sRGB">
      <feGaussianBlur
         stdDeviation="11.352405"
         id="feGaussianBlur110" />
    </filter>
    <filter
       id="ah"
       x="-0.88202561"
       y="-0.87326189"
       width="2.7640512"
       height="2.7465238"
       style="color-interpolation-filters:sRGB">
      <feGaussianBlur
         stdDeviation="11.352405"
         id="feGaussianBlur113" />
    </filter>
    <filter
       id="aj"
       x="-0.88202561"
       y="-0.87326189"
       width="2.7640512"
       height="2.7465238"
       style="color-interpolation-filters:sRGB">
      <feGaussianBlur
         stdDeviation="11.352405"
         id="feGaussianBlur116" />
    </filter>
    <filter
       id="ak"
       x="-0.88202561"
       y="-0.87326189"
       width="2.7640512"
       height="2.7465238"
       style="color-interpolation-filters:sRGB">
      <feGaussianBlur
         stdDeviation="11.352405"
         id="feGaussianBlur119" />
    </filter>
    <filter
       id="ay"
       x="-1.1457431"
       y="-1.1120723"
       width="3.2914862"
       height="3.2241446"
       style="color-interpolation-filters:sRGB">
      <feGaussianBlur
         stdDeviation="11.352405"
         id="feGaussianBlur122" />
    </filter>
    <filter
       id="ax"
       x="-1.1457431"
       y="-1.1120723"
       width="3.2914862"
       height="3.2241446"
       style="color-interpolation-filters:sRGB">
      <feGaussianBlur
         stdDeviation="11.352405"
         id="feGaussianBlur125" />
    </filter>
    <filter
       id="aw"
       x="-1.1457431"
       y="-1.1120723"
       width="3.2914862"
       height="3.2241446"
       style="color-interpolation-filters:sRGB">
      <feGaussianBlur
         stdDeviation="11.352405"
         id="feGaussianBlur128" />
    </filter>
    <filter
       id="ag"
       x="-0.88202561"
       y="-0.87326189"
       width="2.7640512"
       height="2.7465238"
       style="color-interpolation-filters:sRGB">
      <feGaussianBlur
         stdDeviation="11.352405"
         id="feGaussianBlur131" />
    </filter>
    <filter
       id="av"
       x="-1.1457431"
       y="-1.1120723"
       width="3.2914862"
       height="3.2241446"
       style="color-interpolation-filters:sRGB">
      <feGaussianBlur
         stdDeviation="11.352405"
         id="feGaussianBlur134" />
    </filter>
    <filter
       id="au"
       x="-1.1457431"
       y="-1.1120723"
       width="3.2914862"
       height="3.2241446"
       style="color-interpolation-filters:sRGB">
      <feGaussianBlur
         stdDeviation="11.352405"
         id="feGaussianBlur137" />
    </filter>
    <filter
       id="at"
       x="-1.1457431"
       y="-1.1120723"
       width="3.2914862"
       height="3.2241446"
       style="color-interpolation-filters:sRGB">
      <feGaussianBlur
         stdDeviation="11.352405"
         id="feGaussianBlur140" />
    </filter>
    <filter
       id="ao"
       x="-1.1457431"
       y="-1.1120723"
       width="3.2914862"
       height="3.2241446"
       style="color-interpolation-filters:sRGB">
      <feGaussianBlur
         stdDeviation="11.352405"
         id="feGaussianBlur143" />
    </filter>
    <filter
       id="as"
       x="-1.1457431"
       y="-1.1120723"
       width="3.2914862"
       height="3.2241446"
       style="color-interpolation-filters:sRGB">
      <feGaussianBlur
         stdDeviation="11.352405"
         id="feGaussianBlur146" />
    </filter>
    <filter
       id="ar"
       x="-1.1457431"
       y="-1.1120723"
       width="3.2914862"
       height="3.2241446"
       style="color-interpolation-filters:sRGB">
      <feGaussianBlur
         stdDeviation="11.352405"
         id="feGaussianBlur149" />
    </filter>
    <filter
       id="aq"
       x="-1.1457431"
       y="-1.1120723"
       width="3.2914862"
       height="3.2241446"
       style="color-interpolation-filters:sRGB">
      <feGaussianBlur
         stdDeviation="11.352405"
         id="feGaussianBlur152" />
    </filter>
    <filter
       id="ap"
       x="-1.1457431"
       y="-1.1120723"
       width="3.2914862"
       height="3.2241446"
       style="color-interpolation-filters:sRGB">
      <feGaussianBlur
         stdDeviation="11.352405"
         id="feGaussianBlur155" />
    </filter>
    <linearGradient
       inkscape:collect="always"
       xlink:href="#l"
       id="linearGradient1177"
       gradientUnits="userSpaceOnUse"
       x1="1029"
       y1="722"
       x2="1841"
       y2="380"
       gradientTransform="matrix(1.04,0,0,1.04,-50.4,27.6)" />
    <linearGradient
       inkscape:collect="always"
       xlink:href="#l"
       id="linearGradient1179"
       gradientUnits="userSpaceOnUse"
       gradientTransform="matrix(-1.04,0,0,1.04,1908.96,27.649816)"
       x1="1024"
       y1="717"
       x2="1841"
       y2="380" />
    <linearGradient
       inkscape:collect="always"
       xlink:href="#b"
       id="linearGradient1181"
       gradientUnits="userSpaceOnUse"
       gradientTransform="translate(-8.24,32.9)"
       x1="929"
       y1="675"
       x2="962"
       y2="675" />
    <linearGradient
       inkscape:collect="always"
       xlink:href="#b"
       id="linearGradient1183"
       gradientUnits="userSpaceOnUse"
       gradientTransform="translate(-8.24,32.9)"
       x1="929"
       y1="675"
       x2="962"
       y2="675" />
    <linearGradient
       inkscape:collect="always"
       xlink:href="#b"
       id="linearGradient1185"
       gradientUnits="userSpaceOnUse"
       gradientTransform="translate(-8.24,32.9)"
       x1="929"
       y1="675"
       x2="962"
       y2="675" />
    <linearGradient
       inkscape:collect="always"
       xlink:href="#b"
       id="linearGradient1187"
       gradientUnits="userSpaceOnUse"
       gradientTransform="translate(-8.24,32.9)"
       x1="929"
       y1="675"
       x2="962"
       y2="675" />
    <linearGradient
       inkscape:collect="always"
       xlink:href="#b"
       id="linearGradient1189"
       gradientUnits="userSpaceOnUse"
       gradientTransform="translate(-8.24,32.9)"
       x1="929"
       y1="675"
       x2="962"
       y2="675" />
    <linearGradient
       inkscape:collect="always"
       xlink:href="#b"
       id="linearGradient1191"
       gradientUnits="userSpaceOnUse"
       gradientTransform="translate(-8.24,32.9)"
       x1="929"
       y1="675"
       x2="962"
       y2="675" />
    <linearGradient
       inkscape:collect="always"
       xlink:href="#b"
       id="linearGradient1193"
       gradientUnits="userSpaceOnUse"
       gradientTransform="translate(-8.24,32.9)"
       x1="929"
       y1="675"
       x2="962"
       y2="675" />
    <linearGradient
       inkscape:collect="always"
       xlink:href="#b"
       id="linearGradient1195"
       gradientUnits="userSpaceOnUse"
       gradientTransform="translate(-8.24,32.9)"
       x1="929"
       y1="675"
       x2="962"
       y2="675" />
    <linearGradient
       inkscape:collect="always"
       xlink:href="#b"
       id="linearGradient1197"
       gradientUnits="userSpaceOnUse"
       gradientTransform="translate(-8.24,32.9)"
       x1="929"
       y1="675"
       x2="962"
       y2="675" />
    <linearGradient
       inkscape:collect="always"
       xlink:href="#b"
       id="linearGradient1199"
       gradientUnits="userSpaceOnUse"
       gradientTransform="translate(-8.24,32.9)"
       x1="929"
       y1="675"
       x2="962"
       y2="675" />
    <linearGradient
       inkscape:collect="always"
       xlink:href="#b"
       id="linearGradient1201"
       gradientUnits="userSpaceOnUse"
       gradientTransform="translate(-8.24,32.9)"
       x1="929"
       y1="675"
       x2="962"
       y2="675" />
    <linearGradient
       inkscape:collect="always"
       xlink:href="#b"
       id="linearGradient1203"
       gradientUnits="userSpaceOnUse"
       x1="930"
       y1="514"
       x2="962"
       y2="514"
       gradientTransform="matrix(1.04,0,0,1.04,-50.4,27.6)" />
    <linearGradient
       inkscape:collect="always"
       xlink:href="#b"
       id="linearGradient1205"
       gradientUnits="userSpaceOnUse"
       gradientTransform="translate(9.76,1.03)"
       x1="901"
       y1="423"
       x2="926"
       y2="423" />
    <linearGradient
       inkscape:collect="always"
       xlink:href="#b"
       id="linearGradient1207"
       gradientUnits="userSpaceOnUse"
       gradientTransform="translate(44.7,5.16)"
       x1="866"
       y1="332"
       x2="891"
       y2="332" />
    <linearGradient
       inkscape:collect="always"
       xlink:href="#b"
       id="linearGradient1209"
       gradientUnits="userSpaceOnUse"
       gradientTransform="translate(44.7,5.16)"
       x1="866"
       y1="332"
       x2="891"
       y2="332" />
    <linearGradient
       inkscape:collect="always"
       xlink:href="#b"
       id="linearGradient1211"
       gradientUnits="userSpaceOnUse"
       gradientTransform="translate(44.7,5.16)"
       x1="866"
       y1="332"
       x2="891"
       y2="332" />
    <linearGradient
       inkscape:collect="always"
       xlink:href="#b"
       id="linearGradient1213"
       gradientUnits="userSpaceOnUse"
       gradientTransform="translate(44.7,5.16)"
       x1="866"
       y1="332"
       x2="891"
       y2="332" />
    <linearGradient
       inkscape:collect="always"
       xlink:href="#b"
       id="linearGradient1215"
       gradientUnits="userSpaceOnUse"
       gradientTransform="translate(44.7,5.16)"
       x1="866"
       y1="332"
       x2="891"
       y2="332" />
    <linearGradient
       inkscape:collect="always"
       xlink:href="#b"
       id="linearGradient1217"
       gradientUnits="userSpaceOnUse"
       gradientTransform="translate(44.7,5.16)"
       x1="866"
       y1="332"
       x2="891"
       y2="332" />
    <linearGradient
       inkscape:collect="always"
       xlink:href="#b"
       id="linearGradient1219"
       gradientUnits="userSpaceOnUse"
       gradientTransform="translate(44.7,5.16)"
       x1="866"
       y1="332"
       x2="891"
       y2="332" />
    <linearGradient
       inkscape:collect="always"
       xlink:href="#b"
       id="linearGradient1221"
       gradientUnits="userSpaceOnUse"
       gradientTransform="translate(44.7,5.16)"
       x1="866"
       y1="332"
       x2="891"
       y2="332" />
    <linearGradient
       inkscape:collect="always"
       xlink:href="#b"
       id="linearGradient1223"
       gradientUnits="userSpaceOnUse"
       gradientTransform="translate(44.7,5.16)"
       x1="866"
       y1="332"
       x2="891"
       y2="332" />
    <linearGradient
       inkscape:collect="always"
       xlink:href="#b"
       id="linearGradient1225"
       gradientUnits="userSpaceOnUse"
       gradientTransform="translate(44.7,5.16)"
       x1="866"
       y1="332"
       x2="891"
       y2="332" />
    <linearGradient
       inkscape:collect="always"
       xlink:href="#b"
       id="linearGradient1227"
       gradientUnits="userSpaceOnUse"
       gradientTransform="translate(44.7,5.16)"
       x1="866"
       y1="332"
       x2="891"
       y2="332" />
    <linearGradient
       inkscape:collect="always"
       xlink:href="#b"
       id="linearGradient1229"
       gradientUnits="userSpaceOnUse"
       gradientTransform="translate(44.7,5.16)"
       x1="866"
       y1="332"
       x2="891"
       y2="332" />
    <linearGradient
       inkscape:collect="always"
       xlink:href="#b"
       id="linearGradient1231"
       gradientUnits="userSpaceOnUse"
       gradientTransform="translate(44.7,5.16)"
       x1="866"
       y1="332"
       x2="891"
       y2="332" />
    <linearGradient
       inkscape:collect="always"
       xlink:href="#b"
       id="linearGradient1233"
       gradientUnits="userSpaceOnUse"
       gradientTransform="translate(44.7,5.16)"
       x1="866"
       y1="332"
       x2="891"
       y2="332" />
    <linearGradient
       inkscape:collect="always"
       xlink:href="#b"
       id="linearGradient1235"
       gradientUnits="userSpaceOnUse"
       gradientTransform="translate(44.7,5.16)"
       x1="866"
       y1="332"
       x2="891"
       y2="332" />
    <linearGradient
       inkscape:collect="always"
       xlink:href="#b"
       id="linearGradient1237"
       gradientUnits="userSpaceOnUse"
       gradientTransform="translate(44.7,5.16)"
       x1="866"
       y1="332"
       x2="891"
       y2="332" />
    <linearGradient
       inkscape:collect="always"
       xlink:href="#b"
       id="linearGradient1239"
       gradientUnits="userSpaceOnUse"
       gradientTransform="translate(44.7,5.16)"
       x1="866"
       y1="332"
       x2="891"
       y2="332" />
    <linearGradient
       inkscape:collect="always"
       xlink:href="#b"
       id="linearGradient1241"
       gradientUnits="userSpaceOnUse"
       gradientTransform="translate(44.7,5.16)"
       x1="866"
       y1="332"
       x2="891"
       y2="332" />
    <linearGradient
       inkscape:collect="always"
       xlink:href="#b"
       id="linearGradient1243"
       gradientUnits="userSpaceOnUse"
       gradientTransform="translate(44.7,5.16)"
       x1="866"
       y1="332"
       x2="891"
       y2="332" />
    <linearGradient
       inkscape:collect="always"
       xlink:href="#b"
       id="linearGradient1245"
       gradientUnits="userSpaceOnUse"
       gradientTransform="translate(44.7,5.16)"
       x1="866"
       y1="332"
       x2="891"
       y2="332" />
    <linearGradient
       inkscape:collect="always"
       xlink:href="#b"
       id="linearGradient1247"
       gradientUnits="userSpaceOnUse"
       gradientTransform="translate(44.7,5.16)"
       x1="866"
       y1="332"
       x2="891"
       y2="332" />
    <linearGradient
       inkscape:collect="always"
       xlink:href="#b"
       id="linearGradient1249"
       gradientUnits="userSpaceOnUse"
       gradientTransform="translate(44.7,5.16)"
       x1="866"
       y1="332"
       x2="891"
       y2="332" />
    <linearGradient
       inkscape:collect="always"
       xlink:href="#b"
       id="linearGradient1251"
       gradientUnits="userSpaceOnUse"
       gradientTransform="translate(44.7,5.16)"
       x1="866"
       y1="332"
       x2="891"
       y2="332" />
    <linearGradient
       inkscape:collect="always"
       xlink:href="#b"
       id="linearGradient1253"
       gradientUnits="userSpaceOnUse"
       gradientTransform="translate(70.6,-2.36)"
       x1="827"
       y1="260"
       x2="852"
       y2="260" />
    <radialGradient
       inkscape:collect="always"
       xlink:href="#b"
       id="radialGradient1255"
       gradientUnits="userSpaceOnUse"
       gradientTransform="matrix(1.976,0.96928,-0.66248,1.352,743.12,654.72)"
       cx="153"
       cy="47.2"
       r="27.1" />
    <linearGradient
       inkscape:collect="always"
       xlink:href="#b"
       id="linearGradient1257"
       gradientUnits="userSpaceOnUse"
       gradientTransform="matrix(1.25,0,0,1.2,-124,-282)"
       x1="879"
       y1="876"
       x2="891"
       y2="876" />
    <linearGradient
       inkscape:collect="always"
       xlink:href="#b"
       id="linearGradient1259"
       gradientUnits="userSpaceOnUse"
       gradientTransform="matrix(1.3,0,0,1.248,-143.00608,-177.61789)"
       x1="879"
       y1="876"
       x2="891"
       y2="876" />
    <radialGradient
       inkscape:collect="always"
       xlink:href="#b"
       id="radialGradient1261"
       gradientUnits="userSpaceOnUse"
       gradientTransform="matrix(0.993,-0.121,0.278,2.29,-20.6,-93.3)"
       cx="27.6"
       cy="74.8"
       r="28.6" />
    <clipPath
       clipPathUnits="userSpaceOnUse"
       id="clipPath1615">
      <path
         d="m 1009.7034,930.39327 c -1.8096,8.1432 -7.3736,20.592 -13.72797,25.48 -6.3232,4.836 -45.656,9.1104 -45.656,9.1104 3.432,-4.4824 8.8504,-10.348 10.712,-15.184 10.1608,-10.816 21.424,-19.24 48.56797,-19.344 z"
         style="display:inline;fill:none;stroke:#040404;stroke-width:2.0696"
         id="path1617" />
    </clipPath>
    <clipPath
       clipPathUnits="userSpaceOnUse"
       id="clipPath1631">
      <path
         d="m 835.68,929.28 c 1.8096,8.1432 7.3736,20.592 13.728,25.48 6.3232,4.836 45.344,9.62 45.344,9.62 -3.432,-4.4824 -7.8832,-9.7448 -9.776,-14.56 -10.1608,-10.816 -22.048,-20.384 -49.296,-20.488 z"
         style="display:inline;fill:none;stroke:#000000;stroke-width:2.0696"
         id="path1633" />
    </clipPath>
  </defs>
  <path
     d="m 989.6,831.52 c 16.536,-4.42 69.368,-55.848 85.8,-61.256 119.6,-38.896 238.16,-96.616 387.92,-93.392 3.9936,0.0871 30.68,8.4656 30.68,8.4656 0,0 -14.04,-10.92 -11.648,-12.376 154.96,-93.184 364,-224.64 399.36,-362.96 -51.896,133.12 -246.48,257.92 -406.64,354.64 82.16,-122.72 177.84,-234 239.2,-367.12 -80.496,124.8 -184.08,271.44 -249.6,362.96 -40.352,-1.3624 -93.704,3.2448 -135.2,9.9632 37.544,-53.872 114.4,-213.2 138.32,-309.92 -36.712,87.984 -100.36,225.68 -148.72,305.76 -44.096,-88.088 -99.32,-203.84 -143.52,-291.2 46.488,136.24 105.04,240.24 133.12,298.48 -76.648,19.136 -158.08,49.92 -237.12,73.112 -16.432,4.8672 -68.224,2.3504 -81.848,-11.128 2.6,11.024 4.3368,82.784 0.4368,95.888 z"
     style="fill:url(#linearGradient1177);stroke-width:1.04"
     id="path160" />
  <path
     d="M 867.92,832.56 C 851.384,828.14 798.552,776.712 782.12,771.304 662.52,732.408 538.76,674.168 389,677.392 c -3.9936,0.087 -30.68,8.4656 -30.68,8.4656 0,0 13.832,-10.712 11.648,-12.376 -145.6,-102.232 -296.4,-237.12 -343.2,-373.36 65.624,124.8 204.88,257.92 350.48,365.04 -52.936,-123.76 -89.232,-239.2 -136.24,-375.44 57.928,127.92 102.128,273.52 146.64,371.28 40.352,-1.3624 124.8,3.8896 166.4,16.744 -27.872,-61.048 -78.52,-206.96 -102.128,-304.72 36.712,87.984 80.496,219.44 114.4,302.64 40.352,-89.232 80.6,-223.6 124.8,-312 -46.488,136.24 -103.064,297.44 -109.2,318.24 76.648,19.136 126.88,41.496 204.88,64.688 16.432,4.8672 68.224,2.3504 81.848,-11.128 -2.6,11.024 -4.3368,82.784 -0.4368,95.888 z"
     style="fill:url(#linearGradient1179);stroke-width:1.04"
     id="path162" />
  <path
     d="m 883,774 c -15.9,-4.25 -66.7,-53.7 -82.5,-58.9 -115,-37.4 -234,-93.4 -378,-90.3 -3.84,0.0837 -29.5,8.14 -29.5,8.14 0,0 13.3,-10.3 11.2,-11.9 -140,-98.3 -285,-228 -330,-359 63.1,120 197,248 337,351 -50.9,-119 -85.8,-230 -131,-361 55.7,123 98.2,263 141,357 38.8,-1.31 120,3.74 160,16.1 -26.8,-58.7 -75.5,-199 -98.2,-293 35.3,84.6 77.4,211 110,291 38.8,-85.8 77.5,-215 120,-300 -44.7,131 -99.1,286 -105,306 73.7,18.4 122,39.9 197,62.2 15.8,4.68 65.6,2.26 78.7,-10.7 -2.5,10.6 -4.17,79.6 -0.42,92.2 z"
     style="fill:url(#j);filter:url(#bh)"
     id="path164"
     transform="matrix(1.04,0,0,1.04,-50.4,27.6)" />
  <path
     d="m 1000,773 c 15.9,-4.25 66.7,-53.7 82.5,-58.9 115,-37.4 229,-92.9 373,-89.8 3.84,0.0837 29.5,8.14 29.5,8.14 0,0 -13.5,-10.5 -11.2,-11.9 149,-89.6 350,-216 384,-349 -49.9,128 -237,248 -391,341 79,-118 171,-225 230,-353 -77.4,120 -177,261 -240,349 -38.8,-1.31 -90.1,3.12 -130,9.58 36.1,-51.8 110,-205 133,-298 -35.3,84.6 -96.5,217 -143,294 -42.4,-84.7 -95.5,-196 -138,-280 44.7,131 101,231 128,287 -73.7,18.4 -152,48 -228,70.3 -15.8,4.68 -65.6,2.26 -78.7,-10.7 2.5,10.6 4.17,79.6 0.42,92.2 z"
     style="mix-blend-mode:normal;fill:url(#k);filter:url(#bi)"
     id="path166"
     transform="matrix(1.04,0,0,1.04,-50.4,27.6)" />
  <path
     d="m 795,41 c 93.1,45.1 125,200 119,364 -0.563,15.4 4.42,30.8 6.98,46.6 18.7,115 7.47,242 -3.15,366 l 44.1,-0.574 c 11.1,-100 26,-218 -7.66,-367 -4.58,-20.3 -13.1,-40 -12.8,-60.2 2.89,-157 -50.8,-312 -146,-348 z"
     style="opacity:0.101;mix-blend-mode:normal;fill:url(#s);filter:url(#ae)"
     id="path168"
     transform="matrix(1.04,0,0,1.04,-50.4,27.6)" />
  <g
     transform="matrix(1.04,0,0,1.04,-41.7472,27.49184)"
     id="g174">
    <path
       d="m 922,723 7.2,0.0507 7.71,-18.9 8.95,18.5 7.03,0.449 -14.7,-31.2 z"
       style="fill:url(#linearGradient1181)"
       id="path170" />
    <path
       d="m 922,723 7.2,0.0507 7.71,-18.9 8.95,18.5 7.03,0.449 -14.7,-31.2 z"
       style="mix-blend-mode:normal;fill:url(#linearGradient1183);filter:url(#al)"
       id="path172" />
  </g>
  <g
     transform="matrix(1.04,0,0,1.04,-43.38,76.064)"
     id="g180">
    <path
       d="m 922,723 7.2,0.0507 7.71,-18.9 8.95,18.5 7.03,0.449 -14.7,-31.2 z"
       style="fill:url(#linearGradient1185)"
       id="path176" />
    <path
       d="m 922,723 7.2,0.0507 7.71,-18.9 8.95,18.5 7.03,0.449 -14.7,-31.2 z"
       style="mix-blend-mode:normal;fill:url(#linearGradient1187);filter:url(#ai)"
       id="path178" />
  </g>
  <g
     transform="matrix(1.04,0,0,1.04,-39.792,-20.656)"
     id="g186">
    <path
       d="m 922,723 7.2,0.0507 7.71,-18.9 8.95,18.5 7.03,0.449 -14.7,-31.2 z"
       style="fill:url(#linearGradient1189)"
       id="path182" />
    <path
       d="m 922,723 7.2,0.0507 7.71,-18.9 8.95,18.5 7.03,0.449 -14.7,-31.2 z"
       style="mix-blend-mode:normal;fill:url(#linearGradient1191);filter:url(#ah)"
       id="path184" />
  </g>
  <g
     transform="matrix(1.04,0,0,1.04,-33.552,-71.408)"
     id="g192">
    <path
       d="m 922,723 7.2,0.0507 7.71,-18.9 8.95,18.5 7.03,0.449 -14.7,-31.2 z"
       style="fill:url(#linearGradient1193)"
       id="path188" />
    <path
       d="m 922,723 7.2,0.0507 7.71,-18.9 8.95,18.5 7.03,0.449 -14.7,-31.2 z"
       style="mix-blend-mode:normal;fill:url(#linearGradient1195);filter:url(#ag)"
       id="path190" />
  </g>
  <g
     transform="matrix(1.04,0,0,1.04,-35.008,-123.2)"
     id="g198">
    <path
       d="m 922,723 7.2,0.0507 7.71,-18.9 8.95,18.5 7.03,0.449 -14.7,-31.2 z"
       style="fill:url(#linearGradient1197)"
       id="path194" />
    <path
       d="m 922,723 7.2,0.0507 7.71,-18.9 8.95,18.5 7.03,0.449 -14.7,-31.2 z"
       style="mix-blend-mode:normal;fill:url(#linearGradient1199);filter:url(#aj)"
       id="path196" />
  </g>
  <g
     transform="matrix(1.04,0,0,1.04,-49.9216,-219.92)"
     id="g204">
    <path
       d="m 922,723 7.2,0.0507 7.71,-18.9 8.95,18.5 7.03,0.449 -14.7,-31.2 z"
       style="fill:url(#linearGradient1201)"
       id="path200" />
    <path
       d="m 922,723 7.2,0.0507 7.71,-18.9 8.95,18.5 7.03,0.449 -14.7,-31.2 z"
       style="mix-blend-mode:normal;fill:url(#c);filter:url(#ak)"
       id="path202" />
  </g>
  <path
     d="m 916.8,578.8 7.2384,0.26416 8.424,-19.24 8.7464,19.24 7.6232,0.0372 -15.912,-32.968 z"
     style="fill:url(#linearGradient1203);stroke-width:1.04"
     id="path206" />
  <path
     d="m 930,530 6.96,0.254 8.1,-18.5 8.41,18.5 7.33,0.0358 -15.3,-31.7 z"
     style="mix-blend-mode:normal;fill:url(#f);filter:url(#am)"
     id="path208"
     transform="matrix(1.04,0,0,1.04,-50.4,27.6)" />
  <g
     transform="matrix(1.04,0,0,1.04,-41.7056,29.2848)"
     id="g214">
    <path
       d="m 911,436 5.37,0.197 6.25,-14.3 6.5,14.3 5.66,0.0276 -11.8,-24.5 z"
       style="fill:url(#linearGradient1205)"
       id="path210" />
    <path
       d="m 911,436 5.37,0.197 6.25,-14.3 6.5,14.3 5.66,0.0276 -11.8,-24.5 z"
       style="fill:url(#u);filter:url(#an)"
       id="path212" />
  </g>
  <g
     transform="matrix(1.04,0,0,1.04,-45.3248,25.6968)"
     id="g220">
    <path
       d="m 911,350 5.37,0.197 6.25,-14.3 6.5,14.3 5.66,0.0276 -11.8,-24.5 z"
       style="fill:url(#linearGradient1207)"
       id="path216" />
    <path
       d="m 911,350 5.37,0.197 6.25,-14.3 6.5,14.3 5.66,0.0276 -11.8,-24.5 z"
       style="mix-blend-mode:normal;fill:url(#linearGradient1209);filter:url(#az)"
       id="path218" />
  </g>
  <g
     transform="matrix(1.04,0,0,1.04,-44.1184,73.36)"
     id="g226">
    <path
       d="m 911,350 5.37,0.197 6.25,-14.3 6.5,14.3 5.66,0.0276 -11.8,-24.5 z"
       style="fill:url(#linearGradient1211)"
       id="path222" />
    <path
       d="m 911,350 5.37,0.197 6.25,-14.3 6.5,14.3 5.66,0.0276 -11.8,-24.5 z"
       style="mix-blend-mode:normal;fill:url(#linearGradient1213);filter:url(#ay)"
       id="path224" />
  </g>
  <g
     transform="matrix(1.04,0,0,1.04,-49.94448,-15.352)"
     id="g232">
    <path
       d="m 911,350 5.37,0.197 6.25,-14.3 6.5,14.3 5.66,0.0276 -11.8,-24.5 z"
       style="fill:url(#linearGradient1215)"
       id="path228" />
    <path
       d="m 911,350 5.37,0.197 6.25,-14.3 6.5,14.3 5.66,0.0276 -11.8,-24.5 z"
       style="mix-blend-mode:normal;fill:url(#linearGradient1217);filter:url(#ax)"
       id="path230" />
  </g>
  <g
     transform="matrix(0.92768,0,0,0.92768,43.408,-59.032)"
     id="g238">
    <path
       d="m 911,350 5.37,0.197 6.25,-14.3 6.5,14.3 5.66,0.0276 -11.8,-24.5 z"
       style="fill:url(#linearGradient1219)"
       id="path234" />
    <path
       d="m 911,350 5.37,0.197 6.25,-14.3 6.5,14.3 5.66,0.0276 -11.8,-24.5 z"
       style="mix-blend-mode:normal;fill:url(#linearGradient1221);filter:url(#aw)"
       id="path236" />
  </g>
  <g
     transform="matrix(0.84136,0,0,0.84136,116,-61.944)"
     id="g244">
    <path
       d="m 911,350 5.37,0.197 6.25,-14.3 6.5,14.3 5.66,0.0276 -11.8,-24.5 z"
       style="fill:url(#linearGradient1223)"
       id="path240" />
    <path
       d="m 911,350 5.37,0.197 6.25,-14.3 6.5,14.3 5.66,0.0276 -11.8,-24.5 z"
       style="mix-blend-mode:normal;fill:url(#linearGradient1225);filter:url(#av)"
       id="path242" />
  </g>
  <g
     transform="matrix(0.6968,0,0,0.6968,237.68,-43.952)"
     id="g250">
    <path
       d="m 911,350 5.37,0.197 6.25,-14.3 6.5,14.3 5.66,0.0276 -11.8,-24.5 z"
       style="fill:url(#linearGradient1227)"
       id="path246" />
    <path
       d="m 911,350 5.37,0.197 6.25,-14.3 6.5,14.3 5.66,0.0276 -11.8,-24.5 z"
       style="mix-blend-mode:normal;fill:url(#linearGradient1229);filter:url(#au)"
       id="path248" />
  </g>
  <g
     transform="matrix(0.61152,0,0,0.61152,306.32,-40.208)"
     id="g256">
    <path
       d="m 911,350 5.37,0.197 6.25,-14.3 6.5,14.3 5.66,0.0276 -11.8,-24.5 z"
       style="fill:url(#linearGradient1231)"
       id="path252" />
    <path
       d="m 911,350 5.37,0.197 6.25,-14.3 6.5,14.3 5.66,0.0276 -11.8,-24.5 z"
       style="mix-blend-mode:normal;fill:url(#linearGradient1233);filter:url(#at)"
       id="path254" />
  </g>
  <g
     transform="matrix(0.5356,0,0,0.5356,365.6,-35.632)"
     id="g262">
    <path
       d="m 911,350 5.37,0.197 6.25,-14.3 6.5,14.3 5.66,0.0276 -11.8,-24.5 z"
       style="fill:url(#linearGradient1235)"
       id="path258" />
    <path
       d="m 911,350 5.37,0.197 6.25,-14.3 6.5,14.3 5.66,0.0276 -11.8,-24.5 z"
       style="mix-blend-mode:normal;fill:url(#linearGradient1237);filter:url(#ao)"
       id="path260" />
  </g>
  <g
     transform="matrix(0.50336,0,0,0.50336,382.24,-44.056)"
     id="g268">
    <path
       d="m 911,350 5.37,0.197 6.25,-14.3 6.5,14.3 5.66,0.0276 -11.8,-24.5 z"
       style="fill:url(#linearGradient1239)"
       id="path264" />
    <path
       d="m 911,350 5.37,0.197 6.25,-14.3 6.5,14.3 5.66,0.0276 -11.8,-24.5 z"
       style="mix-blend-mode:normal;fill:url(#linearGradient1241);filter:url(#as)"
       id="path266" />
  </g>
  <g
     transform="matrix(0.38688,0,0,0.38688,476.88,-19.512)"
     id="g274">
    <path
       d="m 911,350 5.37,0.197 6.25,-14.3 6.5,14.3 5.66,0.0276 -11.8,-24.5 z"
       style="fill:url(#linearGradient1243)"
       id="path270" />
    <path
       d="m 911,350 5.37,0.197 6.25,-14.3 6.5,14.3 5.66,0.0276 -11.8,-24.5 z"
       style="mix-blend-mode:normal;fill:url(#linearGradient1245);filter:url(#ar)"
       id="path272" />
  </g>
  <g
     transform="matrix(0.338,0,0,0.338,507.04,-16.6)"
     id="g280">
    <path
       d="m 911,350 5.37,0.197 6.25,-14.3 6.5,14.3 5.66,0.0276 -11.8,-24.5 z"
       style="fill:url(#linearGradient1247)"
       id="path276" />
    <path
       d="m 911,350 5.37,0.197 6.25,-14.3 6.5,14.3 5.66,0.0276 -11.8,-24.5 z"
       style="mix-blend-mode:normal;fill:url(#linearGradient1249);filter:url(#aq)"
       id="path278" />
  </g>
  <g
     transform="matrix(0.26,0,0,0.26,567.36,0.352)"
     id="g286">
    <path
       d="m 911,350 5.37,0.197 6.25,-14.3 6.5,14.3 5.66,0.0276 -11.8,-24.5 z"
       style="fill:url(#linearGradient1251)"
       id="path282" />
    <path
       d="m 911,350 5.37,0.197 6.25,-14.3 6.5,14.3 5.66,0.0276 -11.8,-24.5 z"
       style="mix-blend-mode:normal;fill:url(#a);filter:url(#ap)"
       id="path284" />
  </g>
  <g
     transform="matrix(1.04,0,0,1.04,-40.7176,23.1488)"
     id="g292">
    <path
       d="m 898,270 5.37,0.197 6.25,-14.3 6.5,14.3 5.66,0.0276 -11.8,-24.5 z"
       style="fill:url(#linearGradient1253)"
       id="path288" />
    <path
       d="m 898,270 5.37,0.197 6.25,-14.3 6.5,14.3 5.66,0.0276 -11.8,-24.5 z"
       style="mix-blend-mode:normal;fill:url(#g);filter:url(#ba)"
       id="path290" />
  </g>
  <path
     d="m 902,802 12.2,29.1 45.5,0.536 12.5,-25.3 9.17,25.1 52.1,-59.2 -40,69.1 -113,1.29 -34.2,-67.6 46.3,58.5 z"
     style="mix-blend-mode:normal;fill:#7d4a00;filter:url(#bb)"
     id="path294"
     transform="matrix(1.04,0,0,1.04,-50.4,27.6)" />
  <path
     d="m 832.56,809.68 c 6.968,22.256 24.336,51.896 46.384,84.76 l -17.784,-4.2952 c -11.232,-20.696 -26.312,-42.224 -30.368,-56.576 -9.8904,16.016 -13.624,31.616 -22.36,57.72 l -13.936,2.5064 c 12.688,-28.288 23.296,-66.768 38.168,-84.032 z"
     style="fill:url(#q);stroke-width:1.04"
     id="path298" />
  <path
     d="m 901.2,891.84 3.0056,-14.04 45.864,-0.59696 -1.508,15.184 z"
     style="fill:url(#v);stroke-width:1.04"
     id="path300" />
  <path
     d="m 970.88,891.84 17.992,-3.0368 c 8.164,-18.928 27.04,-47.84 36.192,-58.552 -1.4352,16.224 10.504,40.456 12.688,57.72 l 13.208,1.7784 c -11.752,-28.392 -17.888,-53.976 -22.568,-79.144 -25.168,30.888 -39.936,58.032 -57.408,81.12 z"
     style="fill:url(#radialGradient1255);stroke-width:1.04"
     id="path302" />
  <path
     d="m 1018.72,980.24 c 8.0808,0.48152 13.624,-0.22256 18.616,-1.1232 -7.228,8.5592 -16.64,16.432 -25.168,24.544 l -13.936,-0.7166 z"
     style="fill:url(#x);stroke-width:1.04"
     id="path304" />
  <path
     d="m 809.68,977.12 c 6.448,0.73112 13.104,1.612 18.72,1.7472 l 20.8,25.168 -14.04,0.937 c -10.4,-9.80716 -19.448,-19.23996 -25.48,-27.87196 z"
     style="fill:url(#w);stroke-width:1.04"
     id="path306" />
  <path
     transform="matrix(1.4768,0,0,1.4768,790.96,794.08)"
     d="m 27.8,10.8 c 4.72,15.1 16.5,35.1 31.4,57.3 L 47.1,65.19 c -7.59,-14 -17.8,-28.6 -20.6,-38.3 -6.69,10.9 -9.2,21.4 -15.1,39 l -9.43,1.7 c 8.57,-19.1 15.8,-45.2 25.8,-56.9 z"
     style="mix-blend-mode:normal;fill:url(#radialGradient1261);filter:url(#bn)"
     id="path332" />
  <g
     id="g1612"
     clip-path="url(#clipPath1615)">
    <path
       d="m 1010.4,930.32 c -1.8096,8.1432 -7.3736,20.592 -13.728,25.48 -6.3232,4.836 -45.656,9.1104 -45.656,9.1104 3.432,-4.4824 8.8504,-10.348 10.712,-15.184 10.1608,-10.816 21.424,-19.24 48.568,-19.344 z"
       style="fill:url(#n);stroke-width:1.04"
       id="path296" />
    <ellipse
       cx="987.52002"
       cy="952.15997"
       rx="4.5760002"
       ry="3.3072"
       style="fill:#ffffff;fill-opacity:0.138;stroke-width:1.04"
       id="ellipse308" />
    <ellipse
       transform="rotate(2.0000001)"
       cx="1005.154"
       cy="917.50214"
       rx="7.5920005"
       ry="10.608"
       style="fill:url(#linearGradient1259);stroke-width:1.04"
       id="ellipse322" />
    <path
       transform="matrix(1.0360425,-0.09064197,0.09064197,1.0360425,-18.403599,111.47807)"
       d="m 879,878 a 7.3,10.2 7 0 0 -7.53,9.26 7.3,10.2 7 0 0 -0.0176,0.227 l 14.5,1.78 a 7.3,10.2 7 0 0 0.0391,-0.227 7.3,10.2 7 0 0 -6,-11 7.3,10.2 7 0 0 -0.957,-0.0293 z"
       style="opacity:0.11;mix-blend-mode:normal;fill:#080808;filter:url(#bf)"
       id="path324" />
    <ellipse
       transform="matrix(1.0393665,0.03629548,-0.03629548,1.0393665,-50.4,27.6)"
       cx="1014"
       cy="854"
       rx="7.3000002"
       ry="10.2"
       clip-path="url(#t)"
       style="mix-blend-mode:normal;fill:url(#h);filter:url(#bd)"
       id="ellipse326" />
    <ellipse
       cx="971.91998"
       cy="953.20001"
       rx="3.796"
       ry="5.8239999"
       id="ellipse328"
       style="stroke-width:1.04" />
  </g>
  <path
     transform="matrix(1.4768,0,0,1.4768,790.96,794.08)"
     d="m 154,126 c 5.47,0.326 9.19,-0.151 12.6,-0.763 -4.89,5.79 -11.3,11.1 -17,16.6 l -9.45,-0.485 z"
     style="mix-blend-mode:normal;fill:url(#z);filter:url(#bl)"
     id="path336" />
  <path
     transform="matrix(1.4768,0,0,1.4768,790.96,794.08)"
     d="m 12.5,124 c 4.36,0.495 8.86,1.09 12.7,1.18 l 14.1,17 -9.52,0.634 c -7.04,-6.64 -13.2,-13 -17.3,-18.9 z"
     style="mix-blend-mode:normal;fill:url(#y);filter:url(#bm)"
     id="path338" />
  <path
     transform="matrix(1.4768,0,0,1.4768,790.96,794.08)"
     d="m 74.2,66.4 2.04,-9.5 31,-0.404 -1.02,10.3 z"
     style="fill:url(#aa);filter:url(#ad)"
     id="path344" />
  <path
     transform="matrix(1.4768,0,0,1.4768,790.96,794.08)"
     d="m 27.8,10.8 c 4.72,15.1 16.5,35.1 31.4,57.3 L 47.1,65.19 c -7.59,-14 -17.8,-28.6 -20.6,-38.3 -6.69,10.9 -9.2,21.4 -15.1,39 l -9.43,1.7 c 8.57,-19.1 15.8,-45.2 25.8,-56.9 z"
     style="fill:url(#p);filter:url(#ab)"
     id="path346" />
  <path
     d="m 982,831 17.3,-2.92 c 7.85,-18.2 26,-46 34.8,-56.3 -1.38,15.6 10.1,38.9 12.2,55.5 l 12.7,1.71 c -11.3,-27.3 -17.2,-51.9 -21.7,-76.1 -24.2,29.7 -38.4,55.8 -55.2,78 z"
     style="fill:url(#e);filter:url(#bc)"
     id="path354"
     transform="matrix(1.04,0,0,1.04,-50.4,27.6)" />
  <g
     id="g1628"
     clip-path="url(#clipPath1631)">
    <path
       d="m 835.68,929.28 c 1.8096,8.1432 7.3736,20.592 13.728,25.48 6.3232,4.836 45.344,9.62 45.344,9.62 -3.432,-4.4824 -7.8832,-9.7448 -9.776,-14.56 -10.1608,-10.816 -22.048,-20.384 -49.296,-20.488 z"
       style="fill:url(#o);stroke-width:1.04"
       id="path310" />
    <g
       transform="matrix(1.04,0,0,1.04,-50.400095,27.6)"
       id="g320">
      <ellipse
         transform="rotate(7)"
         cx="980"
         cy="771"
         rx="7.3000002"
         ry="10.2"
         style="fill:url(#linearGradient1257)"
         id="ellipse312" />
      <path
         d="m 879,874 a 7.3,10.2 7 0 0 -7.53,9.26 7.3,10.2 7 0 0 -0.0176,0.227 l 14.5,1.78 a 7.3,10.2 7 0 0 0.0391,-0.227 7.3,10.2 7 0 0 -6,-11 7.3,10.2 7 0 0 -0.957,-0.0293 z"
         style="opacity:0.11;mix-blend-mode:normal;fill:#080808;filter:url(#bg)"
         id="path314" />
      <ellipse
         transform="rotate(7)"
         cx="980"
         cy="771"
         rx="7.3000002"
         ry="10.2"
         clip-path="url(#r)"
         style="mix-blend-mode:normal;fill:url(#i);filter:url(#be)"
         id="ellipse316" />
      <ellipse
         transform="rotate(10)"
         cx="1019"
         cy="720"
         rx="3.6500001"
         ry="5.5999999"
         id="ellipse318" />
    </g>
    <ellipse
       transform="matrix(0.96774455,0.2519335,-0.26599308,0.96397494,0,0)"
       cx="1073.927"
       cy="694.62842"
       rx="5.0037203"
       ry="4.0457053"
       style="fill:#ffffff;fill-opacity:0.106;stroke-width:1.04015"
       id="ellipse350" />
    <ellipse
       cx="871.03998"
       cy="954.23999"
       rx="2.5688"
       ry="2.5999999"
       style="fill:#ffffff;fill-opacity:0.194;stroke-width:1.04"
       id="ellipse352" />
  </g>
</svg>
