<?xml version="1.0" encoding="UTF-8" standalone="no"?>
<!-- Created with Inkscape (http://www.inkscape.org/) -->

<svg
   width="180"
   height="180"
   viewBox="0 0 180 180"
   version="1.1"
   id="svg5"
   inkscape:version="1.1.1 (3bf5ae0d25, 2021-09-20)"
   sodipodi:docname="ether-icon.svg"
   inkscape:export-filename="/home/slatian/ether-icon.png"
   inkscape:export-xdpi="273.06699"
   inkscape:export-ydpi="273.06699"
   xmlns:inkscape="http://www.inkscape.org/namespaces/inkscape"
   xmlns:sodipodi="http://sodipodi.sourceforge.net/DTD/sodipodi-0.dtd"
   xmlns:xlink="http://www.w3.org/1999/xlink"
   xmlns="http://www.w3.org/2000/svg"
   xmlns:svg="http://www.w3.org/2000/svg">
  <sodipodi:namedview
     id="namedview7"
     pagecolor="#505050"
     bordercolor="#eeeeee"
     borderopacity="1"
     inkscape:pageshadow="0"
     inkscape:pageopacity="0"
     inkscape:pagecheckerboard="0"
     inkscape:document-units="px"
     showgrid="false"
     inkscape:zoom="2.4027778"
     inkscape:cx="79.491329"
     inkscape:cy="101.96532"
     inkscape:window-width="1085"
     inkscape:window-height="1039"
     inkscape:window-x="0"
     inkscape:window-y="0"
     inkscape:window-maximized="1"
     inkscape:current-layer="layer2" />
  <defs
     id="defs2">
    <linearGradient
       inkscape:collect="always"
       id="linearGradient4179">
      <stop
         style="stop-color:#101c1a;stop-opacity:1"
         offset="0"
         id="stop4175" />
      <stop
         style="stop-color:#274b3c;stop-opacity:0.99607843;"
         offset="0.15327777"
         id="stop9991" />
      <stop
         style="stop-color:#214823;stop-opacity:0.99607843;"
         offset="0.26211277"
         id="stop4793" />
      <stop
         style="stop-color:#3e5226;stop-opacity:0.9921568"
         offset="0.29870671"
         id="stop5119" />
      <stop
         style="stop-color:#0f2010;stop-opacity:0.9921568"
         offset="0.49766746"
         id="stop4859" />
      <stop
         style="stop-color:#122718;stop-opacity:0.9921568"
         offset="0.63744301"
         id="stop8709" />
      <stop
         style="stop-color:#347050;stop-opacity:0.9921568"
         offset="0.80792177"
         id="stop4989" />
      <stop
         style="stop-color:#437633;stop-opacity:0.9921568"
         offset="0.90547621"
         id="stop5453" />
      <stop
         style="stop-color:#181818;stop-opacity:0.9921568"
         offset="1"
         id="stop4177" />
    </linearGradient>
    <linearGradient
       inkscape:collect="always"
       xlink:href="#linearGradient19650"
       id="linearGradient19034"
       gradientUnits="userSpaceOnUse"
       x1="554.54175"
       y1="467.79807"
       x2="743.15955"
       y2="409.64374"
       spreadMethod="reflect"
       gradientTransform="matrix(-0.98480775,-0.17364818,-0.17364818,0.98480775,518.9135,-341.32307)" />
    <linearGradient
       inkscape:collect="always"
       id="linearGradient19650">
      <stop
         style="stop-color:#d2a700;stop-opacity:1"
         offset="0"
         id="stop19646" />
      <stop
         style="stop-color:#ce760a;stop-opacity:1"
         offset="1"
         id="stop19648" />
    </linearGradient>
    <linearGradient
       inkscape:collect="always"
       xlink:href="#linearGradient26104"
       id="linearGradient2529"
       gradientUnits="userSpaceOnUse"
       gradientTransform="rotate(-6,-4009.747,5196.9799)"
       x1="554.54175"
       y1="467.79807"
       x2="855.23462"
       y2="398.39777"
       spreadMethod="pad" />
    <linearGradient
       inkscape:collect="always"
       id="linearGradient26104">
      <stop
         style="stop-color:#ce760a;stop-opacity:1"
         offset="0"
         id="stop26102" />
      <stop
         style="stop-color:#d2a700;stop-opacity:1"
         offset="1"
         id="stop26100" />
    </linearGradient>
    <filter
       inkscape:collect="always"
       style="color-interpolation-filters:sRGB"
       id="filter27852"
       x="-0.077005156"
       y="-0.18075419"
       width="1.1540103"
       height="1.3615084">
      <feGaussianBlur
         inkscape:collect="always"
         stdDeviation="15.058707"
         id="feGaussianBlur27854" />
    </filter>
    <filter
       inkscape:collect="always"
       style="color-interpolation-filters:sRGB"
       id="filter1377"
       x="-0.075304824"
       y="-0.19087042"
       width="1.1506096"
       height="1.3817408">
      <feGaussianBlur
         inkscape:collect="always"
         stdDeviation="14.675658"
         id="feGaussianBlur1379" />
    </filter>
    <radialGradient
       inkscape:collect="always"
       xlink:href="#linearGradient13241"
       id="radialGradient9727"
       cx="127.76957"
       cy="104.34355"
       fx="127.76957"
       fy="104.34355"
       r="21.295732"
       gradientTransform="matrix(-0.92718292,0.54478094,-0.29674529,-0.50504182,277.19879,87.434981)"
       gradientUnits="userSpaceOnUse" />
    <linearGradient
       inkscape:collect="always"
       id="linearGradient13241">
      <stop
         style="stop-color:#f0b17b;stop-opacity:1"
         offset="0"
         id="stop13237" />
      <stop
         style="stop-color:#4a3528;stop-opacity:1"
         offset="1"
         id="stop13239" />
    </linearGradient>
    <linearGradient
       inkscape:collect="always"
       xlink:href="#Glow_1"
       id="linearGradient12335"
       gradientUnits="userSpaceOnUse"
       gradientTransform="rotate(6.9999998,1.8568667e-6,3.0359494e-5)"
       x1="134.44164"
       y1="86.022491"
       x2="144.66582"
       y2="86.022491" />
    <linearGradient
       inkscape:collect="always"
       id="Glow_1">
      <stop
         style="stop-color:#cb980a;stop-opacity:1"
         offset="0"
         id="stop6694" />
      <stop
         style="stop-color:#cb760a;stop-opacity:1"
         offset="1"
         id="stop6696" />
    </linearGradient>
    <linearGradient
       inkscape:collect="always"
       xlink:href="#Glow_1"
       id="linearGradient6662"
       x1="134.44164"
       y1="86.022491"
       x2="144.66582"
       y2="86.022491"
       gradientUnits="userSpaceOnUse"
       gradientTransform="rotate(7)" />
    <clipPath
       clipPathUnits="userSpaceOnUse"
       id="clipPath12104">
      <path
         style="fill:none;stroke:#040404;stroke-width:1.4;stroke-linecap:butt;stroke-linejoin:miter;stroke-miterlimit:4;stroke-dasharray:none;stroke-opacity:1"
         d="m 148.19116,92.573884 c -1.22681,5.50723 -4.98835,13.937156 -9.26861,17.206026 -4.28027,3.26887 -30.89802,6.16515 -30.89802,6.16515 2.32225,-3.0307 5.98747,-7.00014 7.27111,-10.2475 6.87357,-7.325315 14.48718,-13.024721 32.89552,-13.123676 z"
         id="path12106"
         sodipodi:nodetypes="czccc" />
    </clipPath>
    <filter
       inkscape:collect="always"
       style="color-interpolation-filters:sRGB"
       id="filter12089"
       x="-0.35388923"
       y="-0.25437378"
       width="1.7077785"
       height="1.5087476">
      <feGaussianBlur
         inkscape:collect="always"
         stdDeviation="1.5195567"
         id="feGaussianBlur12091" />
    </filter>
    <radialGradient
       inkscape:collect="always"
       xlink:href="#linearGradient13241"
       id="radialGradient8687"
       cx="50.713627"
       cy="103.59316"
       fx="50.713627"
       fy="103.59316"
       r="21.196003"
       gradientTransform="matrix(0.92592473,0.55494187,-0.24055919,0.40137484,28.676914,33.870357)"
       gradientUnits="userSpaceOnUse"
       spreadMethod="pad" />
    <linearGradient
       inkscape:collect="always"
       xlink:href="#Glow_1"
       id="linearGradient12337"
       gradientUnits="userSpaceOnUse"
       gradientTransform="matrix(0.9937095,0.1119885,-0.1701222,0.98542297,3.7137324e-6,0)"
       x1="63.086735"
       y1="94.866524"
       x2="73.109398"
       y2="94.866524" />
    <linearGradient
       inkscape:collect="always"
       xlink:href="#Glow_1"
       id="linearGradient6654"
       x1="63.086735"
       y1="94.866524"
       x2="73.109398"
       y2="94.866524"
       gradientUnits="userSpaceOnUse"
       gradientTransform="matrix(0.9937095,0.1119885,-0.1701222,0.98542297,0,0)" />
    <clipPath
       clipPathUnits="userSpaceOnUse"
       id="clipPath12098">
      <path
         style="fill:none;stroke:#000000;stroke-width:1.4;stroke-linecap:butt;stroke-linejoin:miter;stroke-miterlimit:4;stroke-dasharray:none;stroke-opacity:1"
         d="m 30.391765,91.637131 c 1.226815,5.50723 4.988346,13.937159 9.268611,17.206029 4.280265,3.26887 30.679154,6.51255 30.679154,6.51255 -2.322255,-3.0307 -5.331493,-6.59575 -6.615139,-9.84311 C 56.850822,98.187287 48.80011,91.736086 30.391765,91.637131 Z"
         id="path12100"
         sodipodi:nodetypes="czccc" />
    </clipPath>
    <filter
       inkscape:collect="always"
       style="color-interpolation-filters:sRGB"
       id="filter12085"
       x="-0.35315267"
       y="-0.25554108"
       width="1.7063053"
       height="1.5110822">
      <feGaussianBlur
         inkscape:collect="always"
         stdDeviation="1.5195567"
         id="feGaussianBlur12087" />
    </filter>
    <filter
       inkscape:collect="always"
       style="color-interpolation-filters:sRGB"
       id="filter1474"
       x="-0.38430319"
       y="-0.86529482"
       width="1.7686064"
       height="2.7305896">
      <feGaussianBlur
         inkscape:collect="always"
         stdDeviation="3.7609669"
         id="feGaussianBlur1476" />
    </filter>
    <linearGradient
       inkscape:collect="always"
       xlink:href="#linearGradient28240"
       id="linearGradient28234"
       x1="917.4986"
       y1="469.40109"
       x2="960.7359"
       y2="447.05203"
       gradientUnits="userSpaceOnUse"
       gradientTransform="translate(1.4526731,16.132233)" />
    <linearGradient
       inkscape:collect="always"
       id="linearGradient28240">
      <stop
         style="stop-color:#ff8000;stop-opacity:1"
         offset="0"
         id="stop28236" />
      <stop
         style="stop-color:#cfb700;stop-opacity:0.13752132"
         offset="1"
         id="stop28238" />
    </linearGradient>
    <linearGradient
       inkscape:collect="always"
       xlink:href="#linearGradient10311"
       id="linearGradient8869"
       x1="1064.4175"
       y1="286.04248"
       x2="1046.1774"
       y2="350.72803"
       gradientUnits="userSpaceOnUse"
       gradientTransform="translate(-990.6888,-446.62347)" />
    <linearGradient
       inkscape:collect="always"
       id="linearGradient10311">
      <stop
         style="stop-color:#ff9c00;stop-opacity:1"
         offset="0"
         id="stop10307" />
      <stop
         style="stop-color:#f58700;stop-opacity:0.80392158"
         offset="0.27185076"
         id="stop10669" />
      <stop
         style="stop-color:#e99600;stop-opacity:0.5411765"
         offset="0.636617"
         id="stop10347" />
      <stop
         style="stop-color:#cf2a00;stop-opacity:0"
         offset="1"
         id="stop10309" />
    </linearGradient>
    <linearGradient
       inkscape:collect="always"
       xlink:href="#linearGradient10311"
       id="linearGradient9451"
       x1="883.6994"
       y1="277.58566"
       x2="868.00214"
       y2="330.1441"
       gradientUnits="userSpaceOnUse"
       gradientTransform="translate(-990.6888,-446.62347)" />
    <radialGradient
       inkscape:collect="always"
       xlink:href="#head"
       id="radialGradient17426"
       cx="959.70905"
       cy="447.75012"
       fx="959.70905"
       fy="447.75012"
       r="144.65981"
       gradientTransform="matrix(1.5582964,0.10741318,-0.07696777,1.1165997,-1494.0285,-609.82383)"
       gradientUnits="userSpaceOnUse" />
    <linearGradient
       inkscape:collect="always"
       id="head">
      <stop
         style="stop-color:#222222;stop-opacity:1"
         offset="0"
         id="stop17420" />
      <stop
         style="stop-color:#282828;stop-opacity:1"
         offset="1"
         id="stop17422" />
    </linearGradient>
    <filter
       inkscape:collect="always"
       style="color-interpolation-filters:sRGB"
       id="filter13402"
       x="-0.10148137"
       y="-0.11541357"
       width="1.2029627"
       height="1.2308271">
      <feGaussianBlur
         inkscape:collect="always"
         stdDeviation="12.095868"
         id="feGaussianBlur13404" />
    </filter>
    <filter
       inkscape:collect="always"
       style="color-interpolation-filters:sRGB"
       id="filter13113"
       x="-0.092408013"
       y="-0.43052785"
       width="1.1848377"
       height="1.8639346">
      <feGaussianBlur
         inkscape:collect="always"
         stdDeviation="4.666178"
         id="feGaussianBlur13115" />
    </filter>
    <filter
       inkscape:collect="always"
       style="color-interpolation-filters:sRGB"
       id="filter13113-3"
       x="-0.091574132"
       y="-0.41711184"
       width="1.1832143"
       height="1.8371559">
      <feGaussianBlur
         inkscape:collect="always"
         stdDeviation="4.666178"
         id="feGaussianBlur13115-6" />
    </filter>
    <filter
       inkscape:collect="always"
       style="color-interpolation-filters:sRGB"
       id="filter13113-3-5"
       x="-0.10030845"
       y="-0.45488057"
       width="1.2006769"
       height="1.9129556">
      <feGaussianBlur
         inkscape:collect="always"
         stdDeviation="4.666178"
         id="feGaussianBlur13115-6-3" />
    </filter>
    <filter
       inkscape:collect="always"
       style="color-interpolation-filters:sRGB"
       id="filter13113-3-6"
       x="-0.11013371"
       y="-0.44865121"
       width="1.220214"
       height="1.901191">
      <feGaussianBlur
         inkscape:collect="always"
         stdDeviation="4.666178"
         id="feGaussianBlur13115-6-2" />
    </filter>
    <filter
       inkscape:collect="always"
       style="color-interpolation-filters:sRGB"
       id="filter13113-3-1"
       x="-0.13937626"
       y="-0.78848844"
       width="1.278101"
       height="2.5814818">
      <feGaussianBlur
         inkscape:collect="always"
         stdDeviation="4.666178"
         id="feGaussianBlur13115-6-27" />
    </filter>
    <filter
       inkscape:collect="always"
       style="color-interpolation-filters:sRGB"
       id="filter13113-3-9"
       x="-0.17234434"
       y="-0.96535201"
       width="1.3445527"
       height="2.9355044">
      <feGaussianBlur
         inkscape:collect="always"
         stdDeviation="4.666178"
         id="feGaussianBlur13115-6-36" />
    </filter>
    <filter
       inkscape:collect="always"
       style="color-interpolation-filters:sRGB"
       id="filter13113-3-2"
       x="-0.219026"
       y="-1.115434"
       width="1.4379166"
       height="3.2375512">
      <feGaussianBlur
         inkscape:collect="always"
         stdDeviation="4.666178"
         id="feGaussianBlur13115-6-6" />
    </filter>
    <filter
       inkscape:collect="always"
       style="color-interpolation-filters:sRGB"
       id="filter13113-3-2-8-3"
       x="-0.40617214"
       y="-0.86884804"
       width="1.8293925"
       height="2.7565832">
      <feGaussianBlur
         inkscape:collect="always"
         stdDeviation="4.0908223"
         id="feGaussianBlur13115-6-6-7-6" />
    </filter>
    <filter
       inkscape:collect="always"
       style="color-interpolation-filters:sRGB"
       id="filter13113-3-2-2"
       x="-0.27204645"
       y="-1.0676657"
       width="1.545216"
       height="3.1443343">
      <feGaussianBlur
         inkscape:collect="always"
         stdDeviation="4.666178"
         id="feGaussianBlur13115-6-6-0" />
    </filter>
    <filter
       inkscape:collect="always"
       style="color-interpolation-filters:sRGB"
       id="filter13113-3-2-3"
       x="-0.33529774"
       y="-1.2352192"
       width="1.6785728"
       height="3.4826369">
      <feGaussianBlur
         inkscape:collect="always"
         stdDeviation="4.666178"
         id="feGaussianBlur13115-6-6-75" />
    </filter>
    <filter
       inkscape:collect="always"
       style="color-interpolation-filters:sRGB"
       id="filter13113-3-2-28"
       x="-0.23688053"
       y="-0.96129415"
       width="1.4737106"
       height="2.9319026">
      <feGaussianBlur
         inkscape:collect="always"
         stdDeviation="4.666178"
         id="feGaussianBlur13115-6-6-9" />
    </filter>
    <filter
       inkscape:collect="always"
       style="color-interpolation-filters:sRGB"
       id="filter6055"
       x="-0.045420442"
       y="-0.013540084"
       width="1.0908409"
       height="1.0270802">
      <feGaussianBlur
         inkscape:collect="always"
         stdDeviation="2.5144379"
         id="feGaussianBlur6057" />
    </filter>
    <filter
       inkscape:collect="always"
       style="color-interpolation-filters:sRGB"
       id="filter2635"
       x="-1.0812093"
       y="-0.13669821"
       width="3.170544"
       height="1.2690067">
      <feGaussianBlur
         inkscape:collect="always"
         stdDeviation="1.8040225"
         id="feGaussianBlur2637" />
    </filter>
    <filter
       inkscape:collect="always"
       style="color-interpolation-filters:sRGB"
       id="filter2639"
       x="-0.73876301"
       y="-0.13417712"
       width="2.4712682"
       height="1.2637703">
      <feGaussianBlur
         inkscape:collect="always"
         stdDeviation="2.2542398"
         id="feGaussianBlur2641" />
    </filter>
    <filter
       inkscape:collect="always"
       style="color-interpolation-filters:sRGB"
       id="filter13615"
       x="-0.17654887"
       y="-0.077794595"
       width="1.3530977"
       height="1.1555892">
      <feGaussianBlur
         inkscape:collect="always"
         stdDeviation="15.94614"
         id="feGaussianBlur13617" />
    </filter>
    <filter
       inkscape:collect="always"
       style="color-interpolation-filters:sRGB"
       id="filter2926"
       x="-0.033411007"
       y="-0.028430163"
       width="1.066822"
       height="1.0568603">
      <feGaussianBlur
         inkscape:collect="always"
         stdDeviation="0.57115978"
         id="feGaussianBlur2928" />
    </filter>
    <filter
       inkscape:collect="always"
       style="color-interpolation-filters:sRGB"
       id="filter2922"
       x="-0.033026816"
       y="-0.031557035"
       width="1.0660536"
       height="1.0631141">
      <feGaussianBlur
         inkscape:collect="always"
         stdDeviation="0.61542676"
         id="feGaussianBlur2924" />
    </filter>
    <linearGradient
       inkscape:collect="always"
       xlink:href="#linearGradient26104"
       id="linearGradient1292"
       gradientUnits="userSpaceOnUse"
       gradientTransform="rotate(-6,-4009.747,5196.9799)"
       x1="554.54175"
       y1="467.79807"
       x2="855.23462"
       y2="398.39777"
       spreadMethod="pad" />
    <linearGradient
       inkscape:collect="always"
       xlink:href="#linearGradient19650"
       id="linearGradient1294"
       gradientUnits="userSpaceOnUse"
       gradientTransform="matrix(-0.98480775,-0.17364818,-0.17364818,0.98480775,518.9135,-341.32307)"
       x1="554.54175"
       y1="467.79807"
       x2="743.15955"
       y2="409.64374"
       spreadMethod="reflect" />
    <filter
       inkscape:collect="always"
       style="color-interpolation-filters:sRGB"
       id="filter18004"
       x="-0.32457937"
       y="-0.33478164"
       width="1.6491587"
       height="1.6695633">
      <feGaussianBlur
         inkscape:collect="always"
         stdDeviation="5.8769111"
         id="feGaussianBlur18006" />
    </filter>
    <filter
       inkscape:collect="always"
       style="color-interpolation-filters:sRGB"
       id="filter18008"
       x="-0.31316222"
       y="-0.32054349"
       width="1.6263244"
       height="1.641087">
      <feGaussianBlur
         inkscape:collect="always"
         stdDeviation="5.8769111"
         id="feGaussianBlur18010" />
    </filter>
    <linearGradient
       inkscape:collect="always"
       xlink:href="#linearGradient4179"
       id="linearGradient4181"
       x1="40.444565"
       y1="174.59021"
       x2="131.09889"
       y2="9.466464"
       gradientUnits="userSpaceOnUse" />
  </defs>
  <g
     inkscape:groupmode="layer"
     id="layer2"
     inkscape:label="Background">
    <rect
       style="display:inline;fill:url(#linearGradient4181);fill-opacity:1;stroke:none;stroke-width:0.178578;stroke-linecap:round;stroke-linejoin:round;stroke-opacity:1"
       id="rect19424"
       width="180"
       height="180"
       x="0"
       y="0"
       inkscape:label="background" />
  </g>
  <g
     inkscape:label="Layer 1"
     inkscape:groupmode="layer"
     id="layer1">
    <g
       id="g1533"
       inkscape:label="ether"
       transform="matrix(0.56642892,0,0,0.56642892,114.41053,117.69301)">
      <g
         id="g1431"
         inkscape:label="wings">
        <path
           style="display:inline;mix-blend-mode:normal;fill:url(#linearGradient1292);fill-opacity:1;stroke:none;stroke-width:1px;stroke-linecap:butt;stroke-linejoin:miter;stroke-opacity:1;filter:url(#filter1377)"
           d="m 36.2253,21.00071 c 43.2738,-38.12816 81.5551,-81.88358 132.1487,-109.56511 1.6668,-0.91193 4.5684,-1.07252 13.2181,-6.8315 -0.7397,1.11791 -2.5705,5.61022 -0.949,5.59289 70.5534,-0.75403 141.1294,-0.37186 211.6873,0.15825 2.1599,0.0162 12.4258,-3.57483 14.5857,-3.55836 -1.8091,0.8815 -3.5198,1.80786 -3.2345,3.64476 45.1051,36.50203 66.5282,99.7902 100.2638,149.34893 -34.8284,-45.95338 -48.751,-96.85338 -104.761,-137.68429 -7.7057,49.36661 -36.5132,95.4568 -54.5193,143.25387 14.757,-48.35585 38.2644,-94.42602 44.2709,-145.06756 -68.3703,-0.0588 -136.7406,-0.11759 -205.1109,-0.17639 40.6107,52.20114 60.2802,100.64295 90.4203,150.96442 C 241.8399,22.08443 182.8592,-73.74143 175.2104,-76.17578 171.0558,-74.4497 155.9384,34.01864 146.5661,89.13547 152.7162,34.34783 156.35,-20.38074 165.0716,-74.50671 110.896,-39.70528 80.6128,-0.52622 42.0153,37.12949 Z"
           id="path1375"
           sodipodi:nodetypes="cscssccccccccccccc"
           inkscape:label="right-wing-skeleton" />
        <path
           style="display:inline;fill:url(#linearGradient1294);fill-opacity:1;stroke:none;stroke-width:1px;stroke-linecap:butt;stroke-linejoin:miter;stroke-opacity:1;filter:url(#filter27852)"
           d="m -109.76124,27.38474 c -6.68796,-8.58511 -111.03331,-115.77008 -123.82229,-118.69113 -0.23576,-0.13917 -10.66229,-4.69244 -15.86336,-9.89495 1.30594,3.046 1.49972,7.77234 -0.0851,7.54216 -44.95625,-6.52955 -180.83212,-13.38501 -212.46169,-14.67112 -1.95742,-0.0796 -5.85794,-2.68121 -7.02717,-3.25528 1.12484,2.20541 1.26414,3.05733 0.41074,3.04809 -4.58784,0.41617 -78.92034,92.1914 -110.43763,141.99107 -2.57665,-0.8834 107.87946,-131.90635 114.11019,-130.04114 8.33195,0.86952 44.71973,146.73251 44.39355,146.70798 -11.34647,-49.2671 -15.53234,-96.7102 -34.04361,-147.80236 70.07051,0.41661 137.42651,7.09104 204.62358,14.13186 -30.87584,49.86771 -67.10515,96.2248 -100.7308,144.28928 0.11295,0.19467 107.8526,-138.13165 109.02713,-139.2865 3.77431,-3.71107 17.46859,166.99907 17.04301,166.90669 -2.6501,-56.20245 -2.35139,-111.19739 -7.99258,-168.62466 62.47556,56.45709 123.70544,114.77937 115.9551,123.33558 z"
           id="path27850"
           sodipodi:nodetypes="cccssccccccccscccc"
           inkscape:label="left-wing-glow" />
        <path
           style="display:inline;fill:url(#linearGradient2529);fill-opacity:1;stroke:none;stroke-width:1px;stroke-linecap:butt;stroke-linejoin:miter;stroke-opacity:1"
           d="m 36.2253,21.00071 c 43.2738,-38.12816 81.5551,-81.88358 132.1487,-109.56511 1.6668,-0.91193 4.5684,-1.07252 13.2181,-6.8315 -0.7397,1.11791 -2.5705,5.61022 -0.949,5.59289 70.5534,-0.75403 141.1294,-0.37186 211.6873,0.15825 2.1599,0.0162 12.4258,-3.57483 14.5857,-3.55836 -1.8091,0.8815 -3.5198,1.80786 -3.2345,3.64476 45.1051,36.50203 66.5282,99.7902 100.2638,149.34893 -34.8284,-45.95338 -48.751,-96.85338 -104.761,-137.68429 -7.7057,49.36661 -36.5132,95.4568 -54.5193,143.25387 14.757,-48.35585 38.2644,-94.42602 44.2709,-145.06756 -68.3703,-0.0588 -136.7406,-0.11759 -205.1109,-0.17639 40.6107,52.20114 60.2802,100.64295 90.4203,150.96442 C 241.8399,22.08443 182.8592,-73.74143 175.2104,-76.17578 171.0558,-74.4497 155.9384,34.01864 146.5661,89.13547 152.7162,34.34783 156.35,-20.38074 165.0716,-74.50671 110.896,-39.70528 80.6128,-0.52622 42.0153,37.12949 Z"
           id="path15069"
           sodipodi:nodetypes="cscssccccccccccccc"
           inkscape:label="right-wing-skeleton" />
        <path
           style="display:inline;fill:url(#linearGradient19034);fill-opacity:1;stroke:none;stroke-width:1px;stroke-linecap:butt;stroke-linejoin:miter;stroke-opacity:1"
           d="m -109.76124,27.38474 c -6.68796,-8.58511 -111.03331,-115.77008 -123.82229,-118.69113 -0.23576,-0.13917 -10.66229,-4.69244 -15.86336,-9.89495 1.30594,3.046 1.49972,7.77234 -0.0851,7.54216 -44.95625,-6.52955 -180.83212,-13.38501 -212.46169,-14.67112 -1.95742,-0.0796 -5.85794,-2.68121 -7.02717,-3.25528 1.12484,2.20541 1.26414,3.05733 0.41074,3.04809 -4.58784,0.41617 -78.92034,92.1914 -110.43763,141.99107 -2.57665,-0.8834 107.87946,-131.90635 114.11019,-130.04114 8.33195,0.86952 44.71973,146.73251 44.39355,146.70798 -11.34647,-49.2671 -15.53234,-96.7102 -34.04361,-147.80236 70.07051,0.41661 137.42651,7.09104 204.62358,14.13186 -30.87584,49.86771 -67.10515,96.2248 -100.7308,144.28928 0.11295,0.19467 107.8526,-138.13165 109.02713,-139.2865 3.77431,-3.71107 17.46859,166.99907 17.04301,166.90669 -2.6501,-56.20245 -2.35139,-111.19739 -7.99258,-168.62466 62.47556,56.45709 123.70544,114.77937 115.9551,123.33558 z"
           id="path19028"
           sodipodi:nodetypes="cccssccccccccscccc"
           inkscape:label="left-wing-skeleton" />
      </g>
      <g
         id="g1454"
         inkscape:label="body">
        <path
           style="display:inline;fill:#222222;fill-opacity:1;stroke:none;stroke-width:1px;stroke-linecap:butt;stroke-linejoin:miter;stroke-opacity:1"
           d="m 26.6842,332.44476 -2.9954,29.45956 c 3.1257,-5.63623 18.0002,-3.71658 24.6388,2.16222 -6.1237,-10.42234 -19.7592,-16.82307 -19.7592,-16.82307 4.0278,-6.65516 19.9909,0.76513 24.5266,3.02574 -7.9258,-10.39799 -29.6192,-21.66857 -26.4108,-17.82445 z"
           id="path14643"
           sodipodi:nodetypes="cccccc"
           inkscape:label="fluff-leg-right" />
        <path
           style="display:inline;fill:#222222;fill-opacity:1;stroke:none;stroke-width:1px;stroke-linecap:butt;stroke-linejoin:miter;stroke-opacity:1"
           d="m -138.74298,326.74279 -2.1657,29.53215 c -2.0995,-6.09337 -11.73386,-7.04188 -23.02166,-0.16167 4.37579,-12.09405 20.53325,-17.34909 20.53325,-17.34909 -0.98139,-2.87815 -12.80514,-2.74759 -20.28793,2.84903 7.92445,-13.76407 28.76922,-18.099 24.94204,-14.87042 z"
           id="path14643-6"
           sodipodi:nodetypes="cccccc"
           inkscape:label="fluff-leg-left" />
        <path
           style="display:inline;fill:#222222;fill-opacity:1;stroke:none;stroke-width:1px;stroke-linecap:butt;stroke-linejoin:miter;stroke-opacity:1;filter:url(#filter2922)"
           d="m -144.36206,65.80438 17.79183,-42.53263 c -12.07372,-1.14387 -21.41106,1.12619 -33.70428,8.91383 9.32501,-1.45974 20.44904,-1.87112 25.03493,3.68682 -10.16372,1.30586 -19.64843,5.58027 -30.0278,15.68588 47.528,-14.02244 24.63718,2.34635 21.79595,3.5416 -13.79718,-2.32288 -21.68828,9.08239 -27.82077,14.69853 8.67912,-2.51804 17.28934,-5.31084 26.93014,-3.99403 z"
           id="path11352"
           sodipodi:nodetypes="cccccccc"
           inkscape:label="fluff-shoulder-left" />
        <path
           style="display:inline;fill:#222222;fill-opacity:1;stroke:none;stroke-width:1px;stroke-linecap:butt;stroke-linejoin:miter;stroke-opacity:1;filter:url(#filter2926)"
           d="M 51.5128,75.56323 33.7209,33.0306 C 45.7947,31.88673 60.0402,32.5801 71.9356,51.75684 58.3446,45.46693 53.3096,41.80143 43.3814,48.75539 53.5451,50.06125 61.3914,47.56485 72.5695,66.32147 54.196,57.47625 47.7809,63.66348 50.6221,64.85873 64.4193,62.53585 71.1341,72.1909 74.7488,80.90388 67.0394,76.21708 61.1536,74.24642 51.5128,75.56323 Z"
           id="path11352-3"
           sodipodi:nodetypes="cccccccc"
           inkscape:label="fluff-shoulder-right" />
        <path
           style="display:inline;fill:#000000;fill-opacity:1;stroke:none;stroke-width:1px;stroke-linecap:butt;stroke-linejoin:miter;stroke-opacity:1;filter:url(#filter13615)"
           d="m -114.5083,10.59348 c -10.99723,4.28073 -17.78299,9.57656 -21.59972,16.81911 -13.42827,25.48124 -18.7702,46.60959 -18.8681,65.94737 -0.0625,12.35339 35.90427,27.97601 40.97389,1.37503 -13.63028,1.41899 -16.05573,14.3532 -16.6416,22.42432 -1.95686,26.95798 0.34301,64.59483 2.83824,100.37875 -5.59273,22.17132 -12.48144,63.40335 -7.88545,87.14392 -5.53825,30.74609 -10.83898,45.85756 -13.67217,73.15269 -1.17102,11.28168 -3.03227,23.07729 -7.53419,34.5737 11.22404,-9.72696 15.11266,-8.71108 19.46364,-25.52734 4.80161,9.88909 3.5049,18.11771 5.40534,27.39487 6.82335,-6.62862 11.64092,-13.62505 13.62869,-21.14042 2.39351,8.1807 7.47728,16.68821 15.3522,25.74002 -2.3662,-41.13664 4.98593,-72.65239 5.56727,-115.30757 2.91668,-7.4224 4.22681,-14.71904 5.69447,-22.51897 0,0 2.16539,12.47745 3.0049,33.4266 2.59202,64.68169 13.68576,200.4147 127.51729,187.15895 C -80.31904,445.03389 -8.82163,279.77744 -8.82163,279.77744 c 0.42252,6.53546 1.69685,14.22982 2.09348,20.60312 -3.92085,29.70029 -2.44382,56.81698 -3.64958,83.82839 -0.48096,10.77453 -2.23296,21.51695 -4.31187,32.323 4.87236,-3.22461 12.62811,-10.42741 16.56762,-18.32628 3.98873,8.74164 3.95053,16.81609 8.11878,22.80679 1.7123,-9.62374 6.2255,-16.17344 10.659,-25.44285 1.3802,11.96222 6.7305,17.84949 14.4697,30.37311 -0.3892,-14.04874 -1.8379,-23.80753 -0.7718,-36.51319 2.1349,-25.44421 -1.3037,-56.77296 -5.4298,-86.2225 2.4845,-29.26253 -0.7115,-56.2994 -7.9937,-84.54951 4.8941,-29.99638 9.0038,-66.21118 10.2607,-101.00594 0.241,-6.67057 4.3193,-26.64031 -12.4826,-25.79987 -2.6959,21.7935 39.6955,25.30863 40.9947,2.83322 C 60.658,78.16424 57.5058,59.76982 52.892,42.52835 52.0364,39.33106 50.7497,35.70823 49.1007,32.33648 46.2068,26.41897 39.8168,17.21136 29.7486,17.65788 c 0,0 -95.52219,-3.03451 -144.2569,-7.0644 z"
           id="path13595"
           sodipodi:nodetypes="csscsccscccccccscccscccccsccscssscc"
           inkscape:label="body-shadow" />
        <path
           style="display:inline;fill:#222222;fill-opacity:1;stroke:none;stroke-width:1px;stroke-linecap:butt;stroke-linejoin:miter;stroke-opacity:1"
           d="m -114.5083,10.59348 c -10.99723,4.28073 -17.78299,9.57656 -21.59972,16.81911 -13.42827,25.48124 -18.7702,46.60959 -18.8681,65.94737 -0.0625,12.35339 35.90427,27.97601 40.97389,1.37503 -13.63028,1.41899 -16.05573,14.3532 -16.6416,22.42432 -1.95686,26.95798 0.34301,64.59483 2.83824,100.37875 -5.59273,22.17132 -12.48144,63.40335 -7.88545,87.14392 -5.53825,30.74609 -10.83898,45.85756 -13.67217,73.15269 -1.17102,11.28168 -3.03227,23.07729 -7.53419,34.5737 11.22404,-9.72696 15.11266,-8.71108 19.46364,-25.52734 4.80161,9.88909 3.5049,18.11771 5.40534,27.39487 6.82335,-6.62862 11.64092,-13.62505 13.62869,-21.14042 2.39351,8.1807 7.47728,16.68821 15.3522,25.74002 -2.3662,-41.13664 4.98593,-72.65239 5.56727,-115.30757 2.91668,-7.4224 4.22681,-14.71904 5.69447,-22.51897 0,0 2.16539,12.47745 3.0049,33.4266 2.59202,64.68169 13.68576,200.4147 127.51729,187.15895 C -80.31904,445.03389 -8.82163,279.77744 -8.82163,279.77744 c 0.42252,6.53546 1.69685,14.22982 2.09348,20.60312 -3.92085,29.70029 -2.44382,56.81698 -3.64958,83.82839 -0.48096,10.77453 -2.23296,21.51695 -4.31187,32.323 4.87236,-3.22461 12.62811,-10.42741 16.56762,-18.32628 3.98873,8.74164 3.95053,16.81609 8.11878,22.80679 1.7123,-9.62374 6.2255,-16.17344 10.659,-25.44285 1.3802,11.96222 6.7305,17.84949 14.4697,30.37311 -0.3892,-14.04874 -1.8379,-23.80753 -0.7718,-36.51319 2.1349,-25.44421 -1.3037,-56.77296 -5.4298,-86.2225 2.4845,-29.26253 -0.7115,-56.2994 -7.9937,-84.54951 4.8941,-29.99638 9.0038,-66.21118 10.2607,-101.00594 0.241,-6.67057 4.3193,-26.64031 -12.4826,-25.79987 -2.6959,21.7935 39.6955,25.30863 40.9947,2.83322 C 60.658,78.16424 57.5058,59.76982 52.892,42.52835 52.0364,39.33106 50.532019,36.033183 48.86535,32.670132 45.936291,26.759797 40.237274,23.313966 29.7486,17.65788 c 0,0 -95.52219,-3.03451 -144.2569,-7.0644 z"
           id="path27872"
           sodipodi:nodetypes="csscsccscccccccscccscccccsccscssscc"
           inkscape:label="body-shape" />
        <path
           style="display:inline;fill:none;stroke:#000000;stroke-width:1px;stroke-linecap:butt;stroke-linejoin:miter;stroke-opacity:1;filter:url(#filter2639)"
           d="m -114.00223,94.73499 c 0.82221,-15.05817 2.08517,-29.86007 7.99909,-41.95772"
           id="path959"
           sodipodi:nodetypes="cc"
           inkscape:label="arm-seperator-line-left" />
        <path
           style="display:inline;mix-blend-mode:normal;fill:none;stroke:#000000;stroke-width:1px;stroke-linecap:butt;stroke-linejoin:miter;stroke-opacity:1;filter:url(#filter2635)"
           d="M 18.7083,91.85171 C 17.5971,79.93203 18.5766,69.14152 14.2767,58.777"
           id="path1170"
           sodipodi:nodetypes="cc"
           inkscape:label="arm-seperator-line-right" />
        <path
           style="display:inline;fill:#1f1f1f;fill-opacity:1;stroke:none;stroke-width:1px;stroke-linecap:butt;stroke-linejoin:miter;stroke-opacity:1;filter:url(#filter6055)"
           d="m -98.77669,35.60309 -7.22645,17.17418 -7.99909,41.95772 c -2.22864,64.40501 20.78326,103.76985 26.42151,166.8921 4.73301,22.90433 3.41494,61.95504 5.4319,76.32907 3.41971,24.37092 8.41264,44.15582 12.39206,58.39612 5.2011,18.61201 4.94082,35.2986 11.19943,46.34819 13.9314,24.59589 75.15763,80.87608 20.50328,-16.65889 -4.87489,-8.69962 -2.24817,-22.3704 -5.07827,-37.55889 -2.50681,-13.45337 5.39842,-28.44853 7.72108,-43.63055 3.22083,-21.05299 12.06889,-58.12914 21.28492,-77.60399 C 3.61781,202.57335 12.7867,154.87422 18.7083,91.85171 L 14.2767,58.777 11.3678,40.46833 Z"
           id="path5426"
           sodipodi:nodetypes="ccccssssssccccc"
           inkscape:label="darker-belly-shape" />
        <g
           id="g26564"
           inkscape:label="belly-scales"
           style="display:inline"
           transform="translate(-992.6888,-446.62347)">
          <path
             style="mix-blend-mode:normal;fill:none;stroke:#000000;stroke-width:1px;stroke-linecap:butt;stroke-linejoin:miter;stroke-opacity:1;filter:url(#filter13113)"
             d="m 882.10742,519.3064 57.54634,23.34557 65.67664,-27.0855"
             id="path13111" />
          <path
             style="display:inline;fill:none;stroke:#000000;stroke-width:1px;stroke-linecap:butt;stroke-linejoin:miter;stroke-opacity:1;filter:url(#filter13113-3)"
             d="m 882.93622,554.25487 58.96529,23.97448 65.38369,-27.95073"
             id="path13111-7"
             sodipodi:nodetypes="ccc" />
          <path
             style="display:inline;fill:none;stroke:#000000;stroke-width:1px;stroke-linecap:butt;stroke-linejoin:miter;stroke-opacity:1;filter:url(#filter13113-3-5)"
             d="m 885.54028,599.43227 53.40572,21.83971 60.12494,-25.63042"
             id="path13111-7-5"
             sodipodi:nodetypes="ccc" />
          <path
             style="display:inline;fill:none;stroke:#000000;stroke-width:1px;stroke-linecap:butt;stroke-linejoin:miter;stroke-opacity:1;filter:url(#filter13113-3-6)"
             d="m 891.70096,630.76403 48.23286,23.32506 55.42756,-25.97027"
             id="path13111-7-9"
             sodipodi:nodetypes="ccc" />
          <path
             style="display:inline;fill:none;stroke:#000000;stroke-width:1px;stroke-linecap:butt;stroke-linejoin:miter;stroke-opacity:1;filter:url(#filter13113-3-1)"
             d="m 902.23578,675.17186 35.77388,14.78893 45.94627,-13.17046"
             id="path13111-7-0"
             sodipodi:nodetypes="ccc" />
          <path
             style="display:inline;fill:none;stroke:#000000;stroke-width:1px;stroke-linecap:butt;stroke-linejoin:miter;stroke-opacity:1;filter:url(#filter13113-3-9)"
             d="m 907.10785,716.73045 30.94478,11.34362 35.03312,-12.09038"
             id="path13111-7-06"
             sodipodi:nodetypes="ccc" />
          <path
             style="display:inline;fill:none;stroke:#000000;stroke-width:1px;stroke-linecap:butt;stroke-linejoin:miter;stroke-opacity:1;filter:url(#filter13113-3-2)"
             d="m 910.29438,756.64842 24.63911,9.85534 27.33882,-10.45855"
             id="path13111-7-1"
             sodipodi:nodetypes="ccc" />
          <path
             style="display:inline;fill:none;stroke:#000000;stroke-width:1px;stroke-linecap:butt;stroke-linejoin:miter;stroke-opacity:1;filter:url(#filter13113-3-2-8-3)"
             d="m 944.45633,908.65922 16.27094,0.0428 7.90425,-11.62359"
             id="path13111-7-1-9-1"
             sodipodi:nodetypes="ccc" />
          <path
             style="display:inline;fill:none;stroke:#000000;stroke-width:1px;stroke-linecap:butt;stroke-linejoin:miter;stroke-opacity:1;filter:url(#filter13113-3-2-2)"
             d="m 918.13857,830.00402 20.04634,7.58874 21.76949,-10.90777"
             id="path13111-7-1-2"
             sodipodi:nodetypes="ccc" />
          <path
             style="display:inline;fill:none;stroke:#000000;stroke-width:1px;stroke-linecap:butt;stroke-linejoin:miter;stroke-opacity:1;filter:url(#filter13113-3-2-3)"
             d="m 927.42275,871.82531 21.18501,1.51843 12.32125,-9.38824"
             id="path13111-7-1-92"
             sodipodi:nodetypes="ccc" />
          <path
             style="display:inline;fill:none;stroke:#000000;stroke-width:1px;stroke-linecap:butt;stroke-linejoin:miter;stroke-opacity:1;filter:url(#filter13113-3-2-28)"
             d="m 912.18057,790.67491 24.01411,12.11413 24.21284,-12.04937"
             id="path13111-7-1-7"
             sodipodi:nodetypes="ccc" />
        </g>
      </g>
      <g
         id="g1419"
         inkscape:label="head"
         transform="matrix(0.91774621,0,0,0.91774621,-2.8398115,-6.1358004)">
        <path
           style="display:inline;fill:#222222;fill-opacity:1;stroke:none;stroke-width:1px;stroke-linecap:butt;stroke-linejoin:miter;stroke-opacity:1"
           d="m -120.39709,4.57694 c 1.56806,-12.15469 -21.41028,11.73035 -22.28196,15.97329 -0.89851,-0.43129 1.96344,-26.9624 9.49601,-27.93363 15.02442,-5.83164 -3.21921,-8.68564 -17.38034,15.45409 -1.57466,-1.48306 1.84245,-40.10386 9.43013,-35.82568 2.36274,1.33219 20.73616,32.33193 20.73616,32.33193 z"
           id="path1029"
           sodipodi:nodetypes="ccccsc"
           inkscape:label="small-fluff-left" />
        <path
           style="display:inline;fill:#222222;fill-opacity:1;stroke:none;stroke-width:1px;stroke-linecap:butt;stroke-linejoin:miter;stroke-opacity:1"
           d="m 46.2253,17.00071 14.8753,-30.14822 c 5.3834,6.1176 9.2889,14.51867 10.5026,21.04682 -2.208,-2.24157 -2.9521,-4.4396 -10.695,-5.33059 2.5599,5.88072 1.9327,10.50609 -0.3129,15.58857 -0.4461,-4.91273 -3.4946,-11.80265 -6.5567,-7.25277 3.286,5.15873 2.3155,9.9594 2.7141,14.87524 C 53.4754,22.5209 52.9736,15.28218 46.2253,17.00071"
           id="path1031"
           sodipodi:nodetypes="cccccccc"
           inkscape:label="small-fluff-right" />
        <path
           style="display:inline;fill:#000000;fill-opacity:1;stroke:none;stroke-width:1px;stroke-linecap:butt;stroke-linejoin:miter;stroke-opacity:1;filter:url(#filter13402)"
           d="m -96.12154,-200.36142 c -24.73396,30.9027 -39.61436,56.62412 -48.40634,83.10229 -1.73794,5.23401 -4.26305,11.83258 -4.26305,11.83258 0,0 -2.44432,1.40244 -4.74351,1.27999 -5.17475,-0.2756 -13.22183,-6.2457 -17.5517,-10.6737 1.29615,7.20304 6.70854,27.55734 17.16185,35.55644 -9.03063,0.046 -13.42954,-1.2806 -23.6323,-8.53187 0.25202,10.46488 23.49418,35.87977 23.93674,40.51274 3.9207,41.04455 27.64526,67.44297 58.11693,83.80011 C -57.40383,56.96868 3.45129,59.05152 43.1031,23.03029 55.2352,12.00902 61.8484,4.72516 64.8383,-7.0924 c 0.243,-0.96056 4.5659,-8.61151 9.8459,-12.40734 13.4188,-9.64695 24.9361,-25.44597 30.4367,-34.61927 -13.6433,7.90585 -29.0861,4.60471 -29.0861,4.60471 0,0 20.303,-16.57795 32.4718,-34.97372 -8.9797,4.48284 -21.1179,7.99976 -25.6357,5.14327 -0.5018,-0.31733 -1.0057,0.0196 -1.3047,-0.46245 -0.398,-0.6416 -0.5071,-2.16862 -0.4847,-3.13265 0.7318,-31.42958 8.6526,-65.24963 22.1254,-92.91639 -51.5587,23.09896 -61.7377,46.13852 -81.0504,78.77457 -4.8463,-13.91814 -10.5722,-21.68678 -28.02065,-33.80365 4.91643,15.22767 5.08372,25.76326 1.02544,38.39278 -5.31508,-15.66647 -12.66172,-31.61022 -28.73907,-48.74553 -0.15438,15.65634 2.2,31.88851 -4.5936,46.02097 -3.74189,-10.85682 -8.07624,-21.52912 -17.54571,-31.40064 -0.0659,9.52135 1.67664,21.90792 -7.47983,29.19868 -0.81588,-14.04248 -9.13937,-35.87758 -12.56573,-38.89326 1.84754,1.54217 1.64474,25.67225 -2.65692,36.2702 -0.66439,1.63686 -2.71316,-0.55098 -3.5415,-2.37277 -6.53762,-14.37837 -15.70928,-54.81761 -14.16047,-97.94653 z"
           id="path13382"
           sodipodi:nodetypes="cscscccssssscccscscccccccccssc"
           inkscape:label="head-shadow" />
        <path
           style="display:inline;fill:url(#radialGradient17426);fill-opacity:1;stroke:none;stroke-width:1px;stroke-linecap:butt;stroke-linejoin:miter;stroke-opacity:1"
           d="m -96.12154,-200.36142 c -24.73396,30.9027 -39.61436,56.62412 -48.40634,83.10229 -1.73794,5.23401 -4.26305,11.83258 -4.26305,11.83258 0,0 -2.44432,1.40244 -4.74351,1.27999 -5.17475,-0.2756 -13.22183,-6.2457 -17.5517,-10.6737 1.29615,7.20304 6.70854,27.55734 17.16185,35.55644 -9.03063,0.046 -13.42954,-1.2806 -23.6323,-8.53187 0.25202,10.46488 23.49418,35.87977 23.93674,40.51274 3.9207,41.04455 27.64526,67.44297 58.11693,83.80011 C -57.40383,56.96868 3.45129,59.05152 43.1031,23.03029 55.2352,12.00902 61.8484,4.72516 64.8383,-7.0924 c 0.243,-0.96056 4.5659,-8.61151 9.8459,-12.40734 13.4188,-9.64695 24.9361,-25.44597 30.4367,-34.61927 -13.6433,7.90585 -29.0861,4.60471 -29.0861,4.60471 0,0 20.303,-16.57795 32.4718,-34.97372 -8.9797,4.48284 -21.1179,7.99976 -25.6357,5.14327 -0.5018,-0.31733 -1.0057,0.0196 -1.3047,-0.46245 -0.398,-0.6416 -0.5071,-2.16862 -0.4847,-3.13265 0.7318,-31.42958 8.6526,-65.24963 22.1254,-92.91639 -51.5587,23.09896 -61.7377,46.13852 -81.0504,78.77457 -4.8463,-13.91814 -10.5722,-21.68678 -28.02065,-33.80365 4.91643,15.22767 5.08372,25.76326 1.02544,38.39278 -5.31508,-15.66647 -12.66172,-31.61022 -28.73907,-48.74553 -0.15438,15.65634 2.2,31.88851 -4.5936,46.02097 -3.74189,-10.85682 -8.07624,-21.52912 -17.54571,-31.40064 -0.0659,9.52135 1.67664,21.90792 -7.47983,29.19868 -0.81588,-14.04248 -9.13937,-35.87758 -12.56573,-38.89326 1.84754,1.54217 1.64474,25.67225 -2.65692,36.2702 -0.66439,1.63686 -2.71316,-0.55098 -3.5415,-2.37277 -6.53762,-14.37837 -15.70928,-54.81761 -14.16047,-97.94653 z"
           id="path869"
           sodipodi:nodetypes="cscscccssssscccscscccccccccssc"
           inkscape:label="head-shape" />
        <path
           style="display:inline;fill:none;stroke:#000000;stroke-width:1.5;stroke-linecap:round;stroke-linejoin:round;stroke-miterlimit:4;stroke-dasharray:none;stroke-opacity:1"
           d="m -62.89403,-2.48601 6.49633,1.28262"
           id="path5313"
           inkscape:label="left-nosetrail" />
        <path
           style="display:inline;fill:none;stroke:#000000;stroke-width:1.5;stroke-linecap:round;stroke-linejoin:round;stroke-miterlimit:4;stroke-dasharray:none;stroke-opacity:1"
           d="m -32.97971,0.81907 7.418744,1.0958088"
           id="path5315"
           inkscape:label="right-nosetrail"
           sodipodi:nodetypes="cc" />
        <path
           style="display:inline;fill:#1d1206;fill-opacity:1;stroke:#000000;stroke-width:1px;stroke-linecap:butt;stroke-linejoin:miter;stroke-opacity:1"
           d="m -84.65939,17.66881 c 24.60145,14.839381 50.511183,17.304685 80.47105,8.49541 -37.196883,8.599719 -59.746723,2.06722 -80.47105,-8.49541 z"
           id="path1982"
           sodipodi:nodetypes="ccc"
           inkscape:label="alt-mouth" />
        <path
           style="color:#000000;display:inline;fill:url(#linearGradient9451);fill-opacity:1;-inkscape-stroke:none"
           d="m -102.40999,-182.77288 c -13.16437,24.25966 -26.33915,48.97513 -35.93506,74.4248 l -0.24609,0.65039 0.69531,0.0254 43.04101,1.5625 -0.10351,-0.60547 c -4.45772,-26.66174 -9.07978,-46.10348 -6.51807,-75.75097 0.0859,-0.93195 0.21273,-2.03494 0.21968,-2.0371 0,0 -0.67289,0.95303 -1.15327,1.73045 z m -0.3086,2.71094 c -1.87693,27.97976 2.45077,47.34931 6.66456,72.90722 l -41.08985,-1.49219 c 9.2598,-24.4072 21.76784,-47.99543 34.42529,-71.41503 z"
           id="path7340"
           sodipodi:nodetypes="ccccccccccccc" />
        <path
           style="color:#000000;display:inline;fill:url(#linearGradient8869);-inkscape-stroke:none"
           d="m 92.1544,-164.8886 c -12.9762,6.90746 -21.9399,16.56276 -30.8713,24.90722 -15.1168,14.12328 -23.8499,30.81083 -30.2278,46.10596 l -0.2734,0.65234 0.707,0.0391 40.9219,2.26563 v -0.52735 c 0.9142,-20.53238 5.4456,-46.17055 20.3901,-72.72216 l 1.2927,-1.91702 z m -1.2949,1.91015 c -13.6064,25.4522 -18.4263,50.77966 -19.4253,71.00537 l -39.1523,-2.16797 c 6.3438,-14.95499 15.3157,-31.44804 29.7732,-45.11219 8.3886,-7.92834 16.7235,-17.1245 28.8044,-23.72521 z"
           id="path7968"
           sodipodi:nodetypes="cscccccccccccsc" />
        <g
           id="g11027"
           inkscape:label="blep"
           style="display:none"
           transform="translate(-992.6888,-446.62347)">
          <path
             id="path5635"
             style="display:inline;fill:url(#linearGradient28234);fill-opacity:1;stroke:#000000;stroke-width:1px;stroke-linecap:butt;stroke-linejoin:miter;stroke-opacity:1"
             inkscape:label="tounge-blep"
             d="m 931.14453,471.83008 c -0.18975,11.87567 22.08119,17.04541 32.00977,3.37695 -10.61894,0.12848 -21.27884,-0.91378 -32.00977,-3.37695 z" />
          <path
             id="path26477"
             style="color:#000000;display:inline;fill:#000000;-inkscape-stroke:none"
             d="m 945.28906,474.58398 -1.41797,4.3379 0.95118,0.31054 1.41796,-4.33789 z"
             inkscape:label="tounge-detail" />
        </g>
        <ellipse
           style="display:inline;opacity:0.399645;mix-blend-mode:normal;fill:#171717;fill-opacity:1;stroke-width:1.77729;stroke-linecap:round;stroke-linejoin:round;filter:url(#filter1474)"
           id="path1032"
           cx="1036.0909"
           cy="302.64645"
           rx="11.74375"
           ry="5.2157488"
           transform="matrix(1.5503846,0.28253887,-0.46881319,1.4033955,-1506.0921,-730.9465)"
           inkscape:label="nose" />
        <g
           id="g2857"
           inkscape:label="left-eye"
           transform="matrix(1.5156228,0.17955836,-0.17955836,1.5156228,-154.90685,-212.75064)"
           style="display:inline">
          <path
             style="display:inline;fill:url(#radialGradient8687);fill-opacity:1;stroke:none;stroke-width:1.4;stroke-linecap:butt;stroke-linejoin:miter;stroke-miterlimit:4;stroke-dasharray:none;stroke-opacity:1"
             d="m 30.391764,91.637131 c 1.22682,5.50723 4.98835,13.937159 9.26861,17.206029 4.28027,3.26887 30.67916,6.51255 30.67916,6.51255 -2.32226,-3.0307 -5.3315,-6.59575 -6.61514,-9.84311 -6.87357,-7.325313 -14.92428,-13.776514 -33.33263,-13.875469 z"
             id="path8211"
             sodipodi:nodetypes="czccc" />
          <path
             id="path3802"
             style="display:inline;fill:url(#linearGradient12337);fill-opacity:1;stroke:none;stroke-width:1.70761;stroke-linecap:round;stroke-miterlimit:4;stroke-dasharray:none;stroke-opacity:1"
             d="m 49.158204,94.869141 a 4.9974382,8.1388889 11.839733 0 0 -2.60742,5.679689 4.9974382,8.1388889 11.839733 0 0 3.59765,8.57226 4.9974382,8.1388889 11.839733 0 0 6.36133,-7.44921 4.9974382,8.1388889 11.839733 0 0 0.16992,-2.585942 c -2.18643,-1.607695 -4.64419,-3.044074 -7.52148,-4.216797 z" />
          <ellipse
             style="display:inline;fill:#ffffff;fill-opacity:0.193782;stroke:none;stroke-width:1.48905;stroke-linecap:round;stroke-miterlimit:4;stroke-dasharray:none;stroke-opacity:1"
             id="path3694"
             cx="53.888325"
             cy="108.72311"
             rx="1.7356911"
             ry="1.7574608" />
          <ellipse
             style="display:inline;fill:#ffffff;fill-opacity:0.106274;stroke:none;stroke-width:1.42162;stroke-linecap:round;stroke-miterlimit:4;stroke-dasharray:none;stroke-opacity:1"
             id="path3696"
             cx="68.91169"
             cy="85.146149"
             rx="3.3851535"
             ry="2.7407801"
             transform="matrix(0.9678482,0.25153502,-0.26628296,0.9638949,0,0)" />
          <path
             id="path12083"
             style="display:inline;mix-blend-mode:normal;fill:url(#linearGradient6654);fill-opacity:1;stroke:none;stroke-width:1.70761;stroke-linecap:round;stroke-miterlimit:4;stroke-dasharray:none;stroke-opacity:1;filter:url(#filter12085)"
             d="m 49.158203,94.869141 a 4.9974382,8.1388889 11.839733 0 0 -2.607422,5.679689 4.9974382,8.1388889 11.839733 0 0 3.597657,8.57226 4.9974382,8.1388889 11.839733 0 0 6.361328,-7.44921 4.9974382,8.1388889 11.839733 0 0 0.169922,-2.585942 C 54.49325,97.478243 52.035493,96.041864 49.158203,94.869141 Z"
             clip-path="url(#clipPath12098)" />
          <ellipse
             style="display:inline;fill:#000000;fill-opacity:1;stroke:none;stroke-width:1.4;stroke-linecap:round;stroke-miterlimit:4;stroke-dasharray:none;stroke-opacity:1"
             id="path3800"
             cx="68.493568"
             cy="91.312889"
             rx="2.5683901"
             ry="3.9384625"
             transform="rotate(10)" />
          <path
             style="color:#000000;fill:#000000;-inkscape-stroke:none"
             d="m 29.113464,90.177848 0.59552,1.611214 c 1.259884,5.655654 5.101606,13.351298 9.685999,16.852438 1.301531,0.99399 3.69841,2.62312 6.803897,3.39402 3.105487,0.7709 6.758642,1.15848 10.33595,1.76995 5.121438,0.87714 11.303976,2.06029 16.056584,2.64459 -3.424539,-2.70762 -6.362323,-7.02525 -8.612352,-11.57659 C 57.059203,97.498867 50.337136,91.048327 31.766365,90.948499 30.515299,90.737894 29.881975,90.658964 29.113464,90.177848 Z m 2.234192,2.206918 c 17.497793,0.32238 25.14877,6.45556 31.841797,13.583984 1.610107,2.78939 3.514297,5.78501 5.544922,8.44141 -1.344466,-0.1698 -5.788105,-0.52322 -12.024782,-1.58924 -3.557441,-0.60807 -7.269167,-1.00467 -10.317292,-1.76133 -3.048124,-0.75666 -5.763581,-2.73963 -6.602184,-3.38008 -3.775389,-2.8833 -7.061319,-9.934666 -8.442461,-15.294744 z"
             id="path860"
             sodipodi:nodetypes="ccssccccccccsssc" />
        </g>
        <g
           id="g2848"
           inkscape:label="right-eye"
           transform="matrix(1.5342358,0.10336012,-0.10336012,1.5342358,-164.23096,-207.63103)"
           style="display:inline">
          <path
             style="display:inline;fill:url(#radialGradient9727);fill-opacity:1;stroke:none;stroke-width:1.4;stroke-linecap:butt;stroke-linejoin:miter;stroke-miterlimit:4;stroke-dasharray:none;stroke-opacity:1"
             d="m 148.19116,92.573884 c -1.22681,5.50723 -4.98835,13.937156 -9.26861,17.206026 -4.28027,3.26887 -30.89802,6.16515 -30.89802,6.16515 2.32225,-3.0307 5.98747,-7.00014 7.27111,-10.2475 6.87357,-7.325315 14.48718,-13.024721 32.89552,-13.123676 z"
             id="path9717"
             sodipodi:nodetypes="czccc" />
          <path
             id="path3305"
             style="display:inline;fill:url(#linearGradient12335);fill-opacity:1;stroke:none;stroke-width:1.41936;stroke-linecap:round;stroke-miterlimit:4;stroke-dasharray:none;stroke-opacity:1"
             d="m 129.95312,95.376953 c -2.19064,0.80973 -4.1278,1.770592 -5.88476,2.855469 a 5.1120844,7.353651 7 0 0 -1.11328,3.533198 5.1120844,7.353651 7 0 0 4.17969,7.92188 5.1120844,7.353651 7 0 0 5.96875,-6.67578 5.1120844,7.353651 7 0 0 -3.1504,-7.634767 z" />
          <ellipse
             style="display:inline;fill:#ffffff;fill-opacity:0.137793;stroke:none;stroke-width:1.76299;stroke-linecap:round;stroke-miterlimit:4;stroke-dasharray:none;stroke-opacity:1"
             id="path3201"
             cx="132.66766"
             cy="107.23997"
             rx="3.0949185"
             ry="2.241262" />
          <path
             id="path12081"
             style="display:inline;mix-blend-mode:normal;fill:url(#linearGradient6662);fill-opacity:1;stroke:none;stroke-width:1.41936;stroke-linecap:round;stroke-miterlimit:4;stroke-dasharray:none;stroke-opacity:1;filter:url(#filter12089)"
             d="m 129.95312,95.376953 c -2.19064,0.80973 -4.1278,1.770592 -5.88476,2.855469 a 5.1120844,7.353651 7 0 0 -1.11328,3.533198 5.1120844,7.353651 7 0 0 4.17969,7.92188 5.1120844,7.353651 7 0 0 5.96875,-6.67578 5.1120844,7.353651 7 0 0 -3.1504,-7.634767 z"
             clip-path="url(#clipPath12104)" />
          <ellipse
             style="display:inline;fill:#000000;fill-opacity:1;stroke:none;stroke-width:1.68494;stroke-linecap:round;stroke-miterlimit:4;stroke-dasharray:none;stroke-opacity:1"
             id="path2591"
             cx="127.66656"
             cy="102.79205"
             rx="2.4803493"
             ry="3.8122447" />
          <path
             style="color:#000000;fill:#040404;-inkscape-stroke:none"
             d="m 149.32788,90.749345 c -0.97671,0.252685 -1.80113,0.658205 -2.98532,0.70267 -16.23135,1.693247 -24.63132,6.385448 -31.5574,13.766725 -0.0817,0.0695 -0.0984,0.14134 -0.1406,0.22074 -1.18787,3.00508 -4.81673,7.00136 -7.17578,10.08008 l -0.99414,1.29883 c 3.33058,-0.98081 10.93658,-1.91005 15.31224,-2.47205 3.6192,-0.46808 7.37381,-1.19568 10.50054,-1.93384 3.12673,-0.73815 5.41312,-1.42968 6.72169,-2.42904 4.58439,-3.50114 8.60605,-11.601208 9.86592,-17.256864 z m -2.09155,2.567061 c -1.38005,5.360291 -5.15802,13.026044 -8.9347,15.910334 -0.83157,0.63507 -3.10481,1.4904 -6.17272,2.21467 -3.06792,0.72426 -6.78456,1.39033 -10.36914,1.95507 -6.27897,0.98924 -10.7337,1.4701 -12.09571,1.62305 2.19823,-2.71985 4.26507,-5.94913 6.15235,-8.85351 6.68964,-7.127241 13.90994,-12.553487 31.41992,-12.849614 z"
             id="path860-3"
             sodipodi:nodetypes="cccccccsscccsssccc" />
        </g>
      </g>
      <g
         id="g1425"
         inkscape:label="paws"
         transform="translate(0,5.6499505)">
        <path
           style="display:inline;mix-blend-mode:normal;fill:#000000;fill-opacity:1;stroke:none;stroke-width:1px;stroke-linecap:butt;stroke-linejoin:miter;stroke-opacity:1;filter:url(#filter18008)"
           d="m -155.40281,121.47837 c 0,0 -6.4805,-14.07575 -3.5478,-25.840072 5.33913,-21.41753 40.74602,-15.40037 43.51011,-1.125 2.76409,14.275362 -2.52394,21.119222 -6.5818,31.117652 -1.14664,-8.82821 -4.92913,-24.77513 -8.56066,-25.18199 -3.51834,7.0352 -6.15205,15.25024 -7.69715,23.56067 -3.29392,-7.7119 -5.74781,-14.16011 -7.40211,-22.15442 -6.10521,4.03632 -6.48242,13.08034 -9.72059,19.62316 z"
           id="path17658"
           sodipodi:nodetypes="cszccccc"
           inkscape:label="left-shadow" />
        <path
           style="display:inline;mix-blend-mode:normal;fill:#000000;fill-opacity:1;stroke:none;stroke-width:1px;stroke-linecap:butt;stroke-linejoin:miter;stroke-opacity:1;filter:url(#filter18004)"
           d="m 48.461447,122.49356 c 0,0 11.4731,-13.39464 8.5404,-25.158962 -5.3391,-21.41754 -41.7495,-15.80397 -42.8088,0.73116 -1.0594,16.535122 3.2063,16.024542 5.1975,27.434582 2.837,-8.50943 4.4326,-18.85181 9.2437,-23.35509 2.2068,6.55362 3.8338,14.46905 5.3789,22.77948 4.623,-7.7119 8.066,-13.37891 9.7203,-21.37323 4.6273,4.03633 5.2112,11.39576 4.728,18.94206 z"
           id="path17660"
           sodipodi:nodetypes="cszccccc"
           inkscape:label="right-shadow" />
        <path
           style="display:inline;fill:#222222;fill-opacity:1;stroke:none;stroke-width:1px;stroke-linecap:butt;stroke-linejoin:miter;stroke-opacity:1"
           d="m -155.40281,121.47837 c 0,0 -6.4805,-14.07575 -3.5478,-25.840072 5.33913,-21.41753 40.74602,-15.40037 43.51011,-1.125 2.76409,14.275362 -2.52394,21.119222 -6.5818,31.117652 -1.14664,-8.82821 -4.92913,-24.77513 -8.56066,-25.18199 -3.51834,7.0352 -6.15205,15.25024 -7.69715,23.56067 -3.29392,-7.7119 -5.74781,-14.16011 -7.40211,-22.15442 -6.10521,4.03632 -6.48242,13.08034 -9.72059,19.62316 z"
           id="path13172"
           sodipodi:nodetypes="cszccccc"
           inkscape:label="left-paw" />
        <path
           style="display:inline;fill:#222222;fill-opacity:1;stroke:none;stroke-width:1px;stroke-linecap:butt;stroke-linejoin:miter;stroke-opacity:1"
           d="m 48.461447,122.49356 c 0,0 11.4731,-13.39464 8.5404,-25.158962 -5.3391,-21.41754 -41.7495,-15.80397 -42.8088,0.73116 -1.0594,16.535122 3.2063,16.024542 5.1975,27.434582 2.837,-8.50943 4.4326,-18.85181 9.2437,-23.35509 2.2068,6.55362 3.8338,14.46905 5.3789,22.77948 4.623,-7.7119 8.066,-13.37891 9.7203,-21.37323 4.6273,4.03633 5.2112,11.39576 4.728,18.94206 z"
           id="path13172-6"
           sodipodi:nodetypes="cszccccc"
           inkscape:label="right-paw" />
      </g>
    </g>
  </g>
</svg>
